ply
format ascii 1.0
element vertex 1293
property float x
property float y
property float z
property uchar red
property uchar green
property uchar blue
end_header
 8.89799e-18 -6.02872e-17  2.02026e-16 255 255 255
-1.06389e-17 -5.69609e-17  2.01047e-16 255 255 255
-1.27543e-17 -5.61778e-17  2.00942e-16 255 255 255
-3.21901e-18 -5.64734e-17  2.01402e-16 255 255 255
 4.68274e-18 -5.70744e-17  2.01777e-16 255 255 255
 5.63755e-17 -7.35732e-17  2.04099e-16 255 255 255
 5.41957e-17 -7.13915e-17  2.04149e-16 255 255 255
 6.82602e-17 -7.35818e-17  2.04861e-16 255 255 255
 7.08122e-17 -7.41206e-17  2.04981e-16 255 255 255
 6.89548e-17 -7.31931e-17  2.04929e-16 255 255 255
 6.35037e-17 -7.16021e-17  2.04694e-16 255 255 255
 7.02633e-17 -7.25141e-17  2.05042e-16 255 255 255
 3.84148e-17 -6.24704e-17  2.03464e-16 255 255 255
 7.93908e-17 -7.21424e-17  2.05555e-16 255 255 255
 7.73618e-17 -7.06332e-17  2.05457e-16 255 255 255
-8.83779e-17 -3.82337e-17  1.96863e-16 255 255 255
  7.7225e-17 -6.93887e-17  2.05428e-16 255 255 255
 7.47607e-17 -6.88049e-17  2.05299e-16 255 255 255
-7.99609e-17 -3.78801e-17  1.97085e-16 255 255 255
 8.03473e-17 -6.93961e-17  2.05568e-16 255 255 255
 1.57361e-17 -5.91746e-17  2.02341e-16 255 255 255
  8.4525e-17 -7.00993e-17  2.05779e-16 255 255 255
 5.66053e-17 -6.04192e-17  2.03963e-16 255 255 255
 8.60036e-17 -6.67406e-17  2.05608e-16 255 255 255
8.75092e-17 -6.5932e-17  2.0557e-16 255 255 255
 -8.6634e-17 -3.23507e-17  1.95998e-16 255 255 255
 5.49407e-17 -5.67038e-17  2.03343e-16 255 255 255
 5.03355e-17 -5.45716e-17  2.02838e-16 255 255 255
-8.72973e-17 -3.06443e-17  1.95609e-16 255 255 255
-8.59415e-17 -3.06443e-17  1.95624e-16 255 255 255
-7.54019e-17 -3.00684e-17  1.95551e-16 255 255 255
-8.63618e-17 -2.94309e-17  1.95315e-16 255 255 255
-8.66577e-17 -2.85526e-17  1.95076e-16 255 255 255
-7.91553e-17 -2.84761e-17  1.95077e-16 255 255 255
-4.18629e-17 -5.47636e-17  1.99397e-16 255 255 255
 3.70962e-17 -5.81225e-17   2.0309e-16 255 255 255
4.98778e-17 -5.1389e-17 2.02074e-16 255 255 255
-3.42145e-17 -5.38455e-17  1.99859e-16 255 255 255
 4.09002e-17 -5.66869e-17  2.03017e-16 255 255 255
-3.35785e-17 -5.21506e-17  1.99892e-16 255 255 255
 -3.8915e-17 -5.15136e-17  1.99629e-16 255 255 255
 -1.7864e-17 -4.72129e-17  2.00088e-16 255 255 255
 6.97229e-17 -5.28879e-17  2.02578e-16 255 255 255
5.34746e-17 -4.8922e-17 2.01356e-16 255 255 255
-8.50974e-17 -2.53176e-17  1.94076e-16 255 255 255
-5.24604e-17 -4.82193e-17   1.9893e-16 255 255 255
-6.06919e-17 -4.63407e-17    1.985e-16 255 255 255
 -3.4321e-17 -4.94405e-17  1.99762e-16 255 255 255
-3.46724e-17 -4.86949e-17    1.997e-16 255 255 255
-8.48625e-17 -2.32714e-17  1.93335e-16 255 255 255
-3.50885e-17 -4.78513e-17  1.99618e-16 255 255 255
-1.55195e-17 -4.44998e-17  1.99675e-16 255 255 255
 3.27383e-17 -5.08328e-17  2.01767e-16 255 255 255
-7.68675e-17 -2.2085e-17 1.92727e-16 255 255 255
-3.86781e-17 -4.66419e-17  1.99383e-16 255 255 255
 7.63873e-17 -5.05413e-17  2.01779e-16 255 255 255
-3.07844e-17 -4.56694e-17  1.99519e-16 255 255 255
 7.66231e-17 -4.97931e-17    2.015e-16 255 255 255
 7.57206e-17 -4.91145e-17  2.01251e-16 255 255 255
-3.80265e-17 -4.49454e-17  1.99216e-16 255 255 255
-3.92781e-17 -4.44208e-17  1.99112e-16 255 255 255
7.55291e-17 -4.8348e-17 2.00951e-16 255 255 255
-4.13929e-17 -4.41623e-17  1.99017e-16 255 255 255
-5.58955e-17 -4.27552e-17  1.98407e-16 255 255 255
-7.59921e-17 -1.98238e-17  1.91681e-16 255 255 255
-4.2282e-17 -4.3495e-17 1.98902e-16 255 255 255
 2.13531e-17 -4.56867e-17  2.00355e-16 255 255 255
 7.59538e-17 -4.67692e-17  2.00285e-16 255 255 255
-7.22355e-18 -3.99441e-17  1.98603e-16 255 255 255
 4.71311e-17 -4.26279e-17  1.99079e-16 255 255 255
-3.95518e-17 -4.22758e-17  1.98782e-16 255 255 255
-5.64674e-17 -4.08371e-17  1.98142e-16 255 255 255
     8.1e-17 -4.67135e-17  2.00149e-16 255 255 255
-7.98713e-18 -3.86434e-17  1.98192e-16 255 255 255
-9.82943e-17 -1.61275e-17  1.90535e-16 255 255 255
-5.70451e-17 -3.92403e-17  1.97874e-16 255 255 255
-4.44196e-17 -3.99888e-17  1.98266e-16 255 255 255
-5.27988e-17 -3.9416e-17 1.97996e-16 255 255 255
-3.69063e-17 -3.99819e-17  1.98389e-16 255 255 255
 4.00514e-17 -3.85202e-17  1.97389e-16 255 255 255
-5.71859e-17 -3.84219e-17  1.97725e-16 255 255 255
-5.04287e-17 -3.84791e-17  1.97859e-16 255 255 255
 7.70534e-17 -4.37287e-17  1.98838e-16 255 255 255
 4.89061e-17 -3.94067e-17  1.97561e-16 255 255 255
-5.75704e-17 -3.77718e-17  1.97593e-16 255 255 255
-3.81452e-17 -3.88623e-17   1.9812e-16 255 255 255
 3.92794e-17 -3.78061e-17  1.97063e-16 255 255 255
-5.08179e-17 -3.75422e-17  1.97654e-16 255 255 255
-4.63202e-17 -3.75459e-17  1.97714e-16 255 255 255
-4.24571e-17 -3.77082e-17  1.97797e-16 255 255 255
-4.87895e-17 -3.72369e-17  1.97612e-16 255 255 255
 -7.1233e-18 -3.56689e-17  1.97124e-16 255 255 255
-5.67972e-17 -3.60351e-17  1.97235e-16 255 255 255
 4.95715e-17 -3.78436e-17  1.96739e-16 255 255 255
-5.36759e-17 -3.56668e-17  1.97183e-16 255 255 255
 4.92589e-17 -3.66688e-17  1.96116e-16 255 255 255
 4.81834e-17 -3.60645e-17  1.95824e-16 255 255 255
-5.00614e-17 -3.49888e-17  1.97038e-16 255 255 255
 7.29725e-17 -3.90001e-17  1.96432e-16 255 255 255
 4.54132e-17 -3.47727e-17  1.95206e-16 255 255 255
-4.60617e-17 -3.38385e-17  1.96725e-16 255 255 255
 3.65515e-17 -3.36209e-17  1.94931e-16 255 255 255
-6.32221e-17 -1.27625e-17  1.87062e-16 255 255 255
-6.19445e-17 -1.20973e-17  1.86524e-16 255 255 255
-8.80353e-17 -9.09682e-18  1.86074e-16 255 255 255
-2.77001e-17 -1.57985e-17   1.8688e-16 255 255 255
5.70854e-17  -3.181e-17 1.92701e-16 255 255 255
-6.31939e-17 -1.12076e-17  1.85976e-16 255 255 255
-8.46278e-17 -8.41586e-18  1.85399e-16 255 255 255
-9.75835e-17 -6.19961e-18  1.84677e-16 255 255 255
-4.62011e-17 -1.15531e-17  1.85016e-16 255 255 255
  7.2479e-17 -3.51333e-17  1.94026e-16 255 255 255
-6.17043e-17 -1.06945e-17  1.85502e-16 255 255 255
-8.66656e-17 -7.31817e-18  1.84755e-16 255 255 255
-5.28617e-17 -1.06406e-17  1.84817e-16 255 255 255
-2.27823e-17 -1.46143e-17  1.85594e-16 255 255 255
 4.91473e-17 -2.79909e-17  1.90478e-16 255 255 255
 4.82719e-17 -2.75952e-17  1.90243e-16 255 255 255
-5.88823e-17 -9.36776e-18  1.84289e-16 255 255 255
 4.18982e-17 -2.57511e-17  1.89301e-16 255 255 255
 1.44187e-17 -1.95788e-17  1.86563e-16 255 255 255
 1.97132e-17 -2.05754e-17  1.86938e-16 255 255 255
-4.88356e-17 -9.29409e-18  1.83417e-16 255 255 255
 6.86054e-17 -3.19196e-17  1.92017e-16 255 255 255
-4.52898e-17 -9.23967e-18  1.83066e-16 255 255 255
4.99079e-17 -2.6597e-17  1.8934e-16 255 255 255
 2.88333e-17 -2.17845e-17  1.87166e-16 255 255 255
 2.01601e-17 -1.97044e-17   1.8617e-16 255 255 255
 7.40398e-17 -3.24467e-17  1.92024e-16 255 255 255
 1.29411e-17 -1.80205e-17  1.85375e-16 255 255 255
-6.26423e-17 -7.42411e-18  1.83038e-16 255 255 255
 2.69494e-17 -2.09355e-17  1.86618e-16 255 255 255
-2.91159e-17 -1.15123e-17  1.83567e-16 255 255 255
 4.92437e-17 -2.58796e-17  1.88819e-16 255 255 255
-6.90124e-17 -6.76713e-18  1.83029e-16 255 255 255
-5.87882e-17 -7.08491e-18  1.82429e-16 255 255 255
-5.25208e-17 -7.16937e-18  1.81939e-16 255 255 255
 1.84762e-17 -1.79494e-17  1.84796e-16 255 255 255
 3.01063e-17 -2.01338e-17  1.85635e-16 255 255 255
 2.11416e-17 -1.82214e-17  1.84785e-16 255 255 255
-6.09168e-17 -5.83939e-18  1.81553e-16 255 255 255
  2.7811e-17 -1.92732e-17  1.85087e-16 255 255 255
 2.89253e-17 -1.93598e-17  1.85057e-16 255 255 255
 1.39842e-17 -1.56111e-17  1.83099e-16 255 255 255
 1.50843e-17 -1.59164e-17  1.83271e-16 255 255 255
 3.26707e-17 -1.89536e-17  1.84309e-16 255 255 255
 2.22555e-17 -1.66445e-17  1.83215e-16 255 255 255
 4.32014e-17 -2.09574e-17  1.85104e-16 255 255 255
 1.49458e-17 -1.47755e-17  1.82197e-16 255 255 255
-5.49916e-17 -3.00853e-18  1.78337e-16 255 255 255
 2.15888e-17 -1.38461e-17  1.80508e-16 255 255 255
 2.40176e-17 -1.42171e-17  1.80601e-16 255 255 255
 2.07844e-17 -1.34357e-17  1.80172e-16 255 255 255
   1.691e-17 -1.26765e-17  1.79845e-16 255 255 255
-6.46184e-17 -1.98621e-18  1.78388e-16 255 255 255
 7.48379e-17 -2.20026e-17  1.82625e-16 255 255 255
  -2.002e-17 -6.10296e-18   1.7741e-16 255 255 255
 1.64463e-17 -1.11529e-17  1.78262e-16 255 255 255
 1.69087e-17 -1.05152e-17  1.77485e-16 255 255 255
 7.34392e-17 -1.94279e-17  1.79976e-16 255 255 255
 2.08842e-17 -1.04166e-17  1.76831e-16 255 255 255
 1.91828e-17 -1.00511e-17   1.7664e-16 255 255 255
 2.28136e-17 -1.04439e-17  1.76592e-16 255 255 255
-1.33211e-17 -5.78379e-18  1.76195e-16 255 255 255
-1.39557e-17 -5.37017e-18  1.75813e-16 255 255 255
 2.11844e-17 -9.76985e-18  1.76027e-16 255 255 255
 1.97017e-17 -8.89399e-18  1.75191e-16 255 255 255
  3.7595e-17 -1.16045e-17  1.75839e-16 255 255 255
 4.44433e-17 -7.48674e-17  2.03072e-16 255 255 255
-1.25995e-17 -5.33543e-17  2.00871e-16 255 255 255
 5.67257e-17 -7.22045e-17  2.04246e-16 255 255 255
 4.57086e-17 -6.61333e-17  2.03871e-16 255 255 255
  6.4452e-17 -6.82263e-17  2.04806e-16 255 255 255
 7.73733e-17 -7.13614e-17  2.05458e-16 255 255 255
 6.41559e-17 -6.74342e-17  2.04778e-16 255 255 255
 2.65777e-17 -6.37648e-17  2.02904e-16 255 255 255
-8.07977e-17 -3.88503e-17  1.97177e-16 255 255 255
-7.95326e-17 -3.89357e-17  1.97226e-16 255 255 255
  6.4393e-17 -6.60226e-17  2.04735e-16 255 255 255
 7.82157e-17 -6.87323e-17  2.05449e-16 255 255 255
 -7.6758e-17 -3.65683e-17  1.96977e-16 255 255 255
-8.04054e-17 -3.42142e-17  1.96481e-16 255 255 255
-7.55574e-17 -3.33588e-17  1.96381e-16 255 255 255
-7.80341e-17 -3.31341e-17  1.96297e-16 255 255 255
-9.33454e-17 -3.15792e-17  1.95728e-16 255 255 255
-9.37963e-17 -3.07624e-17  1.95549e-16 255 255 255
-8.10104e-17 -2.91735e-17  1.95275e-16 255 255 255
-8.77348e-17 -2.93499e-17  1.95283e-16 255 255 255
-8.11159e-17 -2.82703e-17  1.95013e-16 255 255 255
 -3.411e-17 -5.4561e-17 1.99848e-16 255 255 255
-3.51708e-17 -5.42239e-17  1.99798e-16 255 255 255
-7.88263e-17 -2.79189e-17  1.94906e-16 255 255 255
4.88582e-17 -5.1018e-17 2.01968e-16 255 255 255
 8.11666e-18 -5.08003e-17  2.01293e-16 255 255 255
-5.13971e-17 -5.10733e-17  1.98997e-16 255 255 255
-9.73188e-17 -2.44436e-17  1.93834e-16 255 255 255
 -5.9086e-17 -4.77373e-17  1.98609e-16 255 255 255
-5.56901e-17 -4.88045e-17  1.98788e-16 255 255 255
 5.53819e-17 -4.90362e-17  2.01387e-16 255 255 255
-8.55749e-17 -2.36403e-17  1.93482e-16 255 255 255
-5.64162e-17 -4.68385e-17  1.98705e-16 255 255 255
-3.57341e-17 -4.8379e-17 1.99636e-16 255 255 255
-2.78005e-17 -4.76955e-17  1.99855e-16 255 255 255
-3.81466e-17 -4.71876e-17  1.99451e-16 255 255 255
 -9.6876e-17 -2.14091e-17   1.9277e-16 255 255 255
-3.11798e-17 -4.69805e-17  1.99668e-16 255 255 255
 4.57246e-17 -4.55255e-17  2.00237e-16 255 255 255
-8.10444e-17 -2.15078e-17  1.92562e-16 255 255 255
-5.58883e-17 -4.47245e-17  1.98597e-16 255 255 255
-3.40701e-17 -4.54515e-17  1.99396e-16 255 255 255
  4.8645e-17 -4.45279e-17  1.99828e-16 255 255 255
-4.09357e-17 -4.47728e-17  1.99107e-16 255 255 255
 7.24171e-17 -4.80347e-17  2.00872e-16 255 255 255
  -1.065e-17 -4.12726e-17  1.98975e-16 255 255 255
7.48381e-17 -4.7611e-17 2.00663e-16 255 255 255
-4.59985e-17 -4.32715e-17  1.98768e-16 255 255 255
 7.76154e-17 -4.79673e-17  2.00762e-16 255 255 255
 1.94439e-17 -4.58195e-17  2.00384e-16 255 255 255
 4.82522e-17 -4.30013e-17  1.99216e-16 255 255 255
 7.40894e-17 -4.64065e-17  2.00166e-16 255 255 255
-8.82234e-17 -1.87098e-17  1.91481e-16 255 255 255
-8.55683e-17 -1.79354e-17  1.91044e-16 255 255 255
 7.86836e-17 -4.72752e-17  2.00448e-16 255 255 255
 4.56586e-17 -4.14823e-17  1.98615e-16 255 255 255
 6.96573e-17 -4.39321e-17  1.99151e-16 255 255 255
 4.43723e-17 -4.10502e-17  1.98452e-16 255 255 255
7.83789e-17 -4.5773e-17 1.99783e-16 255 255 255
 -8.9241e-17 -1.71593e-17  1.90774e-16 255 255 255
-3.46713e-17 -4.08004e-17  1.98597e-16 255 255 255
-7.94981e-17 -1.70156e-17  1.90386e-16 255 255 255
4.23667e-17 -4.1446e-17 1.98668e-16 255 255 255
 3.86272e-17 -3.82031e-17  1.97276e-16 255 255 255
-4.59415e-17 -3.96482e-17  1.98172e-16 255 255 255
-3.57563e-17 -3.99037e-17  1.98388e-16 255 255 255
-4.42864e-17 -3.93523e-17  1.98141e-16 255 255 255
 -4.6904e-17 -3.89218e-17  1.98009e-16 255 255 255
 8.13904e-17 -4.46375e-17  1.99156e-16 255 255 255
 8.27693e-17 -4.49624e-17  1.99275e-16 255 255 255
-3.69023e-17 -3.89789e-17  1.98162e-16 255 255 255
-4.38686e-17 -3.82754e-17  1.97913e-16 255 255 255
-5.50581e-17 -3.71874e-17  1.97515e-16 255 255 255
 8.05214e-17 -4.33116e-17  1.98512e-16 255 255 255
-5.01262e-17 -3.57361e-17  1.97233e-16 255 255 255
 7.19737e-17 -3.92395e-17  1.96615e-16 255 255 255
 -4.6792e-17 -1.23779e-17  1.85692e-16 255 255 255
 -4.5719e-17 -1.20226e-17  1.85343e-16 255 255 255
-9.66938e-17 -6.49246e-18  1.84825e-16 255 255 255
 5.75804e-17 -3.13717e-17  1.92363e-16 255 255 255
-4.44944e-17 -1.16219e-17  1.84939e-16 255 255 255
-2.87372e-17 -1.48516e-17   1.8624e-16 255 255 255
-2.58827e-17 -1.50623e-17  1.86187e-16 255 255 255
 4.71354e-17 -2.87756e-17  1.91201e-16 255 255 255
-2.46471e-17 -1.48488e-17  1.85926e-16 255 255 255
 5.6568e-17 -3.0638e-17 1.91909e-16 255 255 255
-2.36823e-17 -1.47571e-17  1.85778e-16 255 255 255
-5.50473e-17 -1.04451e-17  1.84832e-16 255 255 255
 2.81416e-17 -2.37429e-17  1.88795e-16 255 255 255
5.06702e-17 -2.8569e-17 1.90802e-16 255 255 255
 2.85692e-17 -2.29901e-17  1.88169e-16 255 255 255
4.46513e-17 -2.6502e-17 1.89675e-16 255 255 255
 5.75111e-17 -2.90572e-17  1.90672e-16 255 255 255
 2.75415e-17 -2.14707e-17  1.87016e-16 255 255 255
 5.18515e-17 -2.70364e-17  1.89535e-16 255 255 255
 7.29467e-17 -3.25149e-17  1.92151e-16 255 255 255
 1.32446e-17 -1.73879e-17  1.84793e-16 255 255 255
-8.60552e-17 -3.63424e-18  1.81888e-16 255 255 255
  2.0053e-17 -1.75858e-17  1.84315e-16 255 255 255
 1.72795e-17 -1.53529e-17  1.82503e-16 255 255 255
1.44373e-17 -1.3822e-17 1.81314e-16 255 255 255
 3.23391e-17 -1.69053e-17  1.82375e-16 255 255 255
 1.88301e-17 -1.25059e-17   1.7943e-16 255 255 255
-1.92653e-17 -6.8615e-18 1.78122e-16 255 255 255
 1.80533e-17 -1.21022e-17  1.79094e-16 255 255 255
  3.2058e-17 -1.43878e-17  1.79797e-16 255 255 255
1.83922e-17 -1.0888e-17 1.77705e-16 255 255 255
 3.67507e-17 -1.38868e-17  1.78636e-16 255 255 255
 2.08437e-17 -1.01984e-17  1.76581e-16 255 255 255
 4.72753e-17 -1.31099e-17  1.76234e-16 255 255 255
 4.10568e-17 -9.77389e-18  1.72954e-16 255 255 255
-1.21485e-17 -5.57471e-17  2.00968e-16 255 255 255
 4.36625e-17 -7.26246e-17  2.03333e-16 255 255 255
 5.05025e-17 -7.21711e-17  2.03849e-16 255 255 255
-1.34031e-17 -5.26411e-17  2.00797e-16 255 255 255
 7.14963e-17 -7.58372e-17  2.04877e-16 255 255 255
4.53391e-17 -6.7988e-17 2.03812e-16 255 255 255
 4.42462e-17 -6.66659e-17  2.03789e-16 255 255 255
 3.82964e-17 -6.35783e-17   2.0349e-16 255 255 255
   7.393e-17 -7.31776e-17  2.05223e-16 255 255 255
 7.31623e-17 -7.17501e-17  2.05231e-16 255 255 255
 7.38513e-17 -7.11784e-17  2.05278e-16 255 255 255
    7.64e-17 -7.20294e-17  2.05398e-16 255 255 255
 8.21045e-17 -7.13781e-17  2.05694e-16 255 255 255
 2.24044e-17 -6.10368e-17  2.02694e-16 255 255 255
  1.8654e-17 -5.89785e-17  2.02462e-16 255 255 255
 -9.0954e-17 -3.47191e-17  1.96339e-16 255 255 255
-9.61739e-17 -3.38202e-17   1.9607e-16 255 255 255
-7.04049e-17 -3.41713e-17  1.96633e-16 255 255 255
-8.03891e-17 -3.33663e-17  1.96311e-16 255 255 255
 8.95594e-17 -6.54581e-17  2.05572e-16 255 255 255
-5.96297e-17 -5.3123e-17 1.98423e-16 255 255 255
-8.59704e-17 -3.0049e-17 1.95477e-16 255 255 255
  5.4453e-17 -5.24031e-17  2.02374e-16 255 255 255
 6.76398e-17 -5.45383e-17  2.03031e-16 255 255 255
-9.62357e-17 -2.6289e-17 1.94397e-16 255 255 255
-9.47579e-17 -2.5307e-17 1.94103e-16 255 255 255
-7.73745e-17 -2.55637e-17  1.94108e-16 255 255 255
 4.61571e-17 -4.89602e-17  2.01372e-16 255 255 255
-3.25158e-17 -5.10961e-17  1.99916e-16 255 255 255
 -3.6278e-17 -4.97278e-17  1.99696e-16 255 255 255
-6.06744e-17 -4.53387e-17  1.98453e-16 255 255 255
-8.74145e-17 -2.25682e-17  1.93097e-16 255 255 255
 1.28862e-17 -4.58568e-17  2.00352e-16 255 255 255
-3.46929e-17 -4.6831e-17 1.99537e-16 255 255 255
-2.78568e-17 -4.56076e-17  1.99591e-16 255 255 255
-9.44736e-17 -2.00219e-17  1.92185e-16 255 255 255
-8.06388e-18 -4.05329e-17  1.98777e-16 255 255 255
 6.96853e-17 -4.52886e-17  1.99769e-16 255 255 255
-4.33833e-17 -4.14588e-17  1.98557e-16 255 255 255
-5.37018e-17 -4.04255e-17  1.98148e-16 255 255 255
 4.50636e-17 -3.94798e-17  1.97708e-16 255 255 255
 4.74089e-17 -3.94335e-17  1.97618e-16 255 255 255
-6.26574e-17 -3.67006e-17   1.9729e-16 255 255 255
 3.93295e-17 -3.65374e-17  1.96417e-16 255 255 255
-9.31259e-17 -1.31308e-17  1.88803e-16 255 255 255
-4.43829e-17 -3.58158e-17  1.97296e-16 255 255 255
  -8.872e-17 -1.08506e-17  1.87248e-16 255 255 255
8.28924e-17 -3.9775e-17 1.96427e-16 255 255 255
-4.84393e-17 -1.05816e-17  1.84428e-16 255 255 255
-8.59881e-17 -5.68074e-18  1.83496e-16 255 255 255
 -5.0749e-17 -9.07932e-18  1.83402e-16 255 255 255
-2.72217e-17 -1.26691e-17  1.84376e-16 255 255 255
-5.32735e-17 -8.63707e-18   1.8325e-16 255 255 255
 3.03275e-17 -2.07672e-17   1.8617e-16 255 255 255
-1.08309e-17 -1.23236e-17   1.8256e-16 255 255 255
 4.48289e-17 -2.30867e-17  1.86858e-16 255 255 255
-1.26059e-17 -1.15146e-17   1.8199e-16 255 255 255
-5.54144e-17 -5.60223e-18  1.80825e-16 255 255 255
 3.03041e-17 -1.75449e-17  1.83226e-16 255 255 255
 2.31049e-17 -1.35524e-17  1.80017e-16 255 255 255
-8.24799e-17 4.45086e-20 1.78334e-16 255 255 255
 3.35729e-17 -1.52568e-17  1.80538e-16 255 255 255
 3.75749e-17 -1.46583e-17  1.79388e-16 255 255 255
-2.44201e-17 -4.45334e-18  1.76174e-16 255 255 255
-1.17063e-17 -5.51033e-18  1.75667e-16 255 255 255
-9.11002e-18 -5.6911e-17 2.01125e-16 255 255 255
-1.00161e-17 -5.59937e-17  2.01074e-16 255 255 255
 4.86224e-17 -7.19656e-17  2.03744e-16 255 255 255
 5.48508e-17 -7.29479e-17   2.0406e-16 255 255 255
 5.49274e-17 -7.04624e-17  2.04251e-16 255 255 255
 5.06839e-17 -6.84575e-17  2.04094e-16 255 255 255
 6.28048e-17 -7.09562e-17  2.04683e-16 255 255 255
  7.5915e-17 -7.06103e-17  2.05385e-16 255 255 255
 8.06819e-17 -7.19164e-17  2.05624e-16 255 255 255
 7.94327e-17 -7.08244e-17  2.05559e-16 255 255 255
 8.06998e-17 -7.01987e-17  2.05608e-16 255 255 255
 -8.9812e-17 -3.76242e-17  1.96752e-16 255 255 255
 7.63802e-17 -6.84493e-17  2.05357e-16 255 255 255
-8.87295e-17 -3.69762e-17  1.96712e-16 255 255 255
 8.23306e-17 -6.95476e-17   2.0566e-16 255 255 255
 8.40043e-17 -6.86574e-17  2.05686e-16 255 255 255
-9.27532e-17 -3.4558e-17  1.9627e-16 255 255 255
-9.16924e-17 -3.38912e-17  1.96189e-16 255 255 255
-7.80557e-17 -3.47179e-17  1.96622e-16 255 255 255
 8.80109e-17 -6.68236e-17  2.05684e-16 255 255 255
 9.05646e-17 -6.75366e-17  2.05842e-16 255 255 255
 5.76456e-17 -5.74799e-17  2.03541e-16 255 255 255
-7.42307e-17 -3.12697e-17  1.95886e-16 255 255 255
-8.35335e-17 -3.01845e-17  1.95533e-16 255 255 255
-2.22357e-17 -4.76928e-17  2.00029e-16 255 255 255
5.41027e-17 -5.0171e-17 2.01745e-16 255 255 255
 5.46864e-17 -4.94364e-17  2.01518e-16 255 255 255
  5.3757e-17 -4.76859e-17  2.00941e-16 255 255 255
 4.70594e-17 -4.73747e-17   2.0087e-16 255 255 255
-5.16956e-17 -4.73432e-17   1.9893e-16 255 255 255
-3.74229e-17 -4.83596e-17   1.9957e-16 255 255 255
-5.90056e-17 -4.49739e-17  1.98497e-16 255 255 255
-2.82633e-17 -4.66499e-17  1.99719e-16 255 255 255
-8.78183e-17 -2.12767e-17  1.92589e-16 255 255 255
-9.62606e-17 -1.98191e-17  1.92132e-16 255 255 255
 7.20421e-17 -4.57974e-17  1.99943e-16 255 255 255
-3.97253e-17 -4.00336e-17  1.98356e-16 255 255 255
-1.09399e-17 -3.6422e-17 1.97446e-16 255 255 255
-3.89746e-17 -3.74028e-17  1.97753e-16 255 255 255
 7.02078e-17 -3.71626e-17  1.95459e-16 255 255 255
-8.75023e-17 -1.17836e-17  1.87762e-16 255 255 255
-8.70714e-17 -1.04273e-17  1.86892e-16 255 255 255
-4.30273e-17 -1.23538e-17  1.85395e-16 255 255 255
-4.87518e-17 -1.13084e-17  1.85022e-16 255 255 255
  7.1548e-17 -3.36125e-17  1.93038e-16 255 255 255
 4.82181e-17 -2.40334e-17  1.87365e-16 255 255 255
-8.55652e-17 -1.52428e-18  1.80061e-16 255 255 255
-4.09675e-17 -3.85077e-18  1.77584e-16 255 255 255
 3.94263e-17 -1.08255e-17  1.74586e-16 255 255 255
 5.85618e-17 -7.27337e-17  2.04319e-16 255 255 255
  6.8498e-17 -7.39781e-17  2.04847e-16 255 255 255
 6.94765e-17 -7.17121e-17   2.0503e-16 255 255 255
-9.43146e-17 -3.35591e-17  1.96073e-16 255 255 255
-8.31876e-17 -3.45169e-17  1.96483e-16 255 255 255
-7.69058e-17 -3.26408e-17    1.962e-16 255 255 255
-9.42424e-17 -2.66069e-17  1.94495e-16 255 255 255
 3.66665e-18 -4.97102e-17  2.01012e-16 255 255 255
-6.19432e-17 -4.86766e-17  1.98476e-16 255 255 255
-9.48335e-17 -2.44455e-17  1.93828e-16 255 255 255
-9.36955e-17 -2.25024e-17  1.93144e-16 255 255 255
  -8.392e-17 -2.13723e-17   1.9256e-16 255 255 255
-8.59949e-17 -2.15721e-17  1.92679e-16 255 255 255
-9.84499e-18 -4.21063e-17  1.99201e-16 255 255 255
-1.31271e-17 -4.14949e-17  1.99017e-16 255 255 255
 6.93494e-17 -4.71384e-17  2.00561e-16 255 255 255
-9.44688e-17 -1.79902e-17  1.91304e-16 255 255 255
 6.65846e-17 -4.44115e-17  1.99448e-16 255 255 255
 2.10401e-17 -4.43652e-17  1.99961e-16 255 255 255
 8.43856e-17 -4.17438e-17  1.97512e-16 255 255 255
4.42601e-17 -3.3487e-17 1.94498e-16 255 255 255
-9.70633e-17 -7.22231e-18   1.8535e-16 255 255 255
 5.86153e-17 -3.18411e-17  1.92626e-16 255 255 255
-9.54043e-17 -6.03894e-18  1.84421e-16 255 255 255
-4.6049e-17 -1.0939e-17 1.84522e-16 255 255 255
 4.35931e-17 -2.48283e-17  1.88429e-16 255 255 255
-9.55485e-17 -2.50235e-18  1.81749e-16 255 255 255
-6.83788e-17 -4.66025e-18  1.81212e-16 255 255 255
 3.46363e-17 -1.65521e-17  1.81754e-16 255 255 255
-4.28211e-17 -3.45295e-18  1.77393e-16 255 255 255
 -7.1985e-17 -1.05557e-18   1.7828e-16 255 255 255
-1.40973e-17 -8.00338e-18  1.78694e-16 255 255 255
  7.1622e-17 -7.08605e-17  2.05165e-16 255 255 255
-8.83538e-17 -3.25055e-17  1.96001e-16 255 255 255
-7.90958e-17 -3.17813e-17  1.95972e-16 255 255 255
-5.50286e-17 -5.43667e-17  1.98615e-16 255 255 255
-8.68448e-17 -2.99219e-17  1.95436e-16 255 255 255
-9.50952e-17 -2.87773e-17  1.95073e-16 255 255 255
-8.13005e-17 -2.78609e-17  1.94889e-16 255 255 255
 1.08008e-17 -5.10323e-17  2.01395e-16 255 255 255
-9.67238e-17 -2.5376e-17 1.94125e-16 255 255 255
-9.77113e-17 -2.32724e-17  1.93448e-16 255 255 255
-8.93993e-17 -2.19274e-17  1.92874e-16 255 255 255
-1.26515e-17 -4.35459e-17  1.99518e-16 255 255 255
-1.12748e-17 -4.02167e-17  1.98677e-16 255 255 255
 4.38901e-17 -4.29857e-17  1.99284e-16 255 255 255
-5.03883e-17 -4.20666e-17  1.98481e-16 255 255 255
-6.90881e-17 -3.90909e-17  1.97554e-16 255 255 255
-9.36234e-17 -1.46518e-17  1.89646e-16 255 255 255
 2.97152e-17 -3.99791e-17  1.98287e-16 255 255 255
 4.12674e-17 -3.23757e-17  1.93967e-16 255 255 255
 2.73436e-17 -2.31165e-17  1.88367e-16 255 255 255
 -5.1271e-17 -1.01042e-17  1.84273e-16 255 255 255
 5.99129e-17 -2.89587e-17  1.90415e-16 255 255 255
-8.15485e-17 -3.77883e-17  1.97027e-16 255 255 255
4.39802e-17 -4.4937e-17 2.00037e-16 255 255 255
-1.63316e-17 -4.27932e-17  1.99299e-16 255 255 255
-8.33647e-17 -1.9587e-17 1.91763e-16 255 255 255
2.50973e-17 -4.5533e-17 2.00319e-16 255 255 255
-9.13638e-17 -1.39114e-17  1.89164e-16 255 255 255
-8.63613e-17 -1.1896e-17 1.87774e-16 255 255 255
 6.91944e-17 -3.50703e-17  1.94178e-16 255 255 255
 6.29249e-17 -3.29565e-17  1.93128e-16 255 255 255
 3.07316e-17 -1.84163e-17  1.84008e-16 255 255 255
 5.21724e-17 -2.13527e-17  1.84551e-16 255 255 255
-1.55808e-17 -5.71048e-18  1.76412e-16 255 255 255
 4.41741e-17 -1.23453e-17   1.7576e-16 255 255 255
 6.20508e-17 -6.61987e-17  2.04644e-16 255 255 255
-8.56397e-17 -3.85425e-17  1.96984e-16 255 255 255
-4.56072e-17 -4.23217e-17  1.98644e-16 255 255 255
 4.53591e-17 -2.61521e-17  1.89347e-16 255 255 255
 6.11757e-17 -2.61552e-17  1.88025e-16 255 255 255
-6.53599e-17 -4.72487e-18  1.80989e-16 255 255 255
 4.81958e-17 -2.23413e-17  1.85877e-16 255 255 255
 4.78967e-18 -4.09729e-17  1.98912e-16 255 255 255
 7.25908e-17 -4.35691e-17  1.98895e-16 255 255 255
 7.15727e-17 -3.25447e-17  1.92269e-16 255 255 255
-8.84963e-17 -1.6573e-17 1.90461e-16 255 255 255
-2.27903e-17 -6.60521e-18  1.78278e-16 255 255 255
-3.63256e-17 -4.22811e-17  1.98853e-16 255 255 255
-6.41028e-17 -4.83474e-17  1.98368e-16 255 255 255
 5.06821e-17 -3.91014e-17  1.97352e-16 255 255 255
 -8.6916e-17 -3.17581e-17  1.95867e-16 255 255 255
5.68071e-17 -6.9589e-17 2.04397e-16 255 255 255
 5.45905e-17 -6.82158e-17   2.0431e-16 255 255 255
-9.27043e-17 -2.19526e-17  1.92927e-16 255 255 255
 6.00613e-17 -6.77113e-17  2.04589e-16 255 255 255
-9.91519e-17 -1.97971e-17  1.92171e-16 255 255 255
 6.07481e-17 -6.72991e-17  2.04616e-16 255 255 255
-7.51798e-17 -2.15276e-17  1.92447e-16 255 255 255
 5.92512e-17 -6.47984e-17  2.04456e-16 255 255 255
-8.06449e-17 -1.81969e-17  1.91026e-16 255 255 255
-9.41857e-17 -1.71434e-17  1.90905e-16 255 255 255
-2.94903e-17 -2.2359e-17 1.91335e-16 255 255 255
 6.19513e-17 -6.12667e-17  2.04227e-16 255 255 255
-8.95784e-17 -1.36524e-17  1.88949e-16 255 255 255
 5.30089e-17 -5.41917e-17  2.02795e-16 255 255 255
 5.06139e-17 -5.29234e-17   2.0247e-16 255 255 255
-8.70951e-17 -8.94134e-18  1.85914e-16 255 255 255
-3.05697e-17 -5.02151e-17  1.99958e-16 255 255 255
-4.93016e-17 -4.22337e-17  1.98534e-16 255 255 255
-1.14266e-17 -3.92638e-17  1.98394e-16 255 255 255
 -7.9453e-17 -4.75809e-18  1.82257e-16 255 255 255
-3.96971e-17 -4.12647e-17  1.98599e-16 255 255 255
 2.13531e-17 -4.56867e-17  2.00355e-16 255 255 255
4.76871e-17 -4.2232e-17 1.98899e-16 255 255 255
4.23667e-17 -4.1446e-17 1.98668e-16 255 255 255
 3.98242e-17 -3.73829e-17  1.96834e-16 255 255 255
-4.18681e-17 -4.1348e-18  1.7798e-16 255 255 255
-1.95204e-17 -7.40951e-18  1.78723e-16 255 255 255
 4.87403e-17 -2.82002e-17  1.90664e-16 255 255 255
1.97554e-17 -1.4911e-17 1.81801e-16 255 255 255
 4.81991e-17 -2.58858e-17   1.8891e-16 255 255 255
 4.84236e-17 -2.52569e-17  1.88376e-16 255 255 255
 1.91828e-17 -1.00511e-17   1.7664e-16 255 255 255
 2.14791e-17 -9.44252e-18  1.75594e-16 255 255 255
-8.73897e-17 -3.01204e-17  1.95481e-16 255 255 255
 4.94824e-17 -7.26214e-17  2.03735e-16 255 255 255
-6.63573e-17 -2.86301e-17  1.95102e-16 255 255 255
  4.0341e-17 -6.40072e-17  2.03594e-16 255 255 255
-7.94538e-17 -2.15145e-17  1.92534e-16 255 255 255
-2.72071e-17 -2.30749e-17   1.9165e-16 255 255 255
-3.51708e-17 -5.42239e-17  1.99798e-16 255 255 255
-9.55377e-17 -4.24863e-18  1.83113e-16 255 255 255
-5.49214e-17 -4.38366e-17  1.98553e-16 255 255 255
-6.02435e-17 -3.77215e-17  1.97533e-16 255 255 255
-5.49885e-17 -3.53432e-17   1.9709e-16 255 255 255
 4.72665e-17 -3.53596e-17  1.95463e-16 255 255 255
 4.34429e-17 -2.15498e-17  1.85622e-16 255 255 255
 7.29467e-17 -3.25149e-17  1.92151e-16 255 255 255
-7.43081e-17 -2.98927e-17  1.95505e-16 255 255 255
-7.43211e-17 -2.57915e-17  1.94163e-16 255 255 255
 -2.4621e-17 -2.60966e-17  1.93206e-16 255 255 255
-2.68425e-17 -2.54021e-17   1.9292e-16 255 255 255
-3.33985e-17 -5.3137e-17 1.99907e-16 255 255 255
 3.46943e-17 -3.25396e-17  1.94385e-16 255 255 255
 5.35347e-17 -2.26661e-17  1.85644e-16 255 255 255
 5.49274e-17 -7.04624e-17  2.04251e-16 255 255 255
-2.56944e-17 -2.50459e-17  1.92688e-16 255 255 255
-5.69871e-17 -4.99743e-17   1.9872e-16 255 255 255
-8.75023e-17 -1.17836e-17  1.87762e-16 255 255 255
-5.01108e-17 -3.92421e-17  1.98016e-16 255 255 255
  5.7136e-17 -7.13632e-17  2.04331e-16 255 255 255
-7.44703e-17 -2.12515e-17  1.92307e-16 255 255 255
 -2.6766e-17 -2.62267e-17  1.93346e-16 255 255 255
 -7.9915e-17 -1.17399e-17  1.87343e-16 255 255 255
7.22773e-17 -5.9745e-17 2.04251e-16 255 255 255
  5.1748e-17 -2.44188e-17  1.87381e-16 255 255 255
 5.28944e-17 -6.90346e-17  2.04198e-16 255 255 255
-2.23326e-17 -4.1443e-17 1.98913e-16 255 255 255
 5.78977e-17 -6.62827e-17   2.0446e-16 255 255 255
 2.76552e-17 -6.44836e-17  2.02946e-16 255 255 255
 1.01853e-18 -7.36119e-17   1.9965e-16 255 255 255
9.16359e-18 -7.4193e-17 2.00253e-16 255 255 255
 4.82252e-17 -7.58724e-17  2.03197e-16 255 255 255
 8.14458e-17 -7.94968e-17  2.05135e-16 255 255 255
 8.88346e-17 -8.01803e-17  2.05574e-16 255 255 255
 2.07175e-17 -7.41419e-17  2.01288e-16 255 255 255
 2.29319e-17 -7.40657e-17  2.01492e-16 255 255 255
 1.90156e-18 -7.19747e-17  2.00141e-16 255 255 255
 3.04395e-17 -7.40525e-17  2.02114e-16 255 255 255
 8.99679e-17 -7.88426e-17  2.05803e-16 255 255 255
 2.34135e-18 -7.12566e-17  2.00343e-16 255 255 255
 3.42289e-17 -7.40326e-17   2.0242e-16 255 255 255
 1.69411e-17 -7.13781e-17  2.01525e-16 255 255 255
 3.18036e-17 -7.22893e-17  2.02519e-16 255 255 255
 -1.0016e-18 -6.94731e-17  2.00433e-16 255 255 255
 3.42998e-18 -6.89736e-17  2.00884e-16 255 255 255
 2.57957e-18 -6.87419e-17  2.00857e-16 255 255 255
 2.87864e-17 -7.09146e-17  2.02495e-16 255 255 255
 6.02299e-18 -6.81985e-17   2.0121e-16 255 255 255
 7.52728e-17 -7.22143e-17  2.05334e-16 255 255 255
   1.111e-17 -6.76494e-17   2.0166e-16 255 255 255
 7.29334e-18 -6.72606e-17  2.01439e-16 255 255 255
-2.34464e-19 -6.58909e-17   2.0108e-16 255 255 255
 4.22922e-18 -6.62771e-17  2.01347e-16 255 255 255
-4.17524e-18 -6.50851e-17  2.00904e-16 255 255 255
-2.12536e-18 -6.50257e-17  2.01055e-16 255 255 255
 2.74551e-18 -6.49255e-17  2.01401e-16 255 255 255
-7.99246e-18 -6.33089e-17  2.00848e-16 255 255 255
-1.44519e-17 -6.23996e-17  2.00509e-16 255 255 255
 1.96572e-17 -6.23563e-17  2.02562e-16 255 255 255
3.14675e-17 -6.3553e-17 2.03158e-16 255 255 255
-6.52946e-17 -5.16073e-17  1.98183e-16 255 255 255
 1.53479e-17 -6.13293e-17  2.02349e-16 255 255 255
8.31342e-17 -6.6576e-17 2.05494e-16 255 255 255
 3.04788e-19 -6.07112e-17  2.01553e-16 255 255 255
-6.08712e-17 -4.92963e-17  1.98526e-16 255 255 255
-1.39406e-18 -5.97204e-17  2.01491e-16 255 255 255
 8.62894e-17 -6.49627e-17  2.05413e-16 255 255 255
 1.06702e-18 -5.96413e-17  2.01625e-16 255 255 255
-5.07811e-17 -4.81947e-17  1.99003e-16 255 255 255
-2.87632e-17 -5.03811e-17  2.00042e-16 255 255 255
-5.3374e-17 -4.6736e-17 1.98828e-16 255 255 255
-5.64576e-17 -4.63602e-17  1.98681e-16 255 255 255
-5.54812e-17 -4.60976e-17  1.98708e-16 255 255 255
 6.10279e-17 -5.99415e-17  2.04022e-16 255 255 255
-3.02423e-17 -4.84351e-17  1.99843e-16 255 255 255
-5.64205e-17 -4.53775e-17  1.98625e-16 255 255 255
-5.71556e-17 -4.49824e-17   1.9857e-16 255 255 255
-6.64429e-17 -4.36281e-17  1.98116e-16 255 255 255
-5.10674e-17 -4.33164e-17  1.98622e-16 255 255 255
-5.77478e-17 -4.24315e-17  1.98313e-16 255 255 255
 6.97378e-17 -5.64337e-17  2.03522e-16 255 255 255
-3.0016e-17  -4.373e-17 1.99243e-16 255 255 255
-2.03613e-17 -4.46109e-17  1.99604e-16 255 255 255
-3.43057e-17 -4.20549e-17  1.98853e-16 255 255 255
 4.97079e-17 -5.24494e-17  2.02345e-16 255 255 255
-5.81116e-17 -3.89883e-17  1.97807e-16 255 255 255
-5.37462e-17 -3.84071e-17  1.97787e-16 255 255 255
-5.50955e-17 -3.78433e-17  1.97651e-16 255 255 255
-9.23152e-18 -4.37876e-17  1.99618e-16 255 255 255
-5.77291e-17 -3.66079e-17   1.9735e-16 255 255 255
-8.85411e-17 -3.77235e-17  1.96805e-16 255 255 255
-4.10635e-17 -3.77624e-17  1.97824e-16 255 255 255
 -4.0536e-17 -3.74548e-17  1.97753e-16 255 255 255
-1.14251e-17 -4.15638e-17  1.99048e-16 255 255 255
-4.30866e-17 -3.70155e-17  1.97619e-16 255 255 255
-5.94481e-17 -3.51369e-17  1.96993e-16 255 255 255
 5.77253e-17 -4.89064e-17  2.01335e-16 255 255 255
-4.80433e-17 -3.60765e-17  1.97338e-16 255 255 255
-6.00514e-17 -3.46768e-17  1.96875e-16 255 255 255
 -5.3382e-17 -3.49014e-17  1.96992e-16 255 255 255
 4.98349e-17 -4.75273e-17  2.00909e-16 255 255 255
7.55291e-17 -4.8348e-17 2.00951e-16 255 255 255
-9.78839e-18 -3.93316e-17  1.98414e-16 255 255 255
-5.41854e-17 -3.34312e-17  1.96587e-16 255 255 255
-5.52707e-17 -3.31511e-17  1.96503e-16 255 255 255
-4.89263e-17 -3.36377e-17  1.96661e-16 255 255 255
-5.59099e-17 -3.27585e-17  1.96388e-16 255 255 255
 -4.7335e-17 -3.31613e-17  1.96518e-16 255 255 255
-4.82959e-17 -3.2878e-17  1.9643e-16 255 255 255
     8.1e-17 -4.67135e-17  2.00149e-16 255 255 255
  6.9448e-17 -4.59852e-17  2.00078e-16 255 255 255
-4.96555e-17 -3.22943e-17  1.96248e-16 255 255 255
 8.06366e-17 -4.50726e-17  1.99391e-16 255 255 255
 -8.2223e-17 -2.67656e-17  1.94546e-16 255 255 255
-8.06724e-17 -2.60728e-17   1.9431e-16 255 255 255
 4.51116e-17 -3.58514e-17   1.9583e-16 255 255 255
 4.60361e-17 -3.52342e-17  1.95444e-16 255 255 255
-7.33259e-17 -2.45629e-17  1.93685e-16 255 255 255
-9.96812e-17 -2.01715e-17  1.92328e-16 255 255 255
-3.56859e-17 -2.58356e-17   1.9343e-16 255 255 255
-7.16785e-17 -2.12339e-17   1.9223e-16 255 255 255
 3.81861e-17 -2.86569e-17  1.91704e-16 255 255 255
 4.09646e-17 -2.84999e-17  1.91416e-16 255 255 255
 3.88835e-17 -2.84449e-17  1.91512e-16 255 255 255
-4.73918e-17 -2.10007e-17  1.91324e-16 255 255 255
 5.28408e-17 -2.70227e-17  1.89446e-16 255 255 255
-2.05511e-17 -2.13027e-17  1.90244e-16 255 255 255
 5.08832e-17 -2.66294e-17  1.89288e-16 255 255 255
-4.06951e-17 -1.81618e-17  1.89326e-16 255 255 255
 2.57484e-17 -2.35384e-17  1.88819e-16 255 255 255
-8.83683e-17 -1.25909e-17  1.88287e-16 255 255 255
-5.03715e-17 -1.63213e-17  1.88673e-16 255 255 255
 4.84222e-17 -2.47193e-17   1.8793e-16 255 255 255
-4.06559e-17 -1.71165e-17  1.88644e-16 255 255 255
-4.90879e-17 -1.60442e-17  1.88421e-16 255 255 255
  2.7167e-17 -2.26947e-17  1.88046e-16 255 255 255
-6.34733e-17 -1.32173e-17  1.87382e-16 255 255 255
 1.49505e-17 -2.00903e-17  1.86939e-16 255 255 255
 2.76476e-17 -2.07402e-17  1.86388e-16 255 255 255
-6.06481e-17 -1.25738e-17  1.86773e-16 255 255 255
  2.1046e-17 -1.96544e-17  1.86049e-16 255 255 255
2.17094e-17 -1.8915e-17 1.85347e-16 255 255 255
-6.30023e-17 -1.0742e-17 1.85627e-16 255 255 255
 2.20384e-17 -1.82776e-17  1.84749e-16 255 255 255
 1.76675e-17 -1.78336e-17   1.8477e-16 255 255 255
 2.14543e-17 -1.77361e-17  1.84315e-16 255 255 255
 1.79521e-17 -1.73294e-17  1.84289e-16 255 255 255
-6.29474e-17 -9.68992e-18  1.84842e-16 255 255 255
-1.34191e-17 -1.46468e-17   1.8484e-16 255 255 255
-1.07269e-17 -1.42188e-17  1.84238e-16 255 255 255
2.30762e-17 -1.6858e-17 1.83332e-16 255 255 255
 1.67421e-17 -1.62615e-17  1.83425e-16 255 255 255
 3.06913e-17 -1.66901e-17  1.82344e-16 255 255 255
-6.12547e-17 -7.83176e-18  1.83256e-16 255 255 255
 2.37653e-17 -1.56534e-17  1.82089e-16 255 255 255
-6.90124e-17 -6.76713e-18  1.83029e-16 255 255 255
 2.06055e-17 -1.48159e-17   1.8161e-16 255 255 255
 2.53639e-17 -1.50566e-17  1.81307e-16 255 255 255
  2.4912e-17 -1.42134e-17  1.80493e-16 255 255 255
 1.69568e-17 -1.33458e-17  1.80538e-16 255 255 255
1.88524e-17 -1.3521e-17 1.80495e-16 255 255 255
-5.35486e-17 -5.67484e-18  1.80709e-16 255 255 255
-6.21394e-17 -4.51402e-18  1.80495e-16 255 255 255
-6.90552e-17 -3.59542e-18  1.80337e-16 255 255 255
 1.66462e-17 -1.17331e-17  1.78872e-16 255 255 255
 8.91825e-17 -8.21408e-17  2.05318e-16 255 255 255
 8.83805e-17 -8.16063e-17   2.0534e-16 255 255 255
 8.97384e-17 -8.13896e-17  2.05474e-16 255 255 255
 2.70164e-17 -7.53123e-17  2.01573e-16 255 255 255
 2.81713e-17 -7.52839e-17  2.01677e-16 255 255 255
 2.99008e-17 -7.54227e-17  2.01795e-16 255 255 255
 1.12944e-17 -7.26581e-17  2.00805e-16 255 255 255
 5.15237e-18 -7.20922e-17    2.004e-16 255 255 255
 1.34681e-17 -7.27415e-17  2.00972e-16 255 255 255
 8.91812e-17 -7.90617e-17  2.05728e-16 255 255 255
 5.89899e-18 -7.13222e-17  2.00631e-16 255 255 255
-7.99793e-19 -7.05235e-17  2.00233e-16 255 255 255
 3.07104e-18 -7.09479e-17  2.00472e-16 255 255 255
 9.01166e-17 -7.80497e-17  2.05887e-16 255 255 255
 9.13012e-17 -7.79496e-17   2.0597e-16 255 255 255
    5.85e-18 -6.97699e-17  2.00933e-16 255 255 255
 1.53339e-17 -6.98712e-17  2.01652e-16 255 255 255
-4.68291e-18 -6.79104e-17   2.0043e-16 255 255 255
-1.10632e-17 -6.33136e-17  2.00638e-16 255 255 255
 4.54993e-17 -6.67963e-17  2.03853e-16 255 255 255
-3.58391e-17 -5.60489e-17  1.99682e-16 255 255 255
-3.65983e-17 -5.55298e-17  1.99666e-16 255 255 255
 7.20166e-18 -6.31086e-17  2.01836e-16 255 255 255
 3.07913e-17 -6.29805e-17  2.03122e-16 255 255 255
-5.32136e-17 -5.14431e-17  1.98889e-16 255 255 255
 -2.1507e-18 -6.07727e-17  2.01411e-16 255 255 255
-5.19008e-19 -6.10366e-17  2.01492e-16 255 255 255
 6.53658e-17 -6.48598e-17  2.04702e-16 255 255 255
 3.40242e-17 -6.20183e-17  2.03253e-16 255 255 255
-1.04896e-17 -5.95925e-17  2.00984e-16 255 255 255
-5.99943e-17 -4.98104e-17  1.98563e-16 255 255 255
 7.41429e-17 -6.41494e-17  2.04945e-16 255 255 255
-1.90719e-17 -5.76885e-17  2.00577e-16 255 255 255
-5.60674e-17 -4.81957e-17  1.98761e-16 255 255 255
 5.79273e-17 -6.08735e-17  2.04059e-16 255 255 255
 4.32116e-17 -5.78681e-17  2.03245e-16 255 255 255
-5.43489e-17 -4.63855e-17   1.9877e-16 255 255 255
 8.02729e-17 -6.13156e-17    2.047e-16 255 255 255
-3.14164e-17 -4.7608e-17 1.99725e-16 255 255 255
 5.99126e-17 -5.84696e-17  2.03762e-16 255 255 255
-4.85384e-17 -4.52182e-17  1.98906e-16 255 255 255
-4.70647e-17 -4.50852e-17  1.98944e-16 255 255 255
-3.12842e-17 -4.62081e-17  1.99574e-16 255 255 255
-4.12982e-18 -5.00641e-17  2.00861e-16 255 255 255
-5.92189e-17 -4.29929e-17  1.98324e-16 255 255 255
-3.24626e-17 -4.51374e-17    1.994e-16 255 255 255
 -1.7864e-17 -4.72129e-17  2.00088e-16 255 255 255
 6.90602e-17 -5.43467e-17   2.0299e-16 255 255 255
-5.04076e-17 -4.04512e-17  1.98229e-16 255 255 255
-4.44196e-17 -3.99888e-17  1.98266e-16 255 255 255
 1.95723e-17 -4.63252e-17  2.00523e-16 255 255 255
 2.10704e-17 -4.61193e-17  2.00475e-16 255 255 255
-7.84143e-17 -4.0106e-17 1.97386e-16 255 255 255
-4.28158e-17 -3.86918e-17  1.98021e-16 255 255 255
-5.24351e-17 -3.71504e-17  1.97545e-16 255 255 255
-5.03292e-17 -3.71698e-17  1.97577e-16 255 255 255
-3.38854e-17 -3.84185e-17  1.98056e-16 255 255 255
-5.57888e-17 -3.50074e-17  1.96999e-16 255 255 255
 -5.2082e-17 -3.48662e-17  1.96991e-16 255 255 255
7.79352e-17 -4.9283e-17 2.01287e-16 255 255 255
-1.91781e-17 -3.92536e-17  1.98374e-16 255 255 255
  4.3405e-17 -4.59316e-17  2.00399e-16 255 255 255
-9.4054e-17 -3.4787e-17 1.96269e-16 255 255 255
-5.86474e-17 -3.35325e-17  1.96593e-16 255 255 255
 6.02482e-17 -4.73471e-17  2.00763e-16 255 255 255
 7.04798e-17 -4.73759e-17  2.00639e-16 255 255 255
-5.50242e-17 -3.26619e-17  1.96361e-16 255 255 255
-5.61813e-17 -3.21299e-17    1.962e-16 255 255 255
-7.86259e-18 -3.81915e-17  1.98042e-16 255 255 255
 7.52231e-17 -4.54945e-17  1.99733e-16 255 255 255
 7.91555e-17 -4.52003e-17  1.99494e-16 255 255 255
  8.0013e-17 -4.43949e-17  1.99078e-16 255 255 255
 2.83927e-17 -3.79068e-17  1.97408e-16 255 255 255
 4.49588e-17 -3.63828e-17  1.96127e-16 255 255 255
-8.22951e-17 -2.60125e-17  1.94297e-16 255 255 255
 5.0099e-17 -3.5494e-17 1.95416e-16 255 255 255
 5.01986e-17 -3.49623e-17  1.95099e-16 255 255 255
 4.78238e-17 -3.44115e-17  1.94883e-16 255 255 255
4.78543e-17  -3.262e-17 1.93776e-16 255 255 255
 -2.092e-17 -2.7903e-17 1.94003e-16 255 255 255
 4.73324e-17 -3.21922e-17   1.9353e-16 255 255 255
-6.70924e-17 -2.22198e-17  1.92569e-16 255 255 255
 3.63375e-17 -3.09573e-17  1.93336e-16 255 255 255
-5.67918e-17 -2.32875e-17  1.92801e-16 255 255 255
-4.64011e-17 -2.4389e-17 1.93039e-16 255 255 255
-4.36633e-17 -2.46336e-17  1.93079e-16 255 255 255
-4.78237e-17 -2.41771e-17  1.92978e-16 255 255 255
 4.76706e-17 -3.14864e-17   1.9305e-16 255 255 255
 4.90546e-17 -3.09993e-17   1.9264e-16 255 255 255
4.73005e-17 -3.0615e-17 1.92486e-16 255 255 255
 4.63272e-17 -3.04215e-17  1.92413e-16 255 255 255
 6.86054e-17 -3.19196e-17  1.92017e-16 255 255 255
 4.76024e-17 -3.02747e-17  1.92234e-16 255 255 255
-1.35245e-17 -2.48341e-17   1.9206e-16 255 255 255
-4.96551e-17 -2.06607e-17  1.91226e-16 255 255 255
-3.11159e-17 -2.28091e-17  1.91667e-16 255 255 255
-1.50286e-17 -2.39272e-17  1.91592e-16 255 255 255
 5.22718e-17 -2.77511e-17  1.90062e-16 255 255 255
-9.80671e-17 -1.34217e-17  1.89156e-16 255 255 255
-3.00967e-17 -1.95455e-17  1.89636e-16 255 255 255
-2.57701e-17 -2.02528e-17  1.89854e-16 255 255 255
 5.21776e-17 -2.64347e-17   1.8903e-16 255 255 255
-5.22551e-17 -1.69541e-17  1.89173e-16 255 255 255
-1.67218e-17 -2.0644e-17 1.89594e-16 255 255 255
 -5.3922e-17 -1.64947e-17  1.88973e-16 255 255 255
 2.65615e-17 -2.35085e-17  1.88734e-16 255 255 255
-4.62418e-17 -1.6269e-17 1.88406e-16 255 255 255
 1.57731e-17 -2.05085e-17  1.87211e-16 255 255 255
 1.51662e-17 -1.93068e-17  1.86272e-16 255 255 255
 1.30312e-17 -1.87646e-17  1.86002e-16 255 255 255
 7.20094e-18 -1.86447e-17  1.86401e-16 255 255 255
 1.40495e-17 -1.81279e-17  1.85367e-16 255 255 255
-5.22593e-17 -1.09954e-17  1.85045e-16 255 255 255
-9.75835e-17 -6.19961e-18  1.84677e-16 255 255 255
  1.4663e-17 -1.68351e-17  1.84162e-16 255 255 255
 1.87261e-17 -1.62601e-17  1.83217e-16 255 255 255
 6.80246e-17 -2.07043e-17  1.82085e-16 255 255 255
 2.35702e-17 -1.63543e-17  1.82795e-16 255 255 255
 1.88301e-17 -1.25059e-17   1.7943e-16 255 255 255
 8.46956e-17 -8.07148e-17    2.052e-16 255 255 255
-2.51619e-17 -7.06361e-17  1.97978e-16 255 255 255
 3.38344e-17 -7.57651e-17  2.02055e-16 255 255 255
 1.22857e-17 -7.21728e-17  2.00992e-16 255 255 255
1.01871e-17 -7.1367e-17  2.0098e-16 255 255 255
 2.55173e-17 -7.13133e-17  2.02196e-16 255 255 255
 1.93084e-17 -7.02995e-17  2.01886e-16 255 255 255
-7.48925e-18 -6.77798e-17   2.0023e-16 255 255 255
-1.18813e-17 -6.71876e-17  1.99986e-16 255 255 255
  8.6901e-18 -6.76247e-17   2.0149e-16 255 255 255
 6.48887e-17 -7.07131e-17  2.04808e-16 255 255 255
 2.96227e-17 -6.67011e-17  2.02962e-16 255 255 255
 4.85794e-17 -6.88901e-17   2.0396e-16 255 255 255
 6.61759e-17 -6.97411e-17  2.04895e-16 255 255 255
-5.97854e-17 -5.4657e-17 1.98275e-16 255 255 255
-4.95272e-17 -5.56232e-17  1.98859e-16 255 255 255
-4.63448e-17 -5.54366e-17  1.99076e-16 255 255 255
  -7.075e-18 -6.36699e-17  2.00871e-16 255 255 255
-1.49272e-17 -6.28659e-17  2.00423e-16 255 255 255
-5.71352e-17 -5.42006e-17  1.98494e-16 255 255 255
-1.01468e-17 -6.29909e-17  2.00737e-16 255 255 255
 3.97831e-18 -6.40587e-17  2.01565e-16 255 255 255
-5.33801e-17 -5.38812e-17  1.98756e-16 255 255 255
 1.33758e-17 -6.16726e-17  2.02242e-16 255 255 255
-2.81431e-17 -5.52869e-17  2.00152e-16 255 255 255
-5.88245e-17 -5.09556e-17  1.98595e-16 255 255 255
-6.18284e-17 -5.05262e-17  1.98442e-16 255 255 255
1.58335e-17 -5.9952e-17 2.02365e-16 255 255 255
-2.99465e-18 -6.00233e-17  2.01394e-16 255 255 255
 3.45564e-17 -6.11636e-17  2.03241e-16 255 255 255
-5.17625e-17 -4.9082e-17 1.98981e-16 255 255 255
 4.28378e-17 -5.83646e-17  2.03297e-16 255 255 255
-4.28793e-17 -4.84367e-17  1.99354e-16 255 255 255
-5.92099e-17 -4.68929e-17  1.98584e-16 255 255 255
 2.13426e-17 -5.41358e-17  2.02127e-16 255 255 255
-3.96485e-17 -4.54834e-17   1.9923e-16 255 255 255
 3.75043e-18 -5.13666e-17  2.01259e-16 255 255 255
 2.05623e-18 -5.08934e-17  2.01147e-16 255 255 255
-2.36404e-17 -4.78635e-17  2.00006e-16 255 255 255
-2.12358e-18 -4.99923e-17  2.00907e-16 255 255 255
-3.89415e-17 -4.35175e-17  1.98994e-16 255 255 255
-1.02852e-17 -4.61918e-17  2.00098e-16 255 255 255
 3.41535e-17 -5.01745e-17   2.0163e-16 255 255 255
-2.79531e-17 -4.34602e-17  1.99239e-16 255 255 255
 8.93554e-17 -5.51993e-17   2.0329e-16 255 255 255
-5.16157e-17 -3.99114e-17  1.98109e-16 255 255 255
 1.85906e-17 -4.74066e-17  2.00793e-16 255 255 255
-5.44385e-17 -3.87795e-17  1.97845e-16 255 255 255
 4.70576e-17 -4.96774e-17  2.01585e-16 255 255 255
-3.55661e-17 -3.89865e-17  1.98179e-16 255 255 255
 7.18639e-17 -5.11588e-17  2.02026e-16 255 255 255
 4.53773e-17 -4.84158e-17  2.01206e-16 255 255 255
-9.05742e-17 -3.58925e-17  1.96519e-16 255 255 255
 4.72331e-17 -4.69292e-17  2.00719e-16 255 255 255
-7.35356e-17 -3.61729e-17  1.96981e-16 255 255 255
-4.07075e-17 -3.3977e-17 1.96767e-16 255 255 255
 -9.3146e-17 -3.26117e-17  1.95932e-16 255 255 255
 8.01386e-17 -4.58807e-17  1.99788e-16 255 255 255
 7.82712e-18 -3.80136e-17  1.97837e-16 255 255 255
 7.92769e-17 -4.34669e-17  1.98634e-16 255 255 255
 8.59156e-17 -4.33383e-17   1.9833e-16 255 255 255
 7.33237e-17 -4.03045e-17  1.97163e-16 255 255 255
-6.30777e-17 -2.74966e-17  1.94679e-16 255 255 255
 5.36885e-17 -3.59723e-17  1.95533e-16 255 255 255
 4.89143e-17 -3.43994e-17  1.94824e-16 255 255 255
-8.74145e-17 -2.25682e-17  1.93097e-16 255 255 255
-4.00642e-17 -2.66414e-17  1.93931e-16 255 255 255
-3.43758e-17 -2.72728e-17  1.94079e-16 255 255 255
-2.83523e-17 -2.77865e-17  1.94161e-16 255 255 255
-7.17103e-17 -2.16973e-17  1.92442e-16 255 255 255
 -7.0471e-17 -2.18923e-17  1.92502e-16 255 255 255
-6.85763e-17 -2.20092e-17  1.92509e-16 255 255 255
-6.44649e-17 -2.24279e-17    1.926e-16 255 255 255
-5.3776e-17 -2.3543e-17 1.92841e-16 255 255 255
-4.49665e-17 -2.44415e-17  1.93023e-16 255 255 255
 4.01728e-17 -2.97379e-17  1.92322e-16 255 255 255
 5.02915e-17 -2.93721e-17  1.91419e-16 255 255 255
-5.51665e-17 -1.96493e-17  1.90888e-16 255 255 255
 4.38862e-17 -2.77911e-17  1.90705e-16 255 255 255
-6.33445e-17 -1.79594e-17   1.9028e-16 255 255 255
-1.28957e-17 -2.28872e-17  1.90842e-16 255 255 255
 5.84747e-17 -2.76324e-17  1.89479e-16 255 255 255
-1.78058e-17 -2.18855e-17  1.90468e-16 255 255 255
 -3.5435e-17 -1.96284e-17  1.89974e-16 255 255 255
-4.46192e-17 -1.84465e-17  1.89709e-16 255 255 255
-4.10927e-17 -1.86576e-17   1.8966e-16 255 255 255
2.40065e-17 -2.4071e-17 1.89352e-16 255 255 255
-4.90842e-17 -1.74222e-17  1.89302e-16 255 255 255
-4.66224e-17 -1.75298e-17  1.89241e-16 255 255 255
 -8.9208e-17 -1.28983e-17  1.88504e-16 255 255 255
-4.41684e-17 -1.73705e-17  1.89008e-16 255 255 255
-5.54164e-17 -1.54574e-17  1.88393e-16 255 255 255
 4.43319e-17 -2.35755e-17  1.87324e-16 255 255 255
-5.50695e-17 -1.44892e-17  1.87738e-16 255 255 255
 2.70658e-17 -1.99791e-17  1.85783e-16 255 255 255
-4.81751e-17 -1.25556e-17  1.85925e-16 255 255 255
 7.45681e-17 -2.29861e-17  1.83679e-16 255 255 255
-2.35531e-17 -1.41781e-17  1.85306e-16 255 255 255
-5.80948e-18 -1.54887e-17  1.84885e-16 255 255 255
-1.94337e-17 -1.36738e-17  1.84545e-16 255 255 255
-7.75595e-17 -6.72987e-18  1.83669e-16 255 255 255
 7.14802e-17 -2.08716e-17  1.81835e-16 255 255 255
 7.19241e-17 -2.00703e-17    1.809e-16 255 255 255
 6.79404e-17 -1.90928e-17  1.80337e-16 255 255 255
 6.82423e-17 -1.88145e-17   1.7998e-16 255 255 255
2.00471e-17 -1.2612e-17 1.79389e-16 255 255 255
 1.80533e-17 -1.21022e-17  1.79094e-16 255 255 255
-7.65872e-17 -2.55353e-18  1.80125e-16 255 255 255
 8.86037e-17 -7.89114e-17  2.05705e-16 255 255 255
 1.94493e-17 -7.21352e-17  2.01587e-16 255 255 255
 7.42856e-17 -7.44685e-17   2.0517e-16 255 255 255
 5.05025e-17 -7.21711e-17  2.03849e-16 255 255 255
7.24536e-17  -7.376e-17 2.05105e-16 255 255 255
 3.88139e-18 -6.90583e-17  2.00904e-16 255 255 255
-1.00996e-17 -6.46213e-17   2.0054e-16 255 255 255
-5.57888e-17 -5.54682e-17  1.98458e-16 255 255 255
 6.34886e-18 -6.18732e-17  2.01849e-16 255 255 255
-1.75356e-17 -5.91222e-17  2.00593e-16 255 255 255
-3.49301e-17 -5.25613e-17   1.9983e-16 255 255 255
-1.43636e-17 -5.88287e-17  2.00796e-16 255 255 255
-3.63631e-17 -5.17606e-17  1.99754e-16 255 255 255
 4.34833e-17 -6.06465e-17  2.03554e-16 255 255 255
  3.2239e-17 -5.61499e-17  2.02704e-16 255 255 255
-4.69574e-17 -4.58195e-17  1.99016e-16 255 255 255
  7.7911e-18 -5.24777e-17  2.01519e-16 255 255 255
-4.21015e-17 -4.55268e-17  1.99156e-16 255 255 255
  3.9553e-17 -5.41828e-17   2.0257e-16 255 255 255
-2.81117e-17 -4.42635e-17  1.99376e-16 255 255 255
-2.43815e-17 -4.39258e-17  1.99397e-16 255 255 255
-1.91679e-17 -4.46678e-17  1.99638e-16 255 255 255
 3.27122e-17 -4.93092e-17  2.01401e-16 255 255 255
-2.10545e-17 -4.39483e-17  1.99466e-16 255 255 255
-5.16694e-17 -3.8987e-17 1.97938e-16 255 255 255
 1.34277e-17 -4.66613e-17  2.00558e-16 255 255 255
 -4.8953e-17 -3.79792e-17  1.97777e-16 255 255 255
 6.54006e-17 -4.90791e-17  2.01347e-16 255 255 255
-8.94423e-17 -3.49341e-17   1.9641e-16 255 255 255
 7.75926e-17 -4.79965e-17  2.00774e-16 255 255 255
-3.70817e-17 -3.53693e-17  1.97195e-16 255 255 255
-9.16924e-17 -3.38912e-17  1.96189e-16 255 255 255
-9.28075e-17 -3.01669e-17  1.95431e-16 255 255 255
-9.13468e-17 -2.98036e-17  1.95363e-16 255 255 255
 7.84545e-17 -4.21296e-17  1.97961e-16 255 255 255
-9.20683e-17 -2.78075e-17  1.94843e-16 255 255 255
     2.7e-17 -3.62103e-17  1.96647e-16 255 255 255
-9.42424e-17 -2.66069e-17  1.94495e-16 255 255 255
-9.32587e-17 -2.39438e-17  1.93653e-16 255 255 255
-9.52352e-17 -2.29455e-17  1.93318e-16 255 255 255
-8.26371e-17 -2.24686e-17   1.9299e-16 255 255 255
-3.74573e-17 -2.69922e-17  1.94027e-16 255 255 255
 3.97767e-17 -3.04036e-17  1.92789e-16 255 255 255
 3.86686e-17 -2.94077e-17  1.92189e-16 255 255 255
-3.06884e-17 -2.34376e-17  1.92002e-16 255 255 255
 4.16184e-17 -2.82955e-17  1.91227e-16 255 255 255
-1.81199e-17 -2.3424e-17 1.91437e-16 255 255 255
 4.05985e-17 -2.69158e-17  1.90288e-16 255 255 255
 -5.8823e-17 -1.76611e-17  1.89915e-16 255 255 255
-1.51796e-17 -2.21444e-17  1.90491e-16 255 255 255
-3.75154e-17 -1.9198e-17 1.89813e-16 255 255 255
-1.57842e-17 -2.09564e-17  1.89748e-16 255 255 255
-5.52419e-17 -1.65032e-17  1.89046e-16 255 255 255
-3.67095e-17 -1.84339e-17  1.89283e-16 255 255 255
-5.63707e-17 -1.59886e-17  1.88783e-16 255 255 255
-1.68958e-17 -2.00281e-17  1.89187e-16 255 255 255
-5.27317e-17 -1.61021e-17  1.88661e-16 255 255 255
 4.28391e-17 -2.34917e-17  1.87385e-16 255 255 255
-6.52292e-17 -1.31157e-17  1.87417e-16 255 255 255
-5.27985e-17 -1.43962e-17  1.87539e-16 255 255 255
-6.50778e-17 -1.22781e-17  1.86845e-16 255 255 255
 5.35347e-17 -2.26661e-17  1.85644e-16 255 255 255
 3.08009e-17 -1.97206e-17  1.85202e-16 255 255 255
-2.58563e-17 -1.24413e-17  1.84068e-16 255 255 255
-8.30184e-17 -4.61082e-18  1.82429e-16 255 255 255
 3.16699e-17 -1.54271e-17  1.80947e-16 255 255 255
  1.5966e-17 -1.38246e-17  1.81142e-16 255 255 255
 7.09618e-17 -7.76293e-17   2.0463e-16 255 255 255
  6.9061e-17 -7.67039e-17  2.04614e-16 255 255 255
 5.48508e-17 -7.29479e-17   2.0406e-16 255 255 255
-3.46164e-17 -5.67772e-17  1.99707e-16 255 255 255
 8.62515e-17 -6.93846e-17   2.0582e-16 255 255 255
-5.03563e-17 -5.33743e-17  1.98971e-16 255 255 255
2.39513e-17 -6.2518e-17 2.02781e-16 255 255 255
 2.24044e-17 -6.10368e-17  2.02694e-16 255 255 255
 4.12071e-17 -6.14136e-17  2.03525e-16 255 255 255
 1.85271e-17 -5.99882e-17  2.02491e-16 255 255 255
-5.69871e-17 -4.99743e-17   1.9872e-16 255 255 255
  4.7358e-17 -6.15326e-17   2.0377e-16 255 255 255
-5.27035e-17 -4.9503e-17 1.98939e-16 255 255 255
 1.44412e-17 -5.44877e-17  2.01961e-16 255 255 255
-4.28939e-17 -4.64344e-17  1.99215e-16 255 255 255
 1.89548e-17 -5.39388e-17  2.02033e-16 255 255 255
-4.70467e-17 -4.47252e-17  1.98908e-16 255 255 255
-1.30336e-17 -4.67913e-17  2.00143e-16 255 255 255
 5.21009e-17 -5.26552e-17  2.02419e-16 255 255 255
 6.78525e-17 -4.99961e-17  2.01651e-16 255 255 255
4.37214e-17 -4.7303e-17 2.00858e-16 255 255 255
-8.62283e-18 -4.12581e-17  1.98982e-16 255 255 255
 4.53227e-17 -4.68552e-17  2.00704e-16 255 255 255
-4.43829e-17 -3.58158e-17  1.97296e-16 255 255 255
 3.04011e-17 -4.43824e-17  1.99943e-16 255 255 255
 6.41495e-17 -4.80265e-17  2.00975e-16 255 255 255
 1.07162e-17 -4.01884e-17  1.98616e-16 255 255 255
-4.58838e-17 -3.30201e-17  1.96473e-16 255 255 255
 4.39198e-17 -4.31541e-17  1.99352e-16 255 255 255
-1.09399e-17 -3.6422e-17 1.97446e-16 255 255 255
 1.05341e-17 -3.78061e-17  1.97717e-16 255 255 255
-8.31294e-18 -3.47703e-17  1.96788e-16 255 255 255
6.40459e-18 -3.6079e-17 1.97077e-16 255 255 255
-9.48335e-17 -2.44455e-17  1.93828e-16 255 255 255
3.82286e-17 -3.4053e-17 1.95105e-16 255 255 255
 1.71208e-17 -3.06097e-17  1.94047e-16 255 255 255
 5.62339e-17 -3.48371e-17   1.9473e-16 255 255 255
 4.19776e-17 -3.31716e-17  1.94418e-16 255 255 255
-9.41527e-17 -2.11371e-17   1.9263e-16 255 255 255
-3.76367e-17 -2.60205e-17  1.93576e-16 255 255 255
-3.90692e-17 -2.48774e-17   1.9306e-16 255 255 255
-3.47245e-17 -2.52486e-17  1.93109e-16 255 255 255
-2.56944e-17 -2.50459e-17  1.92688e-16 255 255 255
 4.45671e-17 -2.98727e-17  1.92145e-16 255 255 255
 -3.0439e-17 -2.25742e-17  1.91503e-16 255 255 255
 -6.6048e-18 -2.41114e-17  1.91282e-16 255 255 255
2.87521e-17 -2.6233e-17 1.90608e-16 255 255 255
-3.36885e-17 -2.01599e-17  1.90214e-16 255 255 255
-2.41308e-17 -2.06529e-17  1.90022e-16 255 255 255
-2.19084e-17 -2.09136e-17  1.90068e-16 255 255 255
-4.73649e-17 -1.73503e-17  1.89167e-16 255 255 255
-4.50981e-17 -1.29096e-17  1.85969e-16 255 255 255
-8.15437e-17 -8.52512e-18  1.85277e-16 255 255 255
 2.08182e-17 -1.67891e-17    1.835e-16 255 255 255
-7.82482e-17 -2.48599e-18  1.80222e-16 255 255 255
-3.73521e-19 -7.34024e-17  1.99576e-16 255 255 255
 6.58025e-17 -7.37124e-17  2.04699e-16 255 255 255
  5.7136e-17 -7.13632e-17  2.04331e-16 255 255 255
-6.72765e-18 -6.67009e-17  2.00479e-16 255 255 255
 1.90767e-18 -6.72315e-17  2.01049e-16 255 255 255
 7.40127e-17 -6.95902e-17  2.05283e-16 255 255 255
 -5.2123e-17 -5.49277e-17  1.98752e-16 255 255 255
-5.50286e-17 -5.43667e-17  1.98615e-16 255 255 255
8.00734e-17 -6.8783e-17 2.05531e-16 255 255 255
1.53406e-17   -6.23e-17 2.02334e-16 255 255 255
 8.35577e-17 -6.71755e-17  2.05562e-16 255 255 255
-4.54527e-17 -4.7925e-17 1.99221e-16 255 255 255
-4.83216e-18 -5.32497e-17  2.01172e-16 255 255 255
-5.62296e-17 -4.58109e-17  1.98661e-16 255 255 255
-5.22299e-17 -4.60044e-17  1.98832e-16 255 255 255
-5.12675e-17 -4.47379e-17  1.98766e-16 255 255 255
-5.99465e-17 -4.30346e-17  1.98303e-16 255 255 255
-5.37507e-17 -4.2404e-17 1.98431e-16 255 255 255
-1.96728e-17 -4.2847e-17 1.99264e-16 255 255 255
 6.86671e-17 -5.14121e-17  2.02121e-16 255 255 255
-3.29872e-17 -3.79814e-17  1.97949e-16 255 255 255
 5.61324e-17 -4.64177e-17  2.00458e-16 255 255 255
 4.65867e-17 -4.37047e-17  1.99531e-16 255 255 255
-2.24112e-17 -3.56583e-17  1.97258e-16 255 255 255
-2.01777e-17 -3.5075e-17  1.9704e-16 255 255 255
 8.03553e-18 -3.71611e-17  1.97496e-16 255 255 255
 8.27151e-17 -4.36015e-17  1.98586e-16 255 255 255
 7.05248e-17 -4.10046e-17  1.97654e-16 255 255 255
-6.98145e-17 -2.92919e-17  1.95328e-16 255 255 255
-8.06042e-17 -2.33967e-17  1.93329e-16 255 255 255
 4.71488e-17 -3.36792e-17  1.94473e-16 255 255 255
 3.38407e-17 -3.14399e-17  1.93764e-16 255 255 255
 3.65257e-17 -3.15411e-17  1.93691e-16 255 255 255
 2.60347e-17 -2.86421e-17  1.92413e-16 255 255 255
-2.84817e-17 -2.37506e-17  1.92087e-16 255 255 255
 2.56348e-17 -2.72044e-17  1.91483e-16 255 255 255
 2.15531e-18 -2.45934e-17  1.91116e-16 255 255 255
-5.24978e-17 -1.87669e-17  1.90275e-16 255 255 255
-1.77254e-17 -2.12624e-17  1.90061e-16 255 255 255
-5.70603e-17 -1.66007e-17  1.89198e-16 255 255 255
 6.02507e-17 -2.56958e-17  1.87712e-16 255 255 255
 5.18914e-17 -2.45188e-17  1.87456e-16 255 255 255
-4.94784e-17 -1.54687e-17  1.88063e-16 255 255 255
-8.21919e-17 -1.18315e-17  1.87522e-16 255 255 255
 1.81249e-17 -1.93061e-17  1.86012e-16 255 255 255
-3.15953e-17 -1.43924e-17  1.86102e-16 255 255 255
 -4.1673e-17 -1.32236e-17  1.85957e-16 255 255 255
-3.79857e-17 -5.80312e-17  1.99385e-16 255 255 255
-8.42566e-18 -6.4249e-17 2.00709e-16 255 255 255
-6.01654e-17 -5.00038e-17   1.9855e-16 255 255 255
 1.77958e-17 -5.52925e-17  2.02157e-16 255 255 255
 1.56214e-17 -5.32321e-17  2.01844e-16 255 255 255
-4.08411e-17 -4.36822e-17  1.98967e-16 255 255 255
-2.09317e-17 -4.54813e-17  1.99743e-16 255 255 255
 2.78702e-17 -4.14633e-17  1.98912e-16 255 255 255
-7.18258e-17 -2.67467e-17  1.94485e-16 255 255 255
 2.40163e-17 -2.50113e-17  1.90046e-16 255 255 255
 2.78057e-17 -2.49955e-17   1.8977e-16 255 255 255
-5.73865e-17 -1.62548e-17  1.89002e-16 255 255 255
-1.07698e-17 -2.08672e-17  1.89384e-16 255 255 255
 5.72055e-17 -2.46236e-17  1.87059e-16 255 255 255
-1.72236e-17 -1.72585e-17  1.87219e-16 255 255 255
 4.58508e-17 -7.56248e-17  2.03055e-16 255 255 255
-1.08138e-17 -6.5898e-17 2.00296e-16 255 255 255
 1.82391e-17 -6.41246e-17  2.02431e-16 255 255 255
  2.0281e-17 -6.21145e-17  2.02597e-16 255 255 255
-5.83297e-17 -4.75727e-17  1.98643e-16 255 255 255
4.47312e-17  -5.695e-17 2.03155e-16 255 255 255
-4.64149e-17 -4.00017e-17  1.98231e-16 255 255 255
-3.65601e-17 -3.69803e-17  1.97658e-16 255 255 255
-1.58186e-17 -3.26362e-17  1.96039e-16 255 255 255
 -3.1874e-17 -2.84208e-17  1.94542e-16 255 255 255
 2.50174e-17 -2.04311e-17   1.8636e-16 255 255 255
-5.10574e-17 -1.30972e-17   1.8652e-16 255 255 255
 6.87759e-18 -1.77307e-17  1.85668e-16 255 255 255
-4.15369e-17 -1.08562e-17  1.84089e-16 255 255 255
  6.4675e-17 -6.27747e-17  2.04489e-16 255 255 255
 4.99159e-17 -4.60735e-17    2.004e-16 255 255 255
-7.54991e-17 -2.43171e-17  1.93619e-16 255 255 255
-9.51299e-17 -1.53719e-17  1.90068e-16 255 255 255
-2.98511e-17 -1.86587e-17   1.8904e-16 255 255 255
-6.60899e-17 -8.38118e-18  1.84075e-16 255 255 255
4.45721e-17 -5.4092e-17 2.02645e-16 255 255 255
-1.60746e-17 -3.89373e-17  1.98291e-16 255 255 255
 8.00119e-17 -4.50893e-17  1.99417e-16 255 255 255
 6.3696e-17   -3.25e-17 1.92762e-16 255 255 255
 5.32334e-17 -2.93265e-17  1.91183e-16 255 255 255
-5.27537e-17 -1.59812e-17  1.88585e-16 255 255 255
-2.23514e-17 -1.89756e-17  1.88801e-16 255 255 255
-6.21022e-17 -1.19365e-17  1.86421e-16 255 255 255
 -6.0473e-17 -9.11719e-18  1.84216e-16 255 255 255
 5.29304e-17 -6.03651e-17  2.03845e-16 255 255 255
-2.51145e-17 -2.27041e-17  1.91338e-16 255 255 255
 6.17975e-17 -5.00823e-17  2.01709e-16 255 255 255
 3.13659e-18 -5.76125e-17  2.01723e-16 255 255 255
 1.85107e-18 -5.65624e-17  2.01633e-16 255 255 255
 4.64973e-17 -6.70512e-17  2.03902e-16 255 255 255
 5.42919e-17 -6.96997e-17  2.04251e-16 255 255 255
 5.62514e-17 -6.92117e-17  2.04377e-16 255 255 255
 5.87999e-17 -6.87452e-17  2.04523e-16 255 255 255
  7.177e-17 -7.2511e-17 2.05129e-16 255 255 255
-4.56155e-17 -5.21041e-17  1.99284e-16 255 255 255
  7.7349e-17 -7.00247e-17  2.05448e-16 255 255 255
-3.65132e-17 -4.63591e-17  1.99427e-16 255 255 255
 8.13682e-17 -6.69965e-17  2.05467e-16 255 255 255
-3.07882e-17 -2.2149e-17 1.91271e-16 255 255 255
 7.76379e-17 -6.21585e-17   2.0478e-16 255 255 255
-5.31378e-17 -1.74667e-17  1.89533e-16 255 255 255
-4.85289e-17 -1.80118e-17  1.89638e-16 255 255 255
-4.69623e-17 -1.67013e-17   1.8873e-16 255 255 255
-4.55964e-17 -1.59622e-17  1.88164e-16 255 255 255
-5.12089e-17 -3.70541e-17  1.97539e-16 255 255 255
-5.95084e-17 -1.27121e-17  1.86797e-16 255 255 255
-4.25903e-17 -3.60638e-17  1.97374e-16 255 255 255
-6.30496e-17 -1.02203e-17  1.85247e-16 255 255 255
  -5.912e-17 -1.03844e-17  1.85087e-16 255 255 255
 -6.0354e-17 -9.99206e-18  1.84881e-16 255 255 255
-5.90793e-17 -9.87441e-18  1.84696e-16 255 255 255
-5.78318e-17 -9.94019e-18  1.84653e-16 255 255 255
-6.16061e-17 -9.25583e-18  1.84411e-16 255 255 255
-6.03488e-17 -9.42581e-18  1.84447e-16 255 255 255
-6.14655e-17 -8.83645e-18  1.84074e-16 255 255 255
-5.45961e-17 -9.62018e-18  1.84153e-16 255 255 255
 -6.0156e-17 -7.97544e-18  1.83281e-16 255 255 255
-4.89651e-17 -9.69596e-18  1.83758e-16 255 255 255
-2.77001e-17 -1.57985e-17   1.8688e-16 255 255 255
-4.76673e-17 -9.46108e-18  1.83456e-16 255 255 255
-5.37545e-17 -8.16532e-18  1.82899e-16 255 255 255
-4.3957e-17 -9.7789e-18 1.83403e-16 255 255 255
-5.99648e-17 -6.80347e-18  1.82294e-16 255 255 255
-4.76397e-17 -8.89337e-18  1.82979e-16 255 255 255
-4.63846e-17 -8.98766e-18  1.82949e-16 255 255 255
-5.68633e-17 -7.35689e-18  1.82489e-16 255 255 255
-5.38106e-17 -7.78044e-18   1.8258e-16 255 255 255
-5.24729e-17 -7.77337e-18  1.82456e-16 255 255 255
-4.99989e-17 -8.01556e-18  1.82442e-16 255 255 255
-5.73914e-17 -6.62402e-18  1.81911e-16 255 255 255
-5.98721e-17 -6.04501e-18  1.81636e-16 255 255 255
 -4.8795e-17 -7.80759e-18  1.82153e-16 255 255 255
-5.11657e-17 -7.27024e-18  1.81903e-16 255 255 255
-4.51695e-17 -8.17268e-18  1.82137e-16 255 255 255
 6.82384e-17 -4.28255e-17   1.9866e-16 255 255 255
-1.4701e-17 -1.4222e-17 1.84595e-16 255 255 255
 1.92915e-17 -2.16597e-17   1.8785e-16 255 255 255
 2.00212e-17 -2.19716e-17  1.88038e-16 255 255 255
 2.12095e-17 -2.08996e-17  1.87079e-16 255 255 255
 1.49219e-17 -1.87725e-17  1.85842e-16 255 255 255
 8.59156e-17 -4.33383e-17   1.9833e-16 255 255 255
 1.91516e-17 -2.01436e-17  1.86628e-16 255 255 255
 7.24395e-17 -3.76249e-17  1.95632e-16 255 255 255
 4.13774e-17 -2.48208e-17  1.88605e-16 255 255 255
 2.72514e-17 -2.02544e-17  1.86006e-16 255 255 255
 1.81717e-17 -1.69639e-17  1.83932e-16 255 255 255
 2.76082e-17 -1.97435e-17  1.85526e-16 255 255 255
-1.81739e-17 -7.04724e-18  1.78185e-16 255 255 255
 5.28408e-17 -2.70227e-17  1.89446e-16 255 255 255
 2.38931e-17 -1.68539e-17  1.83243e-16 255 255 255
 2.04126e-17 -1.54486e-17  1.82258e-16 255 255 255
 1.69568e-17 -1.33458e-17  1.80538e-16 255 255 255
 4.43493e-17 -2.15859e-17  1.85567e-16 255 255 255
1.57031e-17 -1.1641e-17  1.7889e-16 255 255 255
 3.08713e-17 -1.60096e-17  1.81637e-16 255 255 255
 3.54765e-17 -1.70882e-17  1.82199e-16 255 255 255
 1.92195e-17 -8.41945e-18  1.74687e-16 255 255 255
 1.87095e-17 -7.37809e-18  1.73457e-16 255 255 255
-1.25588e-17 -5.23003e-17  2.00808e-16 255 255 255
 7.21938e-17 -7.53805e-17  2.04966e-16 255 255 255
 7.17624e-17 -7.18828e-17  2.05151e-16 255 255 255
-4.84694e-17 -4.85748e-17   1.9912e-16 255 255 255
-5.20378e-17 -4.64701e-17  1.98869e-16 255 255 255
-4.05413e-17 -4.66305e-17  1.99316e-16 255 255 255
-4.36507e-17 -4.5297e-17  1.9908e-16 255 255 255
-2.88151e-17 -2.28775e-17  1.91606e-16 255 255 255
-4.72319e-17 -1.81165e-17  1.89637e-16 255 255 255
-4.78881e-17 -1.7595e-17 1.89348e-16 255 255 255
-5.50955e-17 -3.78433e-17  1.97651e-16 255 255 255
-3.35895e-17 -1.93143e-17  1.89678e-16 255 255 255
-5.37186e-17 -3.79176e-17  1.97689e-16 255 255 255
-2.72832e-17 -2.01313e-17  1.89859e-16 255 255 255
-5.17424e-17 -1.54649e-17  1.88192e-16 255 255 255
-3.83429e-17 -1.70509e-17  1.88465e-16 255 255 255
-6.32221e-17 -1.27625e-17  1.87062e-16 255 255 255
-5.55254e-17 -3.54326e-17  1.97106e-16 255 255 255
-4.94156e-17 -1.39768e-17  1.87038e-16 255 255 255
-3.82699e-17 -1.45957e-17  1.86735e-16 255 255 255
-4.02108e-17 -1.39291e-17   1.8638e-16 255 255 255
-1.19203e-17 -3.33316e-17   1.9626e-16 255 255 255
 8.93554e-17 -5.51993e-17   2.0329e-16 255 255 255
-2.87859e-17 -1.54594e-17  1.86704e-16 255 255 255
-2.63198e-17 -1.56016e-17  1.86632e-16 255 255 255
-2.46471e-17 -1.48488e-17  1.85926e-16 255 255 255
2.40065e-17 -2.4071e-17 1.89352e-16 255 255 255
 1.41967e-17 -1.89641e-17  1.86069e-16 255 255 255
 2.98516e-17 -2.29999e-17  1.88074e-16 255 255 255
 4.09017e-17 -2.60121e-17  1.89579e-16 255 255 255
 3.03938e-17 -2.21665e-17   1.8735e-16 255 255 255
 2.08368e-17 -1.88034e-17  1.85331e-16 255 255 255
 5.98047e-17 -3.15028e-17  1.92311e-16 255 255 255
 3.10507e-17 -2.15972e-17  1.86816e-16 255 255 255
 1.51011e-17 -1.60674e-17  1.83412e-16 255 255 255
 5.12868e-17 -2.78296e-17  1.90195e-16 255 255 255
 7.23953e-17 -3.34313e-17  1.92854e-16 255 255 255
 7.18935e-17 -3.28186e-17  1.92445e-16 255 255 255
 1.80013e-17 -1.45048e-17  1.81592e-16 255 255 255
1.88789e-17 -1.3171e-17 1.80124e-16 255 255 255
 1.79571e-17 -1.16619e-17  1.78626e-16 255 255 255
 2.00697e-17 -1.14822e-17  1.78149e-16 255 255 255
 2.54976e-17 -1.30018e-17  1.79126e-16 255 255 255
 2.19203e-17 -1.17849e-17  1.78244e-16 255 255 255
 2.19864e-17 -1.12704e-17  1.77659e-16 255 255 255
 2.58623e-17 -1.09856e-17  1.76797e-16 255 255 255
 2.00598e-17 -8.69853e-18  1.74898e-16 255 255 255
 6.72444e-18 -5.79276e-17  2.01896e-16 255 255 255
 4.43329e-17 -7.34929e-17  2.03269e-16 255 255 255
 4.79823e-17 -7.30648e-17  2.03582e-16 255 255 255
 5.14274e-17 -6.94048e-17  2.04099e-16 255 255 255
 6.28048e-17 -7.09562e-17  2.04683e-16 255 255 255
-5.98097e-17 -2.30095e-17   1.9275e-16 255 255 255
-5.94735e-17 -4.60307e-17  1.98538e-16 255 255 255
-3.79965e-17 -2.43034e-17  1.92736e-16 255 255 255
-5.30012e-17 -2.0287e-17 1.91153e-16 255 255 255
-3.93938e-17 -1.83521e-17  1.89377e-16 255 255 255
-2.13604e-17 -1.38915e-17  1.84891e-16 255 255 255
 7.78283e-17 -4.48647e-17  1.99371e-16 255 255 255
 1.35856e-17 -2.08397e-17  1.87651e-16 255 255 255
  4.7436e-17 -2.71592e-17  1.89971e-16 255 255 255
 2.84902e-17 -2.00614e-17  1.85721e-16 255 255 255
-1.50358e-17 -6.53246e-18  1.77246e-16 255 255 255
-5.19191e-17  -1.829e-17 1.89969e-16 255 255 255
-5.41756e-17 -1.76495e-17  1.89693e-16 255 255 255
-3.85631e-17 -1.97066e-17   1.9018e-16 255 255 255
 7.19938e-17 -5.21277e-17  2.02343e-16 255 255 255
-5.01266e-17 -1.20546e-17  1.85691e-16 255 255 255
 2.64022e-17 -2.29851e-17  1.88337e-16 255 255 255
 2.46379e-17 -1.10385e-17   1.7703e-16 255 255 255
 3.83953e-17 -1.24974e-17  1.76797e-16 255 255 255
 2.08182e-17 -1.67891e-17    1.835e-16 255 255 255
-3.16163e-17 -2.55912e-17  1.93182e-16 255 255 255
-5.05609e-17 -1.79006e-17   1.8967e-16 255 255 255
 -3.8139e-17 -8.16539e-18  1.81461e-16 255 255 255
 1.81249e-17 -1.93061e-17  1.86012e-16 255 255 255
 8.43856e-17 -4.17438e-17  1.97512e-16 255 255 255
-4.51622e-17 -2.31515e-17  1.92385e-16 255 255 255
 3.82707e-17 -9.80948e-18  1.73463e-16 255 255 255
-5.27537e-17 -1.59812e-17  1.88585e-16 255 255 255
 5.95303e-17 -6.84807e-17  2.04563e-16 255 255 255
 7.76379e-17 -6.21585e-17   2.0478e-16 255 255 255
 8.57745e-17 -5.74687e-17  2.03933e-16 255 255 255
  5.7502e-17 -6.92341e-17  2.04445e-16 255 255 255
  7.177e-17 -7.2511e-17 2.05129e-16 255 255 255
-5.65831e-17 -5.4565e-17 1.98497e-16 255 255 255
 8.33136e-17 -4.63249e-17  1.99913e-16 255 255 255
  7.5915e-17 -7.06103e-17  2.05385e-16 255 255 255
 1.22292e-17 -1.74973e-17  1.84985e-16 255 255 255
-5.84413e-17 -5.30464e-17  1.98503e-16 255 255 255
-2.89773e-17 -4.02649e-17  1.98558e-16 255 255 255
 7.86359e-17 -4.41257e-17  1.98987e-16 255 255 255
 5.74105e-17 -6.17415e-17   2.0414e-16 255 255 255
 6.27982e-17 -1.15626e-17  1.71633e-16 255 255 255
 8.67721e-17 -7.17254e-17  2.05923e-16 255 255 255
 5.95303e-17 -6.84807e-17  2.04563e-16 255 255 255
5.68071e-17 -6.9589e-17 2.04397e-16 255 255 255
-0 -0 -0 0 255 0
