<?xml version="1.0" standalone="yes"?>
<!-- SVG graphic -->
<svg xmlns='http://www.w3.org/2000/svg' xmlns:xlink='http://www.w3.org/1999/xlink'
 version="1.1">
<rect x="0" y="300" width="3.33333" height="0" stroke="black" stroke-width="1" fill="blue" tooltip="enable"><title>(0,0)</title></rect><rect x="3.33333" y="300" width="3.33333" height="0" stroke="black" stroke-width="1" fill="blue" tooltip="enable"><title>(0.947619,0)</title></rect><rect x="6.66667" y="300" width="3.33333" height="0" stroke="black" stroke-width="1" fill="blue" tooltip="enable"><title>(1.89524,0)</title></rect><rect x="10" y="150" width="3.33333" height="150" stroke="black" stroke-width="1" fill="blue" tooltip="enable"><title>(2.84286,1)</title></rect><rect x="13.3333" y="300" width="3.33333" height="0" stroke="black" stroke-width="1" fill="blue" tooltip="enable"><title>(3.79047,0)</title></rect><rect x="16.6667" y="150" width="3.33333" height="150" stroke="black" stroke-width="1" fill="blue" tooltip="enable"><title>(4.73809,1)</title></rect><rect x="20" y="150" width="3.33333" height="150" stroke="black" stroke-width="1" fill="blue" tooltip="enable"><title>(5.68571,1)</title></rect><rect x="23.3333" y="0" width="3.33333" height="300" stroke="black" stroke-width="1" fill="blue" tooltip="enable"><title>(6.63333,2)</title></rect><rect x="26.6667" y="300" width="3.33333" height="0" stroke="black" stroke-width="1" fill="blue" tooltip="enable"><title>(7.58095,0)</title></rect><rect x="30" y="150" width="3.33333" height="150" stroke="black" stroke-width="1" fill="blue" tooltip="enable"><title>(8.52857,1)</title></rect><rect x="33.3333" y="300" width="3.33333" height="0" stroke="black" stroke-width="1" fill="blue" tooltip="enable"><title>(9.47619,0)</title></rect><rect x="36.6667" y="300" width="3.33333" height="0" stroke="black" stroke-width="1" fill="blue" tooltip="enable"><title>(10.4238,0)</title></rect><rect x="40" y="300" width="3.33333" height="0" stroke="black" stroke-width="1" fill="blue" tooltip="enable"><title>(11.3714,0)</title></rect><rect x="43.3333" y="150" width="3.33333" height="150" stroke="black" stroke-width="1" fill="blue" tooltip="enable"><title>(12.319,1)</title></rect><rect x="46.6667" y="300" width="3.33333" height="0" stroke="black" stroke-width="1" fill="blue" tooltip="enable"><title>(13.2667,0)</title></rect><rect x="50" y="300" width="3.33333" height="0" stroke="black" stroke-width="1" fill="blue" tooltip="enable"><title>(14.2143,0)</title></rect><rect x="53.3333" y="150" width="3.33333" height="150" stroke="black" stroke-width="1" fill="blue" tooltip="enable"><title>(15.1619,1)</title></rect><rect x="56.6667" y="300" width="3.33333" height="0" stroke="black" stroke-width="1" fill="blue" tooltip="enable"><title>(16.1095,0)</title></rect><rect x="60" y="150" width="3.33333" height="150" stroke="black" stroke-width="1" fill="blue" tooltip="enable"><title>(17.0571,1)</title></rect><rect x="63.3333" y="150" width="3.33333" height="150" stroke="black" stroke-width="1" fill="blue" tooltip="enable"><title>(18.0048,1)</title></rect><rect x="66.6667" y="150" width="3.33333" height="150" stroke="black" stroke-width="1" fill="blue" tooltip="enable"><title>(18.9524,1)</title></rect><rect x="70" y="300" width="3.33333" height="0" stroke="black" stroke-width="1" fill="blue" tooltip="enable"><title>(19.9,0)</title></rect><rect x="73.3333" y="300" width="3.33333" height="0" stroke="black" stroke-width="1" fill="blue" tooltip="enable"><title>(20.8476,0)</title></rect><rect x="76.6667" y="150" width="3.33333" height="150" stroke="black" stroke-width="1" fill="blue" tooltip="enable"><title>(21.7952,1)</title></rect><rect x="80" y="300" width="3.33333" height="0" stroke="black" stroke-width="1" fill="blue" tooltip="enable"><title>(22.7428,0)</title></rect><rect x="83.3333" y="150" width="3.33333" height="150" stroke="black" stroke-width="1" fill="blue" tooltip="enable"><title>(23.6905,1)</title></rect><rect x="86.6667" y="300" width="3.33333" height="0" stroke="black" stroke-width="1" fill="blue" tooltip="enable"><title>(24.6381,0)</title></rect><rect x="90" y="300" width="3.33333" height="0" stroke="black" stroke-width="1" fill="blue" tooltip="enable"><title>(25.5857,0)</title></rect><rect x="93.3333" y="300" width="3.33333" height="0" stroke="black" stroke-width="1" fill="blue" tooltip="enable"><title>(26.5333,0)</title></rect><rect x="96.6667" y="150" width="3.33333" height="150" stroke="black" stroke-width="1" fill="blue" tooltip="enable"><title>(27.4809,1)</title></rect><rect x="100" y="300" width="3.33333" height="0" stroke="black" stroke-width="1" fill="blue" tooltip="enable"><title>(28.4286,0)</title></rect><rect x="103.333" y="300" width="3.33333" height="0" stroke="black" stroke-width="1" fill="blue" tooltip="enable"><title>(29.3762,0)</title></rect><rect x="106.667" y="300" width="3.33333" height="0" stroke="black" stroke-width="1" fill="blue" tooltip="enable"><title>(30.3238,0)</title></rect><rect x="110" y="150" width="3.33333" height="150" stroke="black" stroke-width="1" fill="blue" tooltip="enable"><title>(31.2714,1)</title></rect><rect x="113.333" y="300" width="3.33333" height="0" stroke="black" stroke-width="1" fill="blue" tooltip="enable"><title>(32.219,0)</title></rect><rect x="116.667" y="300" width="3.33333" height="0" stroke="black" stroke-width="1" fill="blue" tooltip="enable"><title>(33.1666,0)</title></rect><rect x="120" y="300" width="3.33333" height="0" stroke="black" stroke-width="1" fill="blue" tooltip="enable"><title>(34.1143,0)</title></rect><rect x="123.333" y="300" width="3.33333" height="0" stroke="black" stroke-width="1" fill="blue" tooltip="enable"><title>(35.0619,0)</title></rect><rect x="126.667" y="150" width="3.33333" height="150" stroke="black" stroke-width="1" fill="blue" tooltip="enable"><title>(36.0095,1)</title></rect><rect x="130" y="300" width="3.33333" height="0" stroke="black" stroke-width="1" fill="blue" tooltip="enable"><title>(36.9571,0)</title></rect><rect x="133.333" y="300" width="3.33333" height="0" stroke="black" stroke-width="1" fill="blue" tooltip="enable"><title>(37.9047,0)</title></rect><rect x="136.667" y="300" width="3.33333" height="0" stroke="black" stroke-width="1" fill="blue" tooltip="enable"><title>(38.8524,0)</title></rect><rect x="140" y="300" width="3.33333" height="0" stroke="black" stroke-width="1" fill="blue" tooltip="enable"><title>(39.8,0)</title></rect><rect x="143.333" y="300" width="3.33333" height="0" stroke="black" stroke-width="1" fill="blue" tooltip="enable"><title>(40.7476,0)</title></rect><rect x="146.667" y="300" width="3.33333" height="0" stroke="black" stroke-width="1" fill="blue" tooltip="enable"><title>(41.6952,0)</title></rect><rect x="150" y="300" width="3.33333" height="0" stroke="black" stroke-width="1" fill="blue" tooltip="enable"><title>(42.6428,0)</title></rect><rect x="153.333" y="300" width="3.33333" height="0" stroke="black" stroke-width="1" fill="blue" tooltip="enable"><title>(43.5905,0)</title></rect><rect x="156.667" y="300" width="3.33333" height="0" stroke="black" stroke-width="1" fill="blue" tooltip="enable"><title>(44.5381,0)</title></rect><rect x="160" y="300" width="3.33333" height="0" stroke="black" stroke-width="1" fill="blue" tooltip="enable"><title>(45.4857,0)</title></rect><rect x="163.333" y="300" width="3.33333" height="0" stroke="black" stroke-width="1" fill="blue" tooltip="enable"><title>(46.4333,0)</title></rect><rect x="166.667" y="300" width="3.33333" height="0" stroke="black" stroke-width="1" fill="blue" tooltip="enable"><title>(47.3809,0)</title></rect><rect x="170" y="300" width="3.33333" height="0" stroke="black" stroke-width="1" fill="blue" tooltip="enable"><title>(48.3285,0)</title></rect><rect x="173.333" y="300" width="3.33333" height="0" stroke="black" stroke-width="1" fill="blue" tooltip="enable"><title>(49.2762,0)</title></rect><rect x="176.667" y="300" width="3.33333" height="0" stroke="black" stroke-width="1" fill="blue" tooltip="enable"><title>(50.2238,0)</title></rect><rect x="180" y="300" width="3.33333" height="0" stroke="black" stroke-width="1" fill="blue" tooltip="enable"><title>(51.1714,0)</title></rect><rect x="183.333" y="300" width="3.33333" height="0" stroke="black" stroke-width="1" fill="blue" tooltip="enable"><title>(52.119,0)</title></rect><rect x="186.667" y="300" width="3.33333" height="0" stroke="black" stroke-width="1" fill="blue" tooltip="enable"><title>(53.0666,0)</title></rect><rect x="190" y="300" width="3.33333" height="0" stroke="black" stroke-width="1" fill="blue" tooltip="enable"><title>(54.0143,0)</title></rect><rect x="193.333" y="300" width="3.33333" height="0" stroke="black" stroke-width="1" fill="blue" tooltip="enable"><title>(54.9619,0)</title></rect><rect x="196.667" y="300" width="3.33333" height="0" stroke="black" stroke-width="1" fill="blue" tooltip="enable"><title>(55.9095,0)</title></rect><rect x="200" y="300" width="3.33333" height="0" stroke="black" stroke-width="1" fill="blue" tooltip="enable"><title>(56.8571,0)</title></rect><rect x="203.333" y="300" width="3.33333" height="0" stroke="black" stroke-width="1" fill="blue" tooltip="enable"><title>(57.8047,0)</title></rect><rect x="206.667" y="300" width="3.33333" height="0" stroke="black" stroke-width="1" fill="blue" tooltip="enable"><title>(58.7523,0)</title></rect><rect x="210" y="300" width="3.33333" height="0" stroke="black" stroke-width="1" fill="blue" tooltip="enable"><title>(59.7,0)</title></rect><rect x="213.333" y="300" width="3.33333" height="0" stroke="black" stroke-width="1" fill="blue" tooltip="enable"><title>(60.6476,0)</title></rect><rect x="216.667" y="300" width="3.33333" height="0" stroke="black" stroke-width="1" fill="blue" tooltip="enable"><title>(61.5952,0)</title></rect><rect x="220" y="300" width="3.33333" height="0" stroke="black" stroke-width="1" fill="blue" tooltip="enable"><title>(62.5428,0)</title></rect><rect x="223.333" y="300" width="3.33333" height="0" stroke="black" stroke-width="1" fill="blue" tooltip="enable"><title>(63.4904,0)</title></rect><rect x="226.667" y="150" width="3.33333" height="150" stroke="black" stroke-width="1" fill="blue" tooltip="enable"><title>(64.4381,1)</title></rect><rect x="230" y="300" width="3.33333" height="0" stroke="black" stroke-width="1" fill="blue" tooltip="enable"><title>(65.3857,0)</title></rect><rect x="233.333" y="300" width="3.33333" height="0" stroke="black" stroke-width="1" fill="blue" tooltip="enable"><title>(66.3333,0)</title></rect><rect x="236.667" y="300" width="3.33333" height="0" stroke="black" stroke-width="1" fill="blue" tooltip="enable"><title>(67.2809,0)</title></rect><rect x="240" y="300" width="3.33333" height="0" stroke="black" stroke-width="1" fill="blue" tooltip="enable"><title>(68.2285,0)</title></rect><rect x="243.333" y="300" width="3.33333" height="0" stroke="black" stroke-width="1" fill="blue" tooltip="enable"><title>(69.1761,0)</title></rect><rect x="246.667" y="300" width="3.33333" height="0" stroke="black" stroke-width="1" fill="blue" tooltip="enable"><title>(70.1238,0)</title></rect><rect x="250" y="300" width="3.33333" height="0" stroke="black" stroke-width="1" fill="blue" tooltip="enable"><title>(71.0714,0)</title></rect><rect x="253.333" y="300" width="3.33333" height="0" stroke="black" stroke-width="1" fill="blue" tooltip="enable"><title>(72.019,0)</title></rect><rect x="256.667" y="300" width="3.33333" height="0" stroke="black" stroke-width="1" fill="blue" tooltip="enable"><title>(72.9666,0)</title></rect><rect x="260" y="300" width="3.33333" height="0" stroke="black" stroke-width="1" fill="blue" tooltip="enable"><title>(73.9142,0)</title></rect><rect x="263.333" y="300" width="3.33333" height="0" stroke="black" stroke-width="1" fill="blue" tooltip="enable"><title>(74.8619,0)</title></rect><rect x="266.667" y="300" width="3.33333" height="0" stroke="black" stroke-width="1" fill="blue" tooltip="enable"><title>(75.8095,0)</title></rect><rect x="270" y="300" width="3.33333" height="0" stroke="black" stroke-width="1" fill="blue" tooltip="enable"><title>(76.7571,0)</title></rect><rect x="273.333" y="300" width="3.33333" height="0" stroke="black" stroke-width="1" fill="blue" tooltip="enable"><title>(77.7047,0)</title></rect><rect x="276.667" y="300" width="3.33333" height="0" stroke="black" stroke-width="1" fill="blue" tooltip="enable"><title>(78.6523,0)</title></rect><rect x="280" y="300" width="3.33333" height="0" stroke="black" stroke-width="1" fill="blue" tooltip="enable"><title>(79.6,0)</title></rect><rect x="283.333" y="300" width="3.33333" height="0" stroke="black" stroke-width="1" fill="blue" tooltip="enable"><title>(80.5476,0)</title></rect><rect x="286.667" y="300" width="3.33333" height="0" stroke="black" stroke-width="1" fill="blue" tooltip="enable"><title>(81.4952,0)</title></rect><rect x="290" y="300" width="3.33333" height="0" stroke="black" stroke-width="1" fill="blue" tooltip="enable"><title>(82.4428,0)</title></rect><rect x="293.333" y="300" width="3.33333" height="0" stroke="black" stroke-width="1" fill="blue" tooltip="enable"><title>(83.3904,0)</title></rect><rect x="296.667" y="300" width="3.33333" height="0" stroke="black" stroke-width="1" fill="blue" tooltip="enable"><title>(84.338,0)</title></rect><rect x="300" y="300" width="3.33333" height="0" stroke="black" stroke-width="1" fill="blue" tooltip="enable"><title>(85.2857,0)</title></rect><rect x="303.333" y="300" width="3.33333" height="0" stroke="black" stroke-width="1" fill="blue" tooltip="enable"><title>(86.2333,0)</title></rect><rect x="306.667" y="300" width="3.33333" height="0" stroke="black" stroke-width="1" fill="blue" tooltip="enable"><title>(87.1809,0)</title></rect><rect x="310" y="300" width="3.33333" height="0" stroke="black" stroke-width="1" fill="blue" tooltip="enable"><title>(88.1285,0)</title></rect><rect x="313.333" y="300" width="3.33333" height="0" stroke="black" stroke-width="1" fill="blue" tooltip="enable"><title>(89.0761,0)</title></rect><rect x="316.667" y="300" width="3.33333" height="0" stroke="black" stroke-width="1" fill="blue" tooltip="enable"><title>(90.0238,0)</title></rect><rect x="320" y="300" width="3.33333" height="0" stroke="black" stroke-width="1" fill="blue" tooltip="enable"><title>(90.9714,0)</title></rect><rect x="323.333" y="300" width="3.33333" height="0" stroke="black" stroke-width="1" fill="blue" tooltip="enable"><title>(91.919,0)</title></rect><rect x="326.667" y="300" width="3.33333" height="0" stroke="black" stroke-width="1" fill="blue" tooltip="enable"><title>(92.8666,0)</title></rect><rect x="330" y="300" width="3.33333" height="0" stroke="black" stroke-width="1" fill="blue" tooltip="enable"><title>(93.8142,0)</title></rect><rect x="333.333" y="300" width="3.33333" height="0" stroke="black" stroke-width="1" fill="blue" tooltip="enable"><title>(94.7619,0)</title></rect><rect x="336.667" y="300" width="3.33333" height="0" stroke="black" stroke-width="1" fill="blue" tooltip="enable"><title>(95.7095,0)</title></rect><rect x="340" y="300" width="3.33333" height="0" stroke="black" stroke-width="1" fill="blue" tooltip="enable"><title>(96.6571,0)</title></rect><rect x="343.333" y="300" width="3.33333" height="0" stroke="black" stroke-width="1" fill="blue" tooltip="enable"><title>(97.6047,0)</title></rect><rect x="346.667" y="300" width="3.33333" height="0" stroke="black" stroke-width="1" fill="blue" tooltip="enable"><title>(98.5523,0)</title></rect><rect x="350" y="300" width="3.33333" height="0" stroke="black" stroke-width="1" fill="blue" tooltip="enable"><title>(99.4999,0)</title></rect><rect x="353.333" y="300" width="3.33333" height="0" stroke="black" stroke-width="1" fill="blue" tooltip="enable"><title>(100.448,0)</title></rect><rect x="356.667" y="300" width="3.33333" height="0" stroke="black" stroke-width="1" fill="blue" tooltip="enable"><title>(101.395,0)</title></rect><rect x="360" y="300" width="3.33333" height="0" stroke="black" stroke-width="1" fill="blue" tooltip="enable"><title>(102.343,0)</title></rect><rect x="363.333" y="300" width="3.33333" height="0" stroke="black" stroke-width="1" fill="blue" tooltip="enable"><title>(103.29,0)</title></rect><rect x="366.667" y="300" width="3.33333" height="0" stroke="black" stroke-width="1" fill="blue" tooltip="enable"><title>(104.238,0)</title></rect><rect x="370" y="300" width="3.33333" height="0" stroke="black" stroke-width="1" fill="blue" tooltip="enable"><title>(105.186,0)</title></rect><rect x="373.333" y="300" width="3.33333" height="0" stroke="black" stroke-width="1" fill="blue" tooltip="enable"><title>(106.133,0)</title></rect><rect x="376.667" y="300" width="3.33333" height="0" stroke="black" stroke-width="1" fill="blue" tooltip="enable"><title>(107.081,0)</title></rect><rect x="380" y="300" width="3.33333" height="0" stroke="black" stroke-width="1" fill="blue" tooltip="enable"><title>(108.029,0)</title></rect><rect x="383.333" y="300" width="3.33333" height="0" stroke="black" stroke-width="1" fill="blue" tooltip="enable"><title>(108.976,0)</title></rect><rect x="386.667" y="300" width="3.33333" height="0" stroke="black" stroke-width="1" fill="blue" tooltip="enable"><title>(109.924,0)</title></rect><rect x="390" y="300" width="3.33333" height="0" stroke="black" stroke-width="1" fill="blue" tooltip="enable"><title>(110.871,0)</title></rect><rect x="393.333" y="300" width="3.33333" height="0" stroke="black" stroke-width="1" fill="blue" tooltip="enable"><title>(111.819,0)</title></rect><rect x="396.667" y="300" width="3.33333" height="0" stroke="black" stroke-width="1" fill="blue" tooltip="enable"><title>(112.767,0)</title></rect><rect x="400" y="300" width="3.33333" height="0" stroke="black" stroke-width="1" fill="blue" tooltip="enable"><title>(113.714,0)</title></rect><rect x="403.333" y="300" width="3.33333" height="0" stroke="black" stroke-width="1" fill="blue" tooltip="enable"><title>(114.662,0)</title></rect><rect x="406.667" y="300" width="3.33333" height="0" stroke="black" stroke-width="1" fill="blue" tooltip="enable"><title>(115.609,0)</title></rect><rect x="410" y="300" width="3.33333" height="0" stroke="black" stroke-width="1" fill="blue" tooltip="enable"><title>(116.557,0)</title></rect><rect x="413.333" y="300" width="3.33333" height="0" stroke="black" stroke-width="1" fill="blue" tooltip="enable"><title>(117.505,0)</title></rect><rect x="416.667" y="300" width="3.33333" height="0" stroke="black" stroke-width="1" fill="blue" tooltip="enable"><title>(118.452,0)</title></rect><rect x="420" y="300" width="3.33333" height="0" stroke="black" stroke-width="1" fill="blue" tooltip="enable"><title>(119.4,0)</title></rect><rect x="423.333" y="300" width="3.33333" height="0" stroke="black" stroke-width="1" fill="blue" tooltip="enable"><title>(120.348,0)</title></rect><rect x="426.667" y="300" width="3.33333" height="0" stroke="black" stroke-width="1" fill="blue" tooltip="enable"><title>(121.295,0)</title></rect><rect x="430" y="300" width="3.33333" height="0" stroke="black" stroke-width="1" fill="blue" tooltip="enable"><title>(122.243,0)</title></rect><rect x="433.333" y="300" width="3.33333" height="0" stroke="black" stroke-width="1" fill="blue" tooltip="enable"><title>(123.19,0)</title></rect><rect x="436.667" y="300" width="3.33333" height="0" stroke="black" stroke-width="1" fill="blue" tooltip="enable"><title>(124.138,0)</title></rect><rect x="440" y="300" width="3.33333" height="0" stroke="black" stroke-width="1" fill="blue" tooltip="enable"><title>(125.086,0)</title></rect><rect x="443.333" y="300" width="3.33333" height="0" stroke="black" stroke-width="1" fill="blue" tooltip="enable"><title>(126.033,0)</title></rect><rect x="446.667" y="300" width="3.33333" height="0" stroke="black" stroke-width="1" fill="blue" tooltip="enable"><title>(126.981,0)</title></rect><rect x="450" y="300" width="3.33333" height="0" stroke="black" stroke-width="1" fill="blue" tooltip="enable"><title>(127.928,0)</title></rect><rect x="453.333" y="300" width="3.33333" height="0" stroke="black" stroke-width="1" fill="blue" tooltip="enable"><title>(128.876,0)</title></rect><rect x="456.667" y="300" width="3.33333" height="0" stroke="black" stroke-width="1" fill="blue" tooltip="enable"><title>(129.824,0)</title></rect><rect x="460" y="300" width="3.33333" height="0" stroke="black" stroke-width="1" fill="blue" tooltip="enable"><title>(130.771,0)</title></rect><rect x="463.333" y="300" width="3.33333" height="0" stroke="black" stroke-width="1" fill="blue" tooltip="enable"><title>(131.719,0)</title></rect><rect x="466.667" y="300" width="3.33333" height="0" stroke="black" stroke-width="1" fill="blue" tooltip="enable"><title>(132.667,0)</title></rect><rect x="470" y="300" width="3.33333" height="0" stroke="black" stroke-width="1" fill="blue" tooltip="enable"><title>(133.614,0)</title></rect><rect x="473.333" y="300" width="3.33333" height="0" stroke="black" stroke-width="1" fill="blue" tooltip="enable"><title>(134.562,0)</title></rect><rect x="476.667" y="300" width="3.33333" height="0" stroke="black" stroke-width="1" fill="blue" tooltip="enable"><title>(135.509,0)</title></rect><rect x="480" y="300" width="3.33333" height="0" stroke="black" stroke-width="1" fill="blue" tooltip="enable"><title>(136.457,0)</title></rect><rect x="483.333" y="300" width="3.33333" height="0" stroke="black" stroke-width="1" fill="blue" tooltip="enable"><title>(137.405,0)</title></rect><rect x="486.667" y="300" width="3.33333" height="0" stroke="black" stroke-width="1" fill="blue" tooltip="enable"><title>(138.352,0)</title></rect><rect x="490" y="300" width="3.33333" height="0" stroke="black" stroke-width="1" fill="blue" tooltip="enable"><title>(139.3,0)</title></rect><rect x="493.333" y="300" width="3.33333" height="0" stroke="black" stroke-width="1" fill="blue" tooltip="enable"><title>(140.248,0)</title></rect><rect x="496.667" y="300" width="3.33333" height="0" stroke="black" stroke-width="1" fill="blue" tooltip="enable"><title>(141.195,0)</title></rect><rect x="500" y="300" width="3.33333" height="0" stroke="black" stroke-width="1" fill="blue" tooltip="enable"><title>(142.143,0)</title></rect><rect x="503.333" y="300" width="3.33333" height="0" stroke="black" stroke-width="1" fill="blue" tooltip="enable"><title>(143.09,0)</title></rect><rect x="506.667" y="300" width="3.33333" height="0" stroke="black" stroke-width="1" fill="blue" tooltip="enable"><title>(144.038,0)</title></rect><rect x="510" y="300" width="3.33333" height="0" stroke="black" stroke-width="1" fill="blue" tooltip="enable"><title>(144.986,0)</title></rect><rect x="513.333" y="300" width="3.33333" height="0" stroke="black" stroke-width="1" fill="blue" tooltip="enable"><title>(145.933,0)</title></rect><rect x="516.667" y="300" width="3.33333" height="0" stroke="black" stroke-width="1" fill="blue" tooltip="enable"><title>(146.881,0)</title></rect><rect x="520" y="300" width="3.33333" height="0" stroke="black" stroke-width="1" fill="blue" tooltip="enable"><title>(147.828,0)</title></rect><rect x="523.333" y="300" width="3.33333" height="0" stroke="black" stroke-width="1" fill="blue" tooltip="enable"><title>(148.776,0)</title></rect><rect x="526.667" y="300" width="3.33333" height="0" stroke="black" stroke-width="1" fill="blue" tooltip="enable"><title>(149.724,0)</title></rect><rect x="530" y="300" width="3.33333" height="0" stroke="black" stroke-width="1" fill="blue" tooltip="enable"><title>(150.671,0)</title></rect><rect x="533.333" y="300" width="3.33333" height="0" stroke="black" stroke-width="1" fill="blue" tooltip="enable"><title>(151.619,0)</title></rect><rect x="536.667" y="300" width="3.33333" height="0" stroke="black" stroke-width="1" fill="blue" tooltip="enable"><title>(152.567,0)</title></rect><rect x="540" y="300" width="3.33333" height="0" stroke="black" stroke-width="1" fill="blue" tooltip="enable"><title>(153.514,0)</title></rect><rect x="543.333" y="300" width="3.33333" height="0" stroke="black" stroke-width="1" fill="blue" tooltip="enable"><title>(154.462,0)</title></rect><rect x="546.667" y="300" width="3.33333" height="0" stroke="black" stroke-width="1" fill="blue" tooltip="enable"><title>(155.409,0)</title></rect><rect x="550" y="300" width="3.33333" height="0" stroke="black" stroke-width="1" fill="blue" tooltip="enable"><title>(156.357,0)</title></rect><rect x="553.333" y="150" width="3.33333" height="150" stroke="black" stroke-width="1" fill="blue" tooltip="enable"><title>(157.305,1)</title></rect><rect x="556.667" y="300" width="3.33333" height="0" stroke="black" stroke-width="1" fill="blue" tooltip="enable"><title>(158.252,0)</title></rect><rect x="560" y="300" width="3.33333" height="0" stroke="black" stroke-width="1" fill="blue" tooltip="enable"><title>(159.2,0)</title></rect><rect x="563.333" y="300" width="3.33333" height="0" stroke="black" stroke-width="1" fill="blue" tooltip="enable"><title>(160.148,0)</title></rect><rect x="566.667" y="300" width="3.33333" height="0" stroke="black" stroke-width="1" fill="blue" tooltip="enable"><title>(161.095,0)</title></rect><rect x="570" y="150" width="3.33333" height="150" stroke="black" stroke-width="1" fill="blue" tooltip="enable"><title>(162.043,1)</title></rect><rect x="573.333" y="300" width="3.33333" height="0" stroke="black" stroke-width="1" fill="blue" tooltip="enable"><title>(162.99,0)</title></rect><rect x="576.667" y="300" width="3.33333" height="0" stroke="black" stroke-width="1" fill="blue" tooltip="enable"><title>(163.938,0)</title></rect><rect x="580" y="300" width="3.33333" height="0" stroke="black" stroke-width="1" fill="blue" tooltip="enable"><title>(164.886,0)</title></rect><rect x="583.333" y="300" width="3.33333" height="0" stroke="black" stroke-width="1" fill="blue" tooltip="enable"><title>(165.833,0)</title></rect><rect x="586.667" y="300" width="3.33333" height="0" stroke="black" stroke-width="1" fill="blue" tooltip="enable"><title>(166.781,0)</title></rect><rect x="590" y="300" width="3.33333" height="0" stroke="black" stroke-width="1" fill="blue" tooltip="enable"><title>(167.728,0)</title></rect><rect x="593.333" y="300" width="3.33333" height="0" stroke="black" stroke-width="1" fill="blue" tooltip="enable"><title>(168.676,0)</title></rect><rect x="596.667" y="300" width="3.33333" height="0" stroke="black" stroke-width="1" fill="blue" tooltip="enable"><title>(169.624,0)</title></rect><text x="30" y="360" font-size="30" fill="black">0</text>
<text x="600" y="360" font-size="30" fill="black">170.571</text>
<polyline points="0,330,600,330" stroke="black" stroke-width="1" fill="none"/>
<text x="720" y="30" font-size="30" fill="black">2</text>
<text x="720" y="300" font-size="30" fill="black">0</text>
<polyline points="660,0,660,300" stroke="black" stroke-width="1" fill="none"/>
</svg>