0 1
568
26 1899
1256 1187
1935 1856
1939 1834
117 1270
120 88
2392 1859
1276 96
2651 2255
2653 2538
1277 131
1946 1842
2395 2251
2814 2534
141 130
1947 1237
152 136
2397 1876
1288 108
1950 590
2820 2536
162 151
2957 2549
169 1041
1954 140
2657 2263
2661 2544
2659 2275
1957 1881
2399 1885
1297 211
2401 2285
1960 1883
2822 2701
1965 1291
2960 2808
2402 1897
2403 2271
1968 1861
2665 2283
2667 2291
206 230
2669 2292
2824 2290
1979 1866
225 268
228 248
1984 1289
229 1683
231 262
2670 2303
1328 249
1329 1261
1332 1319
1986 1295
2672 2296
1335 1297
240 2625
2673 2315
3028 2886
2831 2560
248 285
2829 189
2000 1308
257 332
2002 1874
2677 2326
2408 2577
2679 2332
278 14
2964 2893
284 310
2411 2331
289 2240
292 182
2011 1902
2835 2718
298 2465
1351 336
301 1908
302 400
303 1960
312 20
2019 1952
2020 267
2416 2242
1356 1407
2418 1917
325 33
1357 1410
1359 1306
2421 2245
2024 1831
330 419
332 36
1363 58
1364 1833
350 292
352 667
357 1432
359 405
2039 460
363 501
1377 316
364 466
2435 2000
1380 1219
2440 2590
2041 2010
2042 1845
3163 3011
2847 2580
1386 1447
387 451
1390 516
2047 2021
1393 1446
2442 2337
396 492
398 359
1398 494
2050 734
403 345
402 2080
2698 2377
415 503
1402 1464
2699 2378
419 493
2059 1465
429 676
1410 511
434 360
2064 2026
2065 1480
2700 2728
438 1422
2448 1471
2856 2380
1418 526
2450 2032
2451 1483
2069 2366
2452 2587
1420 1501
2704 2382
2071 1992
2857 2748
3148 2990
1428 1958
1429 470
2705 703
2075 1505
2454 2041
2077 547
1433 521
1432 1509
1434 566
2080 1984
2455 2038
1442 569
1444 575
467 586
469 418
472 476
2082 1522
1450 1419
1449 591
2706 2046
2975 2754
3092 2903
1455 514
2461 2367
3041 2887
499 608
494 243
2094 1301
497 616
2096 1303
3158 3003
501 2009
2100 2060
2101 2369
2463 2293
2103 2030
2104 2066
2105 1434
2976 2755
517 477
2978 2746
1464 1453
2980 2818
1465 256
524 532
1467 1525
2464 2301
2982 2842
530 598
1470 637
2111 641
1474 1550
1473 638
1475 552
2468 2376
3043 2845
533 1449
1477 1555
2470 2375
2711 2401
2116 2023
2117 648
3094 2948
1485 559
1481 642
2118 1559
2869 2604
2119 1556
539 1320
2121 1561
2870 2615
2123 388
1493 651
2714 2605
545 656
1497 570
2128 1510
2127 1514
2129 1922
2477 2317
1502 1573
1500 657
1503 1484
1504 1576
2132 2079
2133 1523
561 665
2134 1577
2483 1926
2135 1518
2717 2607
2985 2911
2984 2841
2486 2320
1509 669
2718 2567
2719 2566
2487 2048
1512 671
1513 670
2986 2751
2488 2322
1515 1532
2138 1343
1518 602
1520 678
1521 1506
3096 2950
2720 2411
1522 603
1523 1528
1524 624
2721 2393
1528 687
2494 1935
2141 1931
2142 1590
2495 1591
2497 2050
2872 2713
2498 1544
2875 2753
607 1359
606 1363
2726 2089
2500 2617
610 341
611 627
2728 2093
1536 1526
1537 1369
2876 2614
1538 697
1542 889
621 605
2147 1953
2730 2573
3120 2954
2150 1538
2151 1567
1547 1377
2877 2716
2153 1566
2154 1553
2157 1533
3121 2952
631 362
2988 2761
1554 652
3160 2991
635 366
1553 706
636 1543
2505 2405
2160 1968
2504 2345
2166 1974
2882 2722
2507 2357
1561 1579
2884 2622
2885 2724
1565 1402
1568 387
1569 1583
651 674
1571 374
2169 2074
660 1399
2512 2075
1576 654
1575 398
1577 647
2172 1554
3171 3017
2889 2626
1578 399
1580 1406
667 664
2892 2726
1583 1412
2519 2586
2176 1995
1590 680
1591 1597
2521 2085
1593 702
2523 2103
2895 2730
2178 2002
2734 2628
2179 692
2180 2212
1600 696
1597 1442
699 478
2736 2593
2185 2004
2896 2429
709 704
2897 2735
1608 707
1609 1461
1615 506
2740 2597
2898 2630
3053 2859
2193 2029
727 764
1623 1482
3055 2770
2901 2744
2749 2601
2535 2383
745 522
2907 2600
1645 1498
3056 2861
2753 2449
2539 2043
2757 2387
1657 751
2994 2639
3125 2963
2218 1624
2219 1655
777 830
780 812
3058 2843
2225 1633
1672 589
1673 1529
2762 2610
787 2390
2230 1628
2231 1530
2232 1323
2234 1645
2235 1650
1684 1548
2915 2779
1686 788
809 636
1687 793
3128 2981
1690 1551
1693 1541
1696 1647
2246 1654
1697 826
3102 2916
827 801
2919 2759
1714 841
1717 1640
2921 2649
3003 2852
3103 2919
3005 2776
3004 1705
2266 1646
2267 2086
1731 1675
2781 2461
3064 2866
1740 827
2574 2131
2273 1602
2274 1653
1745 805
3065 2854
2784 2430
877 837
884 802
3104 2921
1751 737
2278 2129
1756 829
1753 745
1752 2097
2583 1103
901 724
1765 244
907 860
2585 2431
1768 891
2287 1626
2288 1627
919 735
3069 2868
1773 868
1774 870
925 832
2294 1630
1778 1635
933 1686
1780 863
937 779
1782 854
943 754
1784 1658
1785 883
1788 736
2305 1613
1792 1615
2309 2136
1795 903
2310 1666
3073 2864
2592 2440
2593 953
1798 1616
959 797
956 766
3105 2912
1806 762
1805 755
2794 2442
1807 1625
2933 2637
2796 2467
2316 2142
987 775
1811 1636
2317 2122
2596 2115
1814 884
2319 898
2936 2643
1818 876
2597 2116
2322 1629
1008 875
1009 772
1822 1623
3009 2778
3074 2960
2325 1697
1018 794
1019 758
1029 2092
2327 1676
1828 839
3011 2640
2329 1708
2939 2660
1042 894
2332 899
1051 810
2600 2121
1840 981
2338 2130
2602 2172
2603 2124
1056 821
2342 2119
2343 1690
1075 835
1845 2133
1080 842
2347 2153
1848 932
1850 927
1095 846
2349 1720
1854 935
2610 2149
1855 905
1107 850
2611 2161
3013 2863
1116 937
1127 867
1861 1707
1862 1661
1864 1731
2352 1712
2800 2651
2801 2656
1140 986
2615 2138
2616 2160
3080 2920
1155 960
2362 1728
2803 2665
1164 977
1166 1751
1172 1581
2806 2470
1887 991
3138 2984
3081 2870
2364 1711
1888 997
1175 915
2366 1733
1890 995
1891 1027
1180 921
1897 592
1899 1006
2808 2145
1189 954
1196 926
1907 938
2370 2490
2631 2475
2371 1014
2632 2664
2951 2663
3082 2869
2372 2150
1909 999
1210 1004
2810 2166
2633 2173
1211 982
2635 1770
0 2
278
1939 1731
2392 1797
1276 1162
2651 2143
1946 1758
2814 2151
2821 2417
2957 2427
169 1671
2658 2158
2661 2187
2659 1810
1297 378
193 224
2822 2580
1965 1308
2959 2570
197 35
200 285
1968 2140
2665 2208
206 386
1318 242
2669 2221
2824 2211
1979 1776
230 294
2670 2232
2962 2402
3111 2821
234 308
1332 1347
1986 1284
2672 2217
3027 2663
3028 2727
254 1204
2000 1295
2674 1886
2677 2252
271 339
2411 1911
292 1211
305 574
2019 1919
314 2518
1356 1367
1358 1369
327 237
345 426
2427 1893
357 499
363 1623
1377 1344
2688 2240
2847 2484
1390 494
392 2380
393 557
2851 2267
419 512
2059 1431
426 109
2064 1905
2448 589
443 480
1428 487
1431 1440
1442 632
1444 630
467 619
469 506
2082 1459
1450 1392
1449 1320
2706 1940
2087 1850
1452 651
3092 2740
2461 2266
2100 1952
2101 1922
2103 1447
1464 1435
1463 684
531 717
1473 695
1477 696
2711 2295
2983 2608
2118 1500
2870 2303
2123 1487
1497 735
2128 1511
553 1640
1504 725
2133 1528
2717 1969
2484 1935
1515 1534
2490 2617
2720 1493
1524 771
1526 652
592 2172
2494 1719
2141 1722
2142 733
2496 1516
2497 1524
2872 2555
2498 1540
607 1098
606 1097
611 676
1535 1904
2147 2112
2730 2390
622 58
2148 1543
626 720
2150 1530
1547 1733
1548 2083
2877 2558
2153 1552
2155 727
2157 1508
3121 2790
631 83
2988 2512
635 88
2160 1748
2504 2122
1558 1157
2166 1752
2882 2565
1561 795
1563 1963
648 1163
2885 2563
1568 1171
1569 732
2509 2398
1571 1164
2169 1529
2170 1755
1575 1179
2888 2613
2172 1514
2889 2524
1578 1178
1584 763
2519 2409
2176 1773
1589 1190
2521 1987
1593 2001
2178 2156
2181 1785
2736 2422
702 215
705 212
2185 1791
2186 1792
2187 1548
2897 2404
1609 1239
2742 1995
3053 2695
2193 703
727 862
1621 282
1623 1244
2901 2576
1626 1819
2749 2435
740 331
2537 2439
2535 2188
1642 1832
2907 2433
749 1267
757 303
2210 1837
760 314
3124 2796
1657 813
2543 2436
2759 2201
769 1061
2220 1616
777 913
1672 358
2762 2445
1674 1322
2230 1677
2231 1304
797 410
1678 375
1681 373
800 391
2234 1573
1684 1321
805 812
2238 1184
2246 850
827 804
1713 844
1722 856
2921 2323
3003 2593
843 467
2267 1882
853 1268
2782 2533
2781 2328
2574 2024
2274 1555
873 777
3065 2676
2785 2247
877 794
2278 1570
2581 2041
2788 2476
1758 1602
1784 1606
1788 517
1793 523
2310 1589
3073 2637
957 882
974 542
1805 535
2796 889
2316 1596
1814 836
2322 1416
1822 509
2325 1608
1029 1587
2327 1577
3011 2253
2939 2078
1040 894
1838 843
2338 2310
2343 1584
2799 1407
1850 873
2610 1607
2611 1630
1113 660
1116 867
1862 611
1864 965
2352 1600
2800 2270
1140 909
2616 2034
2362 1614
2803 2523
1163 798
2806 2504
3081 2650
2364 1568
1889 925
1902 775
1904 944
1197 753
2370 2540
2631 2314
2810 2014
2633 2027
1211 773
1914 2513
0 3
967
1228 1221
26 140
1232 1228
2812 2987
1234 146
28 1232
1924 1981
1925 1980
32 1240
35 1241
1241 1242
1243 1983
2383 1969
36 165
42 156
1248 152
43 167
46 172
1928 1253
1250 1254
1929 1256
55 151
3021 3208
60 173
2646 2790
1931 1986
64 177
68 1260
66 179
2647 2518
1256 1251
1257 1261
74 176
1933 1264
75 1263
1934 1989
2648 2792
2387 2520
1261 1265
91 192
1263 1266
99 197
102 194
1935 1987
1267 1280
1269 1996
1937 799
2390 2528
1939 1273
113 203
1940 1997
117 204
119 1284
1941 1998
2392 2522
1942 1286
1275 205
2393 1999
2652 2793
2654 2633
2394 2523
2956 2989
1277 195
134 217
1945 2524
2395 2527
2814 2992
2817 2998
2396 2526
2819 2999
3023 3210
1949 2006
159 233
2397 2529
1286 234
1288 1288
1950 2532
2820 2996
2957 3130
170 238
171 242
2657 2797
1294 222
2398 2538
174 245
2659 2799
1957 2005
2399 2535
177 247
1298 1295
1958 2008
2958 3135
2401 2536
1960 2010
189 253
1962 2013
2822 3000
1965 1297
2959 3133
1310 2028
194 1307
1966 2029
1967 2011
202 258
1968 2018
1970 2014
204 807
1313 2034
2667 2537
2404 2035
1316 263
2669 2800
2824 3002
224 285
1324 1309
1979 1311
3025 3211
1326 1335
2670 2801
1329 1323
3111 3289
234 1324
1332 1314
2671 2803
1986 2041
2825 3006
2672 2804
1335 1319
2673 2805
2963 3131
1990 2547
1336 1349
2827 3007
1993 1348
3028 3217
247 275
1340 299
251 272
1996 2548
1999 2045
1997 1355
2000 2050
2674 2807
3029 3214
1342 1336
2676 2541
2004 2061
3177 3369
2677 2808
2678 2551
267 284
2832 3010
265 280
2408 2025
269 311
1345 2024
2409 2802
270 1457
277 317
2680 3136
283 292
2007 2027
2964 3003
2008 1365
2411 2545
1347 1352
1348 1313
2009 2032
2010 2810
2834 3004
1349 1354
293 221
3112 3291
2012 2822
2014 1315
2015 2058
2413 150
2016 2037
2685 2815
1352 262
1354 2064
2839 1780
2838 2814
2019 2558
314 1362
2021 2047
2841 2806
318 315
2417 2818
3031 3262
1357 1338
1360 279
2420 2555
1370 1382
2427 2812
1369 1346
2031 2053
3144 3330
2033 2055
2429 2549
1371 380
3037 3141
1373 2092
2039 2063
1375 1359
1377 389
3145 3331
2434 2553
366 381
2689 2816
2040 2075
368 1404
2435 2557
1379 400
371 307
374 1383
2693 2821
2440 2560
2969 3145
378 2598
2970 3023
1387 1424
2441 2574
2043 2068
2848 2831
2972 3220
1392 1372
394 340
393 1379
1393 1375
396 1373
3038 3219
1395 337
2850 2836
2049 2103
1396 368
404 412
2051 2081
2973 3150
2444 2083
2054 2581
2851 3018
2698 2828
415 1401
1402 1388
3166 3345
2699 757
422 362
424 369
2061 2109
427 385
1407 1402
2447 2589
1410 1407
2062 2114
430 377
1411 432
2853 3027
434 437
3090 3293
433 1438
2064 1405
2065 2101
2854 3029
436 1420
2066 2122
2700 2841
439 392
2448 2835
2701 2834
2856 3034
1419 2118
444 395
2449 2577
2450 2580
2451 2584
2069 2124
1420 1427
1421 1429
449 403
2070 2586
2704 2838
2071 2599
2857 3035
1424 1431
452 1437
2073 2108
1430 1454
2074 1474
2858 2837
3116 3334
2705 2845
458 458
1431 1433
2075 1446
2454 2591
1433 440
1432 2119
1434 1445
2859 3036
2080 2605
1438 2144
1435 1439
2860 2843
1436 1451
1442 1450
1444 428
465 420
2081 2137
467 417
2974 3153
1447 423
2082 2593
2083 2134
3040 3151
477 61
2864 3037
2084 2132
2706 2594
2456 2603
2085 2597
2865 900
2086 1496
483 452
2457 2602
2975 3038
484 442
3092 3222
485 2113
2458 2601
2089 2153
2090 2172
2867 3042
1455 462
2461 2615
2091 2139
2459 2604
2462 2612
3041 3227
2094 2174
2096 1509
2097 2176
501 1508
3159 3346
2101 1521
2463 2616
509 490
1460 456
2103 2614
2104 2138
515 1491
2105 2178
2976 3160
2978 3225
1462 1476
1464 1523
519 473
1463 1478
2709 2853
2106 2142
2977 3041
2980 3158
523 1495
524 507
1467 1500
1468 510
2464 2620
2982 3156
2107 2146
531 1503
2110 2624
3042 3224
2467 2856
1471 463
2111 2152
1474 1485
1472 1482
1475 1529
2468 2623
3043 3228
533 524
1477 2163
2469 2609
2711 2846
2983 3157
2112 2184
535 499
2113 2156
2712 2858
2114 2611
2116 2185
2117 2160
3173 3364
3094 3295
1486 1534
2118 2166
2713 2863
2119 2168
539 3082
540 469
541 457
542 505
2123 1487
1493 1490
2714 2852
1494 503
1496 1547
545 1489
546 1540
2125 1541
548 472
1498 532
2128 2196
2475 2630
1499 1501
2127 2182
2479 2197
2129 2191
2477 2193
3095 3267
2716 2857
1500 1504
2480 2613
2481 2860
2871 3048
2131 2173
1503 1549
2132 2169
2482 2634
2133 2198
560 1553
561 478
562 536
2135 2200
2717 3049
2984 3163
1508 1507
2485 2636
1509 1511
565 485
2718 2868
1511 1510
2719 2867
1512 1514
568 1522
1513 491
2986 3047
570 495
1515 2211
1516 1536
575 502
2138 2212
2491 3046
580 1561
1520 1519
1521 1569
3096 3230
1519 1554
2720 3044
1522 1546
584 506
587 567
3119 3296
1525 566
2492 2213
590 533
2721 2872
2722 3052
596 513
593 509
3044 3229
2494 2639
2141 1576
2142 2183
2496 2622
2497 2640
2724 2873
2872 3054
2874 2869
1532 1564
604 514
605 1530
2498 2220
1533 1579
2144 2223
606 581
2727 2859
2500 2870
3045 3164
614 521
2728 2861
1537 1575
616 1532
1538 2186
1542 1582
2147 2224
2730 2645
1541 1568
3120 3298
625 584
2987 523
2501 2638
2502 2635
1547 1584
1548 1545
2877 3167
2153 2231
3170 3365
1550 1588
629 534
2503 2647
2988 3166
632 539
633 543
1554 1593
3160 3337
2879 3055
2159 2226
2506 2875
2160 1591
1556 544
1557 2210
2504 2652
2162 1543
2164 2649
2163 2648
2165 2234
1559 1558
2881 3059
2732 2876
640 559
642 2318
2507 2650
1560 565
1561 1601
646 562
2508 2871
2883 3056
647 1567
2884 3057
1567 2239
2885 2881
1568 596
1569 2229
650 576
2510 2659
657 1291
660 1605
1573 1597
3161 3347
2733 2880
1575 605
2887 2878
2888 3063
2515 2662
3171 3360
2891 3065
1578 1609
1580 1608
1582 2251
2892 3066
1583 619
2518 2666
2520 2663
2176 2248
3099 3234
1590 1622
2990 3236
680 663
2895 3069
2178 2254
2734 2890
1594 1635
2179 2674
3051 3237
688 1639
2181 1649
2180 2259
691 679
3050 3172
695 680
1600 1647
1597 676
2735 2888
702 2995
2186 2264
1602 2266
708 688
2896 2894
1604 1658
1605 689
2738 2675
3172 3353
2897 3071
2527 2893
711 1672
3052 3239
712 1664
717 1674
2528 2678
1612 2272
1611 1676
1614 721
2529 2900
3122 3274
2189 2283
2531 2282
2530 2685
2740 2896
2898 3073
2899 3075
2191 2281
2743 2901
2900 3072
1620 1700
2532 2683
3053 3240
2192 2274
727 1686
1621 725
2533 2899
2199 2681
2745 2909
735 1692
2903 3077
737 763
2746 2902
2748 3081
2905 3079
2749 2904
1638 1702
2537 2917
2535 2687
2993 3275
1641 1714
1639 737
1640 1713
1642 1726
1643 1710
2202 2293
2752 2916
2751 2915
1647 1718
2753 2914
2203 2292
1650 1712
757 740
1654 1721
1655 1707
2208 2291
2210 2303
2539 2690
2209 2289
2211 2290
2212 2288
3124 3306
1657 1728
2544 2700
2543 2698
2994 3175
2758 2923
767 1727
768 775
773 1740
3125 3308
2218 2304
1665 1742
2219 2306
2908 3084
2221 2308
777 793
1668 1750
779 1747
2546 2704
2761 2926
2225 2311
2910 3087
1671 1732
785 1763
2226 2706
1672 1744
786 815
2762 2920
2229 2319
788 817
787 1766
792 816
2913 3088
794 1771
3126 3314
2765 2928
2230 2320
2554 2707
2764 2712
796 827
2552 786
3151 3339
798 818
2767 2932
1680 1765
800 824
2234 2324
2235 2323
2996 3092
1684 2316
2236 2330
2915 3091
2237 2325
812 1189
2556 2934
2240 2342
2557 2718
3128 3313
1689 1789
1690 1772
2241 2723
2243 2348
2560 2336
2999 3177
2559 2339
3101 3278
2997 3093
1695 861
2245 2345
1696 1798
2769 2936
2246 2350
2247 1776
819 853
3060 3182
2918 3095
2770 2940
2772 2939
1697 1800
824 863
3102 3279
2250 2353
2562 2721
826 1804
2773 2726
1703 1808
2563 2725
1711 2361
828 525
1707 2354
829 1817
2253 1802
1712 2358
1714 1815
3002 3184
1717 2370
836 881
835 877
2565 2733
2564 2729
2257 2363
838 1821
1722 2369
2921 3099
1721 1799
1723 2365
3003 3180
3103 3281
2922 3097
2778 2942
2259 1816
3062 3280
2261 2728
2262 2372
3005 3185
3004 3183
843 868
1728 1820
2779 3100
844 888
3130 3319
2266 2376
2267 2359
1729 1812
2566 2732
847 897
851 893
849 886
2568 2734
2923 3101
3131 3317
2782 2943
2781 2944
1734 2367
2571 2739
858 895
859 1826
2569 2378
3063 3187
2270 2375
2570 2738
861 883
2573 2740
2924 3104
1740 915
2574 2947
2575 2736
2274 2383
1743 1842
1745 920
2275 2381
874 926
3065 3244
2576 2743
3007 3192
878 865
883 936
2927 3105
884 939
3104 3320
3066 3245
2579 2741
887 914
2278 2390
2580 2747
889 834
1755 1854
1756 1855
2279 1865
1752 1843
1758 1850
3175 3367
896 950
901 929
2929 3109
2281 2394
903 1859
2584 2745
912 941
1768 959
3067 3246
2586 2750
2288 1861
3068 3249
922 969
3069 3247
2587 2392
1773 2403
1774 1868
3133 3321
2290 1867
2931 3110
925 1087
927 923
2295 2406
1778 1866
2932 3111
2791 2950
3162 3348
2303 2401
940 979
1782 981
941 983
1784 986
2305 1869
1791 2411
2309 2416
1793 963
1795 991
1794 2417
951 1883
953 961
3073 3195
950 974
955 993
1798 2412
958 999
1801 1882
968 1977
1806 2421
974 973
2794 2955
977 1876
2314 2425
2792 2953
2933 3112
982 1011
2795 2959
986 1891
2316 2427
987 1001
1811 2420
990 1014
993 1893
2318 2434
2317 2757
996 1017
1000 998
2936 3117
1815 1890
1816 1886
2797 2758
2597 2756
2322 1879
2324 2435
1823 1899
3009 3198
3074 3251
1020 1881
1023 1023
3134 3322
2326 2446
1825 2443
1827 2445
2327 2439
1828 1898
3011 3196
3106 3283
1830 995
2329 2431
1831 1034
2939 3200
3167 3356
1832 1889
1834 2452
2332 2449
1833 2454
2600 2760
1838 1043
2338 800
2602 2433
1053 1045
1055 2459
2603 2761
1841 2460
1064 1051
1065 1031
2605 2773
2342 2438
2343 990
1845 2455
2607 2776
1081 1035
2347 2463
1848 1063
1092 1064
1850 1069
1095 1050
1852 1073
1099 1071
2349 2466
1854 1911
1105 1008
2941 2770
1120 1103
2350 2468
1860 1918
2354 2474
2800 2966
2801 655
1139 1106
1137 2238
2615 2968
1144 1090
1148 2402
1154 1094
1879 1098
2946 3121
2804 2971
2948 3124
1883 2477
1218 2405
0 4
530
1 2
1228 2012
1232 2891
33 506
42 498
52 2057
50 512
3021 4124
2646 3744
3022 4121
69 547
2647 2056
1256 2861
1265 2880
1266 356
1935 3456
110 2164
1938 2897
1939 3405
120 2071
2392 3750
123 615
124 2756
1276 2902
2652 3880
2653 3889
2394 3469
1945 3426
2395 3728
2396 3468
2397 3476
1288 610
1950 3437
2821 3882
166 751
2661 3893
173 2193
2660 2974
2399 3491
1302 651
1301 2942
2401 3498
1960 3486
1962 3736
193 2145
2822 3998
1965 3028
1308 1500
2959 4070
196 670
2403 3745
1968 3435
2665 3752
1970 2988
206 2249
208 707
1318 2160
216 873
2669 3770
2824 3903
1322 623
1979 3443
1984 3000
230 738
234 2992
1332 3052
1986 3007
2672 3769
240 2373
2831 3919
2000 3496
257 1025
267 968
266 973
270 2217
2009 3876
2835 4130
308 710
2839 528
309 2083
1356 726
323 2799
322 66
1357 727
327 667
330 745
1363 2802
341 86
342 2976
348 3620
347 753
2427 3001
2031 3451
352 1023
2039 3495
1375 2963
363 517
2435 3497
371 2157
1380 2782
2440 3459
2042 2792
2847 3927
383 1974
1389 1841
2044 1771
397 2239
1395 832
1398 2263
407 1063
2053 3789
411 300
2699 3771
419 2198
2059 3053
1405 3008
1407 2247
1409 2256
1410 948
430 2245
1411 2378
1414 1207
2064 3489
2065 3059
2854 4004
2448 3181
441 2283
2701 3776
1418 3065
2449 3054
446 967
2071 3572
2857 4008
1425 2290
2073 3070
2075 3074
2454 3527
1433 1145
1432 3071
1434 3073
1439 2470
1442 3075
1444 987
472 1160
2082 3433
1450 4205
1449 2310
478 1345
2706 3539
2865 1660
482 448
1452 2321
2088 3587
3093 4131
1455 2315
2093 3079
523 1196
524 2466
1467 2434
2107 3090
3042 4087
1486 2487
2121 2384
545 2365
547 2375
550 2381
1497 2485
2133 3184
2134 3116
2135 3180
2484 3794
1509 2405
567 1114
2487 3571
1512 2402
1515 3193
1518 3188
3096 4150
2720 3582
1522 2397
584 1154
1524 2512
2492 4202
590 1115
1527 1158
594 2406
2142 2413
2725 3618
604 1118
1530 1177
2498 3204
609 687
1533 1241
2144 3213
2728 3584
1542 2523
3120 4191
2148 3215
625 1473
2150 2505
2151 3226
2877 1287
2153 3621
1552 784
3121 4190
638 1409
2165 3230
2881 3954
1566 1518
657 789
2888 4031
3171 4232
2890 3960
670 2465
1590 869
2734 2564
2525 1988
2184 1525
702 2136
705 650
1602 1163
2897 1197
3052 4133
1612 1683
3053 4104
740 877
2537 3764
1641 3023
2750 3909
1642 3043
2752 3908
2751 3904
1647 3020
2753 3833
1651 3002
2754 3010
2206 2621
2210 3050
2542 3250
2214 3037
2758 3772
1660 2629
2995 4080
1667 2587
2219 3294
777 1603
2225 3258
2226 3517
787 2294
1674 2301
1675 2299
797 2306
800 980
2232 3057
2234 3256
2235 3269
805 2582
2915 4038
2238 2082
1687 2586
1688 2599
2557 3633
1689 2606
1691 3259
2769 3929
2246 3273
2247 3550
820 1580
821 2576
1697 2609
824 2612
3102 4194
2250 3101
2249 3544
827 1541
826 1084
1701 2382
1703 2620
1710 2538
1707 3094
2252 2377
2251 3547
2775 3928
1712 3102
2255 2358
831 1050
1714 2613
833 1036
2256 3112
834 1556
1717 3239
836 2545
1719 2361
835 1073
2564 3570
2257 3098
1722 3279
2921 3963
1723 3105
2259 3095
2261 3555
2262 3113
3004 4182
2263 3629
1728 3099
2266 3242
846 2572
2566 3560
847 2562
2268 1083
2567 1751
851 1101
849 1075
2568 3564
852 1499
3132 4183
1733 2394
2781 3839
856 1497
2571 3834
859 1092
2569 3649
2270 3111
1737 3222
862 2578
1739 1108
863 2386
2924 3932
1740 2579
2574 3836
2274 3251
869 1510
1744 2590
1745 3241
2275 3120
877 2581
2576 3575
878 1521
883 1547
884 2549
3104 4199
887 1091
2278 3264
2581 3847
889 467
1755 3240
1754 1295
891 1559
894 3822
1758 2643
1757 2412
899 1617
896 1527
900 2398
2928 3956
1761 2554
1763 2471
1765 2474
2282 3265
1764 2430
911 1513
913 1136
912 1135
914 1570
1768 2646
3067 4093
916 2206
918 2432
2586 3645
2287 3174
917 1056
2288 2483
922 1548
920 2583
2290 3243
925 1514
2293 2491
2791 3800
1780 2589
2303 3143
940 1558
1782 2584
941 1542
943 2414
1784 2573
1785 2633
2305 3148
2306 3588
1791 3185
2309 3288
1795 2600
3073 3686
950 1174
2592 3804
1798 2442
956 2427
2312 3189
963 1259
969 1568
968 1413
970 1187
2794 3805
2314 3194
1807 3155
981 1202
2934 1480
985 1540
2796 3832
2316 3656
987 1226
1811 3152
990 1585
989 1211
2317 3190
998 1589
996 2640
1001 2591
1814 2615
2936 3942
1002 1218
1815 2610
1004 1219
1816 2530
1818 2598
2597 3599
1012 1620
1823 1596
1014 1224
3009 4022
1015 1221
2325 3306
1018 2451
1023 1627
1025 1653
1028 1242
2327 3277
1828 2508
1031 1236
1829 1594
1037 1276
1831 2639
2939 4044
1042 1579
1046 1647
1048 1313
1047 1299
1051 1298
2600 3606
1838 2635
2603 3604
1059 2630
1056 1329
1063 1270
1064 2650
2340 1483
1065 2461
1070 1326
1071 1327
2605 3664
2343 3287
1076 1306
1845 3630
2347 3319
1083 1333
1087 1344
1089 1337
1092 1642
1093 1330
1850 2651
1094 2569
1095 2480
1097 1364
1098 1607
3174 4055
1101 1355
1102 1325
2349 3320
1854 2654
2610 3661
1855 1609
1856 2647
1107 1354
1110 1360
2611 3671
1114 1347
2942 3947
1122 1352
1125 2097
2350 3314
1861 3310
1863 2681
1131 1406
2354 3312
2801 1430
1139 1643
1138 1641
2615 3815
2616 3849
1867 2666
1149 1442
1150 2683
1872 2679
1158 2690
2362 3317
2621 3683
2803 3835
1163 1574
2622 3669
1171 2704
1886 942
1887 1373
1174 1578
2364 3276
1888 2696
1899 2700
2628 2734
1190 3302
1189 1597
1194 1564
1904 2711
2370 3690
2631 3825
2371 3331
2951 3959
1910 2714
1207 1711
2810 3655
2633 3663
3083 4118
1218 1724
0 5
91
63 25
77 1742
90 1531
1946 2264
1288 1813
1950 2030
167 1543
169 255
2658 2697
2398 3083
1957 2209
193 1371
2822 3004
196 1366
198 1380
2666 2914
1971 2513
215 327
2669 2776
2824 2913
3111 2528
2672 2769
249 1488
1994 2922
1998 3015
257 612
2677 2794
267 650
2679 2800
281 1618
2411 2591
315 2951
2841 3095
353 644
1384 1346
2847 2918
2051 1565
1405 201
1414 731
2066 2504
2454 2709
2082 2469
2087 2703
2089 1383
521 1375
2983 1683
1494 287
2717 300
1515 2255
584 1330
1524 1701
1528 1986
2725 2804
1533 1676
2144 1698
2148 2256
1547 54
1550 748
1554 1694
2162 1253
2165 1702
646 1219
1569 1653
649 2805
2890 2808
1592 1996
1601 243
708 2380
2532 1505
2746 821
2219 2267
786 386
1694 563
825 2662
889 1386
2289 2093
1781 2522
939 1295
962 338
974 274
975 4
990 2687
997 66
3009 3050
1041 179
3014 2683
2357 3033
1163 308
1911 103
1212 669
1913 1021
0 6
72
2376 1065
2386 1963
2647 2145
2653 98
1945 2205
2814 1371
143 1530
1948 1977
169 242
184 561
196 1169
1984 1269
2670 79
257 362
268 2106
271 849
281 642
2834 2580
296 1412
2414 1382
1359 154
355 2679
363 739
1383 548
2847 2313
382 731
1387 2126
1390 679
389 461
2051 557
1401 1830
2057 1283
2066 1827
2452 740
1430 1115
1438 721
2082 2105
2706 2280
1460 2080
2983 1454
1524 714
589 274
3044 139
599 2129
2497 152
2144 1477
1542 682
2148 1470
2158 1479
1560 327
661 192
1586 138
707 2685
729 1109
753 621
769 198
793 1185
2919 2156
873 1917
889 2508
916 1744
2289 1250
1793 1245
975 65
2338 254
2347 1393
1093 122
1163 215
1174 219
2364 1716
1897 209
1189 220
0 7
65
169 353
196 1936
3026 395
2670 68
240 293
1994 1867
253 681
257 655
1345 1081
306 637
331 1548
341 870
2039 1524
2689 2088
1387 1837
2057 1171
1411 609
458 384
1431 90
466 282
2082 1817
2865 54
2087 1801
485 263
2095 314
502 408
1459 1377
2983 702
2712 1058
1491 1180
2128 1240
1524 717
589 1097
2144 1305
606 1047
2727 1100
2728 427
2148 1297
624 1949
1550 722
2158 1304
1554 1296
705 1001
1607 1487
2532 775
2744 1911
729 460
753 327
769 506
3058 457
3126 1030
2768 428
1694 801
868 1584
1779 545
1036 87
1041 40
2338 254
1093 941
1163 220
1886 91
2364 1020
1897 308
2369 936
2637 1664
0 8
80
2648 2543
1937 214
1946 2585
2397 2285
2820 2792
167 267
2957 2501
169 1013
1962 1580
192 1396
2822 2774
196 1400
2402 1873
200 226
208 453
1318 1409
214 442
2824 2672
2671 2495
2672 2524
240 2681
2673 2251
2677 2496
1343 1909
267 109
1359 2043
1365 344
352 1683
363 352
2969 889
2847 2675
2699 2569
448 1579
1428 1354
2454 2574
2082 2339
479 1307
2463 867
1480 1018
542 176
560 2037
565 1700
1524 137
590 2015
2141 1163
2144 1197
2148 1218
1556 730
1557 1571
2162 738
1560 1572
644 2762
650 734
653 929
661 1356
672 741
678 1695
2525 2450
708 2631
2194 2283
729 1585
753 401
2226 1847
3126 1384
1678 1308
800 1309
821 1051
1705 1684
873 1763
906 440
2289 2943
986 2897
990 2717
1025 584
1163 980
1174 974
2364 2176
1893 2830
1189 969
1200 1868
1 2
724
1187 1720
30 30
1196 123
1199 1108
2929 2766
1203 1765
1834 1731
61 79
64 65
69 215
1212 1139
1217 1162
2693 2669
1841 1757
88 155
2255 2143
96 1181
2257 2164
2259 1764
2258 2167
2534 2151
2881 2717
1237 1778
1854 1795
107 132
1856 1798
1859 1797
2537 2417
1242 154
2262 2147
1860 1802
1861 2140
1245 1772
1247 1248
2808 2658
1866 1776
2274 2183
144 23
1259 1094
1257 1075
151 298
1873 2148
2544 2187
2987 2824
1879 1830
171 1884
1274 1086
182 1211
183 349
1283 1227
190 223
189 1232
2701 2580
194 1235
1885 1839
1884 2196
1886 1099
2702 2587
196 1221
198 257
1289 329
207 245
205 234
211 378
1291 1308
216 1279
1295 1284
2283 2208
1294 264
3031 2861
230 386
2287 2111
2886 2727
2547 2178
1893 1728
2290 2211
2705 2451
2549 2456
236 63
239 342
237 57
238 275
240 40
1308 1295
246 60
248 412
1901 1254
2292 2221
251 420
252 64
2296 2217
2552 2461
2299 2181
262 439
1319 1347
266 1126
2303 2232
2555 2231
274 1079
1918 1818
2307 2230
2308 2123
2975 2804
2309 2245
1920 1849
2315 1889
2564 2466
285 481
286 2133
2561 2394
2318 1843
290 1642
2822 2656
292 388
1928 1892
1338 1069
2824 2592
297 41
1930 2448
2323 2115
1341 1128
300 501
2326 2252
2324 2250
305 500
1349 1344
1348 1332
2568 2393
1931 1722
1935 1719
309 1274
310 516
1357 1209
1359 1098
315 1327
2329 2108
1363 1097
2331 2257
317 454
2571 2481
1937 1723
2333 2389
2573 2390
331 539
336 1415
2713 2555
1947 2112
2339 2263
1369 1106
2577 2585
344 1174
2715 2557
2716 2558
348 550
2578 2668
351 1314
1373 139
1951 1763
1952 1919
353 1301
2893 42
1377 1733
1955 2458
1381 237
1380 1180
2345 2122
2830 2657
1958 1879
1957 1872
1385 1335
2347 2119
2833 2735
360 474
1962 1316
362 83
365 1363
366 88
1966 1744
2580 2484
2720 2562
1968 1748
371 380
374 1164
377 448
1973 2127
1974 1752
379 532
2357 2131
1393 1330
2722 2565
385 1334
1395 1333
1979 2234
2723 2465
2724 2563
387 1171
390 1318
391 1342
1981 1756
2999 2832
392 119
1404 1759
2358 2215
2834 2598
1405 1349
398 1179
399 1178
2725 2595
1407 1367
1408 1384
409 482
1984 1397
413 567
1411 1369
2726 2566
3029 2858
418 506
416 453
1415 1389
1985 2229
1417 433
422 491
1419 1392
2363 2405
2836 2681
429 494
1990 1871
2728 2601
431 1353
435 496
437 172
2585 2408
1995 1773
1423 1878
2729 2475
2588 2478
449 1387
1430 1391
1432 499
2367 2266
1433 191
2590 2469
2001 2365
458 1915
2002 2156
2003 1790
2005 1455
462 529
1437 1439
2006 1383
1438 179
464 205
2731 2477
468 537
3012 2846
470 502
474 584
2011 1906
2369 1922
1442 1787
1444 1411
1446 1379
479 541
1447 1395
2592 2255
1450 1381
2898 2783
3033 2863
1453 1435
3001 2836
2593 2422
2018 1894
1456 1426
490 250
2373 2279
491 565
2735 2571
492 540
493 512
2374 2497
2594 2603
498 718
2945 2737
1461 1239
501 1653
503 576
2377 2264
504 955
2595 2575
2378 2271
1465 1431
508 310
2026 1905
1472 647
2597 2425
3022 2847
511 1433
1476 635
2599 2613
1477 1425
2029 1814
3015 2844
1478 1256
2030 1447
1481 591
2741 2605
2031 1813
1482 1244
2381 2288
522 295
2382 1930
2032 1438
1490 1238
2745 2284
2744 2576
1491 588
528 291
536 1269
2600 2433
1496 1268
2746 2489
538 1267
1498 1266
1499 1251
1501 1429
541 609
2601 2435
2038 1446
2037 1445
2899 2738
542 592
2039 1823
2383 2188
554 1488
549 598
2748 2492
1505 617
1506 662
2604 2273
561 319
1510 1511
566 624
2385 1959
564 1451
2042 1457
2606 2496
2900 2722
568 613
570 735
2387 2190
569 632
576 633
575 630
577 626
579 1484
1515 692
2607 1969
585 769
583 706
2749 2625
586 619
587 644
1520 697
2388 1977
1519 1291
591 1462
1522 1459
2046 1940
1523 1528
2389 2276
2752 2500
1527 699
2391 2199
3002 2838
2393 1978
599 717
601 634
602 1531
603 657
2394 2282
2903 2740
2050 1524
1532 1534
1530 1304
2950 2742
2949 2774
2612 1946
2610 2445
2845 2620
608 668
2054 1948
2396 2283
3003 2837
609 1469
611 1479
2614 2308
1534 1958
612 680
2615 2303
616 1466
2616 2621
620 1475
2060 1952
1538 1530
2061 1480
622 670
2062 1971
624 771
2399 1983
2064 1955
627 676
2066 1949
1544 1540
1546 688
1548 1321
1550 1493
2070 1957
2952 2790
2400 2294
2756 2618
2071 1986
636 1315
1552 764
1553 1505
637 679
638 695
2981 2807
1554 1520
2401 2295
1555 696
1556 1501
2402 2293
1558 384
2403 2289
1559 1500
648 690
2954 2792
2073 1525
2074 1529
2953 2779
1563 1542
1564 1487
2406 2296
3017 2850
654 762
1566 1552
1572 723
1571 1515
1574 1527
659 829
2758 2510
660 1495
2620 2454
2077 1507
2081 1985
2078 2505
1576 725
2408 1975
2621 2506
1580 796
2410 2228
1583 732
2083 1874
2411 1973
2852 2593
3005 2827
1586 1537
1588 853
2416 2233
2417 1982
2624 2630
2907 2733
2992 2810
2086 1882
1590 733
691 2088
1592 1516
2089 744
2421 1984
2092 2472
2093 743
696 779
697 741
1595 1546
1597 805
2766 2624
700 497
2854 2676
2626 2524
1602 1374
707 776
2097 1378
2424 2473
2630 1307
736 517
2638 2474
2859 2695
751 813
1618 1060
755 535
1623 509
764 862
2640 2253
2862 2736
1629 1416
2913 2752
1645 1573
787 799
2449 2329
790 485
2117 1908
801 804
2451 1913
2453 2321
807 1278
813 884
2916 2751
2963 2798
1650 1591
2123 2007
2779 2640
1656 1616
1653 1555
1654 850
828 828
830 913
2649 2323
837 794
839 571
2651 2270
2650 2494
2652 2530
844 643
2459 2326
2129 1570
2917 2756
1661 611
1663 1595
1662 1590
2130 2310
2461 2328
2131 2024
2654 2534
870 1579
2655 2533
873 642
1669 1476
2136 2019
2135 1945
884 836
2866 2702
2785 2611
2921 2755
1673 707
2864 2637
1676 1577
2139 1571
896 664
1681 1578
2142 1596
2786 2616
903 845
1687 620
1690 1584
2466 2016
1693 1521
1697 1608
1695 858
2868 2703
2470 2504
927 873
1702 1598
2662 1648
3007 2826
937 867
2472 2520
2474 2333
2965 2746
2149 1607
2475 775
948 1566
1709 1624
949 916
2663 2515
2665 2523
2984 2794
1712 1600
1711 1568
2151 786
2154 2030
2156 1611
2159 2012
2477 578
1717 1610
1720 2039
2160 1617
975 826
1728 1614
2162 1997
2666 2517
2164 2037
986 909
989 800
2166 2014
1729 802
2167 1999
2869 2696
2168 1597
1730 1564
998 930
995 924
1732 2000
2967 2699
2924 2355
1735 811
1736 810
1003 861
2170 2005
2172 2002
1738 773
1006 935
1739 823
2173 2027
2481 2352
2670 2291
2968 2795
2483 2320
1741 835
1008 833
1742 889
1743 1581
1014 938
2175 2020
2486 2022
2178 2011
1747 780
2181 2013
2870 2650
2791 2529
2490 2540
1754 1576
2792 2634
3008 2841
2189 923
1041 2368
2969 2799
1042 832
2672 2633
2193 1063
2673 2526
2190 1627
1762 1003
2196 2073
1770 1808
2797 2639
2676 2049
1772 1641
2493 2325
1055 879
1060 985
2200 2023
2201 2052
2496 2349
1773 1656
2497 2331
2203 2026
2926 2754
2206 1672
2800 2532
2801 2642
2208 1657
2211 2070
1780 1890
1078 973
1781 2051
2500 2055
1079 999
2501 2032
1784 1660
1785 1647
1099 987
1788 1654
2219 1619
1103 980
1105 990
2802 47
1113 911
1112 866
2804 2643
1794 994
2680 2541
2507 2064
2225 1626
2509 2337
2227 1678
1795 1027
2681 2341
2682 2342
2874 2546
2230 1634
1132 898
1798 1661
2685 2548
2512 2047
1801 954
1800 952
2513 2361
2514 2547
2875 2708
1804 1028
2515 1031
2236 2082
1151 1011
1806 44
2516 2085
2237 2066
1809 1636
2517 2343
2238 1635
1159 831
1813 1667
1811 958
1812 961
1175 1709
1 3
400
1187 1251
3026 3357
1198 1257
1834 1273
1213 1994
1838 1403
81 1335
85 3150
2251 2527
1842 2525
1843 3032
1230 1274
1849 3303
2256 2793
2259 2533
2534 2992
2881 3209
1852 2532
108 1288
1856 1987
1859 2522
2536 2996
2538 2795
1861 2018
1245 1302
131 195
1249 1308
2808 3134
1866 1311
2275 2799
1261 1323
150 2008
1881 2005
2701 3000
1285 1629
1885 2535
1883 2010
2702 3130
201 557
1291 1297
1295 2041
2285 2523
1297 1319
2886 3217
233 467
2291 2537
1301 2174
2290 3002
2887 3227
237 46
1308 2050
242 481
1901 2810
251 251
2818 3158
2293 2616
2296 2804
259 2059
1319 1314
1320 2912
2303 2801
2301 2620
1912 1797
281 827
2976 3331
2315 2805
2559 3010
2316 2192
294 1513
1337 1562
2321 2636
2566 2867
2567 2868
1344 1554
2326 2808
305 292
1348 380
1931 1576
1934 1560
1351 1328
1935 2639
309 2695
316 389
315 405
1363 581
2331 2545
320 399
2573 2645
2826 3231
329 745
2713 3054
2339 2813
1948 1876
2577 2025
345 421
2716 3167
348 315
350 588
1952 2558
1377 1584
1381 1368
1387 1632
2348 2648
1962 2593
1966 2238
1968 1591
2896 2977
375 2685
2357 2650
1399 1605
2724 2881
387 596
1981 2236
398 605
399 1609
1406 1608
406 2635
1984 2605
2362 2889
2726 3066
419 1387
422 281
2363 2241
2586 2667
1995 2248
443 302
454 1639
1431 1624
2367 2615
2730 3069
2590 2560
2002 2254
2003 2263
2006 2127
471 1454
1442 676
1445 1374
1451 2074
1453 1523
1460 1435
2735 3071
492 1373
493 354
1464 1388
503 1401
2377 2828
2378 2571
2026 1405
511 1407
1477 2089
2029 2275
514 462
2030 2614
1480 2101
2741 3148
521 440
1484 1549
1483 2584
522 2710
2382 2838
1486 1409
524 406
2032 2580
532 507
535 2303
1494 1807
540 398
1500 729
1501 1427
2601 2904
2841 3163
2039 2278
2383 2687
552 1529
2748 3035
2842 3156
1505 1446
1508 753
1510 117
2041 2591
2043 2690
571 532
569 1450
2902 3269
575 428
2045 2126
1512 2194
1514 2182
2607 3049
1518 2200
586 417
1519 1743
1523 2198
2389 2594
2751 3047
1525 1500
2391 2925
2393 2872
599 1503
2754 3038
2903 3222
2050 2640
1532 2211
2950 3230
2949 3276
2612 3045
2610 2920
608 1471
1535 2143
619 1475
1538 2281
2061 2141
625 566
2399 2646
2066 2138
1544 2220
1548 2316
2756 3051
2071 1598
638 1483
2981 3313
2401 2846
1555 2163
648 2160
2954 3298
2953 124
651 1490
2406 2875
1566 2231
1572 2175
2075 1459
656 1489
657 1504
2758 3164
1575 2170
660 1494
2079 2169
664 621
665 478
1579 1601
669 1511
670 491
671 1514
1583 2229
2083 2344
2761 3166
2411 3044
673 2230
674 1586
2852 3180
680 1622
679 493
2416 2938
684 1527
2419 2878
685 2181
2086 2359
1590 2183
690 1641
2090 2859
2422 2861
696 1647
697 2186
701 1658
1601 416
2854 3244
1602 2736
703 2845
2628 2890
705 1555
713 2273
2424 1652
2425 3102
2429 2894
2432 3077
722 1077
723 1672
2911 826
725 928
2102 2671
1610 2401
2637 3112
2859 3240
1613 1869
744 935
750 379
1616 2412
2639 3175
1621 2410
1622 1857
764 1686
758 1880
1628 2320
2640 3196
760 977
1627 1861
1625 2752
2442 2955
1629 1879
2775 3110
1633 2311
1635 1866
775 1001
1636 2420
1640 2370
2643 1205
1642 1872
782 846
2116 2756
2776 3185
783 1007
1645 2324
784 1758
2778 3198
2449 2914
791 1825
1646 2376
2117 2450
2961 3250
2451 2962
802 939
803 1791
2119 2438
2454 2941
812 1748
2963 3308
2121 2760
1650 2323
2122 2757
2124 2761
2779 3091
826 1800
1655 2306
1653 2383
1654 2350
827 915
829 1855
830 793
2649 3099
837 2387
839 1898
838 1037
841 1815
2651 2966
2652 3098
843 1035
847 1870
2458 2768
2129 2390
854 981
1662 2378
858 1882
2130 2448
2461 2944
870 1868
2132 2465
2655 2943
2863 3201
872 1090
2656 655
2136 2416
2919 3281
2138 2968
2865 3187
2864 3195
1676 2439
2139 2763
891 959
1681 2449
2142 2427
903 1906
1690 990
913 1896
2467 2964
1695 1907
2868 3247
2146 2628
927 1069
935 1911
2473 2773
2149 2442
1707 1919
1708 2444
1709 2769
1714 2474
2153 2463
956 855
2154 2470
1720 2466
964 1107
967 912
2161 1913
1050 324
1771 2561
1079 1140
2223 1545
2224 2530
2508 1600
1132 2385
1134 1065
1 4
501
1822 2
10 104
18 1916
2241 3695
1187 1972
1189 2817
24 1843
25 1920
1193 2872
29 1811
30 1990
1196 1902
1198 2876
1828 3706
44 1854
1208 2809
53 1946
1834 3405
59 204
60 1835
64 2009
69 2136
1213 2897
71 285
76 1936
79 2788
83 350
81 1882
2250 3376
2693 3860
2251 3728
1220 484
1840 3380
1841 3426
2252 371
90 1929
92 151
1224 2814
1223 1842
1845 2792
1230 2926
1231 1860
95 1925
1232 2000
99 1935
2531 3702
102 344
103 394
2259 3732
1853 3438
2261 3708
108 610
109 187
1856 3456
1858 3403
115 2933
2537 3882
116 2086
2696 3868
121 219
2262 1956
2538 3889
1860 3750
2266 3723
125 623
1861 3435
126 461
1245 2925
1246 2016
1862 3447
131 2171
1248 3408
2539 3711
132 2951
2271 3745
1249 2939
2272 3753
2540 3710
133 446
1253 2889
1866 3443
139 428
2274 3468
141 275
1256 1944
144 493
1257 2896
2276 3714
148 1288
150 712
155 362
154 327
1871 3414
160 1886
1268 2332
2544 3893
2987 1115
1271 2119
167 30
1274 2899
1276 2989
2811 4059
2700 3987
177 2823
1280 2808
2280 490
2701 3998
192 1913
193 1809
1885 3491
1883 3486
198 690
1289 3000
204 3778
1291 3028
1295 3007
2283 3752
2285 3498
1888 3483
1296 3009
1891 3502
1895 2840
1894 1930
2290 3903
2705 3907
1305 2829
1304 1911
239 2023
1310 1933
244 1928
2292 3770
251 1008
1312 247
253 277
2296 3769
255 1941
258 3106
1319 3052
1909 3381
1910 2463
267 2966
269 2967
2555 3774
1914 1912
2556 3721
1322 2857
274 389
1918 3457
2557 3887
281 228
2559 3918
2314 3709
2564 3917
285 941
289 245
291 2158
1333 2970
294 2305
2824 4083
297 447
1341 2033
300 2320
2325 3775
1347 3421
2568 3877
1941 2924
1940 3422
2577 3731
2828 4013
344 608
348 1053
1373 2104
2893 4129
1381 667
2832 1733
2350 1377
1962 3433
2580 3927
1973 4001
379 978
1393 2101
380 2151
2723 3768
2998 4088
2834 4005
1407 726
1410 727
419 745
1986 3067
422 737
1988 1592
1419 4205
1989 1248
2728 3913
1992 3572
1423 2953
442 2416
1424 2977
450 753
2000 2145
462 2308
2839 4132
475 1159
2011 3497
1444 3030
481 2424
1451 2987
2370 3519
1459 917
491 994
493 2198
494 2263
2594 3781
498 1268
501 1651
1463 3493
502 1056
503 2270
2377 3900
2378 542
1465 3053
507 3025
2026 3489
1477 3033
513 2314
518 912
1480 3059
521 1145
526 3065
532 2466
1494 3169
540 1265
2037 3529
2748 4008
1505 3074
558 2479
2603 3788
2041 3527
570 2485
569 3075
575 987
1518 3180
1522 3536
1523 3184
2048 3571
1525 2434
2391 2295
2393 3610
602 3188
603 2397
2904 4131
1532 3193
2950 4150
2395 3576
2614 3611
1536 2707
615 2509
2615 3941
622 1025
624 1688
1544 3204
1550 2385
2070 3091
633 3213
2400 3565
638 2372
1555 3110
2402 3562
2954 4191
1561 2384
1566 3621
1567 3226
656 2365
1575 3119
664 2230
2408 3600
1577 3116
669 2405
671 2402
1583 3157
673 1261
674 2457
2414 3933
679 2396
2417 3814
2993 4213
1590 2413
2089 3138
2092 1243
2093 3584
1601 1492
2627 3960
1602 4019
2628 3631
2425 3939
718 1506
2429 3637
2911 4101
724 2399
2633 1375
2437 3641
735 1141
2995 4192
737 2464
1610 3143
2859 4104
1613 3148
744 1294
1614 2473
2440 3804
1618 3352
754 2414
2861 4036
1616 2442
1621 2439
1622 2477
764 1569
1624 1538
760 1188
1626 3174
1627 2483
1625 3155
766 2427
2442 3805
1630 2492
1633 3258
771 2587
774 1202
775 1226
1636 3152
1640 3239
2913 4160
2643 3942
2116 3599
2447 3810
1645 3256
784 2596
2646 3946
2778 4022
788 2585
2449 3833
793 2586
796 1448
795 1238
1646 3242
794 2451
1647 1539
798 1422
801 1541
802 2549
2454 3827
815 2628
2916 4194
2963 4196
2121 3606
1649 3268
2122 3190
821 1329
1652 1401
2124 3604
2779 4038
826 2609
1655 3294
1653 3251
1654 3273
827 2579
829 2571
2649 3963
2780 4097
837 2581
839 2508
841 2613
2652 3964
1658 2573
846 2480
847 3247
850 1354
2917 4198
2653 3968
854 2584
859 3254
863 2589
2461 3839
2131 3836
870 3272
2655 3967
2863 3947
2783 4025
872 1436
874 1381
876 2598
2136 3271
883 2633
2138 3815
884 2615
2865 4111
2864 3686
887 1516
1676 3277
891 2646
894 1579
899 1582
2142 3656
903 2636
1687 1488
1690 3287
2466 3837
1696 1605
2145 3235
922 2716
927 2651
935 2654
2472 3831
1704 2445
2473 3664
2149 3661
2475 3825
1707 3310
2663 3959
1714 3312
1711 3276
2151 1552
2154 3662
1717 3316
1720 3320
964 2674
2966 4102
967 2533
968 1535
2160 3849
2479 3817
975 1346
1727 3296
977 2676
2161 3671
2162 3643
989 1581
2166 3655
1729 2618
2167 3644
1730 3281
997 2696
1732 3280
1733 3326
1735 3290
1736 3289
1000 2632
1003 2663
2172 3286
1006 2700
1739 3297
2173 3663
2968 4197
2483 3838
1009 3303
1743 3300
1017 3853
2487 3657
2181 3658
2184 3311
1029 1706
2791 3969
2490 3690
1033 2658
1035 1661
2792 4043
1040 1784
1042 3056
2797 4046
1054 1673
1055 2687
1060 3368
1063 3371
2496 3855
2497 3852
2205 3328
1775 3323
1069 3787
2801 4050
1078 2736
1079 2758
2213 3672
1084 3069
2502 3627
1085 3341
1091 3334
1093 1712
2504 857
2219 3675
1111 1331
1792 3343
2226 3679
2682 3856
1134 1386
1136 1746
2512 3688
1801 1761
1147 2745
1806 2747
1152 1764
1167 10
1 5
109
1203 2596
58 2319
60 938
69 1762
2259 2621
1861 2865
1244 977
1245 2672
2273 985
1252 2670
1866 2863
140 378
1263 1366
1276 1486
174 755
1881 2551
183 1581
1283 2413
191 1969
2701 3004
1884 2760
198 1976
2284 2914
1891 2573
2886 1269
1301 272
2290 2913
1897 2582
251 678
2296 2769
1912 2158
2307 2774
1325 1674
2564 2923
285 554
1327 1566
2326 2786
1934 1197
2332 2800
317 1471
2571 2796
1941 2688
326 1738
339 2780
2893 3096
1376 2002
1955 2110
2580 2918
2896 3068
385 537
388 1178
406 2121
2586 2679
1434 588
459 1444
1443 683
482 1628
1450 2584
504 692
2378 318
516 641
1506 1443
2041 2709
1523 2248
2390 3024
2754 3040
1532 2255
2054 2462
609 559
611 1550
1536 2250
615 720
625 1700
2063 874
1541 564
629 1547
645 2496
2072 1568
653 1693
667 38
673 1363
676 942
1588 940
1589 1394
1592 2680
2627 2808
2096 42
712 1219
2861 1319
814 765
817 3
836 859
839 268
2475 2942
1729 1163
2168 304
1735 1165
1000 1166
1739 1169
2481 2375
2669 346
2483 2369
1744 1172
1018 1237
2178 1907
1055 1170
2505 204
2508 2175
1159 2930
1 6
80
133 1569
1263 1169
1873 1973
191 2032
1289 1269
217 2095
1306 154
252 50
2306 826
285 1416
292 1785
2571 2334
339 2401
2893 2580
2580 2313
2724 28
442 679
1443 681
501 739
2378 409
516 726
2041 2108
585 754
2389 2280
2754 2562
1532 1466
2054 2086
611 327
624 714
1541 564
629 1364
668 811
1588 820
1589 1243
700 526
2096 422
2426 2301
748 1240
757 2649
798 43
815 728
816 65
2130 254
2659 2643
2663 2372
1711 1716
2151 84
2162 1643
2666 2232
989 153
1729 1096
2167 1082
2168 382
997 1478
1732 1086
1735 159
1003 272
2480 1650
1739 1106
2483 2031
1743 1111
1018 1401
1031 1626
1033 2506
1755 1629
1058 1263
2493 2020
1066 93
2207 2029
1098 1036
1104 73
1106 34
1111 98
1791 1860
1114 1054
1121 1683
1123 78
1132 25
1134 118
2516 839
1 7
78
1855 490
1244 835
1866 1925
1283 1751
189 637
217 1555
1301 313
252 63
1315 244
1325 1577
288 1975
2571 2008
339 1636
356 775
2580 1987
1978 444
2724 21
406 513
458 1408
1459 515
508 880
1475 201
2041 1565
568 420
2843 457
592 308
1532 1294
2052 1791
611 298
625 716
1542 801
629 601
1550 967
2074 1432
652 1296
1589 198
1601 1087
2628 1978
2767 1860
2096 529
2426 1586
719 1195
2637 2118
1627 7
1686 1729
2663 1708
1711 1020
2151 91
2162 1410
2166 1024
1729 126
2168 447
1732 951
1735 129
1736 128
1000 137
1003 1473
2172 954
2483 1412
1009 153
2178 959
1033 124
1036 930
1051 51
2200 1713
1780 121
1786 931
2504 477
1098 5
1106 20
1110 925
1114 924
1121 1052
1123 922
1132 12
1130 932
1134 940
1154 1065
1 8
60
1823 1082
1856 2534
2536 2792
1866 2611
140 387
151 1217
1284 2397
2701 2774
1884 2284
208 2069
1290 320
1301 2735
2290 2672
2549 2501
238 1641
1309 754
1315 2319
2296 2524
1914 2220
271 875
2315 2251
301 2730
2326 2502
1931 1163
2328 450
2571 2497
329 1523
339 1108
357 1319
2580 2675
1413 2356
1988 544
2010 1491
2369 880
2014 930
1491 2716
2041 2341
1532 1215
611 1572
615 162
624 137
2401 1628
664 1328
2763 1502
2130 746
2864 302
1711 2176
956 968
1727 1731
1003 503
2173 2125
2669 950
1016 1895
1018 849
1027 2535
2211 1592
1781 2122
2504 1038
2506 1760
1163 1244
2 3
220
1079 3097
1722 1576
2655 3255
1097 581
1098 1581
1102 188
39 531
2390 2645
2555 3054
1121 585
48 586
1731 1273
1733 1584
2558 3167
1737 1945
2391 1590
2120 2648
2122 2652
1140 1994
2714 3169
1150 598
1744 2238
2395 2149
2563 2881
1748 1591
111 1671
129 2744
1178 1609
1179 605
2568 2884
2140 2018
2144 2793
1772 1302
1188 1806
2569 2668
1195 652
1198 653
1196 1610
178 664
1776 1311
2151 2992
1778 2214
2150 2672
184 675
2414 2661
2416 2891
2156 2254
2418 2996
2159 2797
1785 1649
2658 3134
1794 1659
2717 3209
2570 3133
218 450
1218 707
2421 2676
1225 1189
1227 421
2571 3071
232 1491
2572 2355
253 2130
2821 3289
264 2890
266 1077
2425 2902
283 1014
282 725
301 380
303 740
2435 2904
309 2574
2188 2687
2189 2288
2436 2698
2577 348
2439 2917
338 654
1284 2041
1832 1726
2726 3216
1837 2303
358 1744
2197 293
2199 2925
2585 842
2445 2920
1841 2397
379 1295
2211 3002
389 885
391 824
1321 2316
401 256
1326 1768
1327 405
413 3022
2779 124
428 3261
1347 1314
437 1783
2223 452
1877 2158
1358 1424
451 1891
2233 2938
1360 2422
2593 3180
1882 2359
467 868
470 307
1370 1338
1374 2736
2676 3244
2473 364
2249 2542
1380 1374
500 2031
2474 3113
2251 632
1893 1828
2252 2808
2482 574
523 963
1905 1405
540 1373
1908 2450
542 987
1911 2545
1416 1889
553 1396
2263 2813
2266 2615
571 524
1919 2558
2270 1573
586 501
1435 1523
597 1894
1440 1433
1929 2579
602 2105
1449 2155
617 1446
2608 3157
630 428
632 1450
645 530
660 2462
2740 3222
2809 3295
668 1471
1480 2141
2613 3063
1487 1487
695 1483
1495 1494
2295 2846
1501 2168
717 1503
723 2175
1968 1423
1969 3049
1511 2196
1516 2622
1976 2854
736 532
733 2183
741 2186
745 1579
1528 2198
1534 2211
2310 2448
2512 3166
2312 2455
1540 2220
772 566
778 1366
779 2605
1995 3173
791 2234
1555 2383
1565 1809
2518 1362
2002 2433
1570 2390
1569 2965
1573 2324
2323 3099
836 1888
2695 3240
1589 2442
843 1043
845 991
856 2369
858 1907
2637 3195
2020 2174
862 1686
861 728
860 1057
1596 2427
2328 1388
1602 1850
2798 3308
2030 2780
1613 986
1616 2307
913 793
917 1851
2042 2747
1637 1913
2538 701
2074 1570
1683 466
2078 3200
2081 734
1691 2064
1053 350
2 4
374
1079 389
1083 1997
1086 2899
1720 2861
21 480
22 414
23 493
27 504
1099 334
30 1990
1102 2905
1107 1965
38 520
1116 1999
1117 361
41 447
2114 2888
47 462
2115 3412
1729 3386
54 2916
1731 3405
1125 2914
1128 2033
62 454
2712 4065
65 2009
75 565
2393 3877
80 2088
2818 4202
1140 2897
1148 3352
2126 3420
1151 2018
2127 4001
1153 2023
1746 2898
95 2105
1159 2039
97 544
1163 2031
2396 3730
1166 2047
1754 2908
1168 2058
2399 3725
2401 3735
121 2835
1758 3427
1174 608
133 2910
145 543
147 76
149 551
1763 2110
2405 1312
1180 2943
151 56
155 2071
1184 2082
2140 3435
1772 2925
1191 2081
1192 2108
2147 3736
1198 40
1197 2109
1775 2952
1776 3443
2150 3453
184 672
2417 3882
1782 3458
199 252
1785 2950
202 698
1210 2156
1212 2150
216 655
2421 3754
1224 2957
224 2145
1225 2982
1229 2278
237 667
240 938
242 2160
1798 3456
2423 3891
2171 3477
1804 2997
264 2564
2175 3755
1811 2974
273 2171
275 1469
2178 3218
280 713
1248 3029
1250 2176
1818 3457
1822 3016
1271 2219
2722 3302
2187 3893
1825 3476
308 2992
1278 2193
2824 4219
1279 3483
328 2250
1830 3481
2439 3764
1284 3007
2580 3998
340 877
341 898
1832 3043
342 789
2726 4076
345 2217
348 2233
350 1041
2196 3487
1837 3050
1293 2271
1839 3491
363 925
2585 3731
369 390
2208 3761
2728 4129
1308 3028
387 858
2211 3903
386 2249
1317 3434
398 3472
2451 3907
1322 2301
410 2306
1333 593
1334 3445
420 2262
2217 3769
2591 4082
425 928
2221 3770
1347 3052
1349 2946
2672 116
2231 3774
1877 3505
2229 3450
2461 2207
1360 3593
1878 2953
462 3031
2466 3917
2465 3768
2464 3176
1884 3485
1367 726
488 3748
2677 1715
1890 2190
2601 3913
500 2319
2251 3775
1893 3001
1894 1302
1392 4205
1391 2996
512 2198
513 644
2484 3927
532 978
1905 3489
1906 3497
539 1026
1910 2327
551 685
2264 3900
565 994
597 1612
1449 3129
618 2205
630 987
629 2309
1459 3536
1940 3539
1462 2310
651 2321
657 2397
2740 4141
2283 3577
2742 4150
678 2143
1483 3299
688 2067
1487 3092
2289 4125
2294 3565
695 2372
696 3110
1495 714
1498 3165
709 2103
713 2392
718 1268
717 2437
732 3597
1515 1264
1975 3600
2304 3179
735 2485
733 2413
741 3134
751 1345
2308 3611
1528 3184
1982 3814
1530 2505
1531 3188
1534 3193
2790 4190
767 2558
2312 3630
1540 3204
772 1580
1545 3215
780 2768
2314 3825
2792 4191
791 3230
1555 3251
1997 3643
1556 3262
794 2581
1999 3644
798 1574
800 1581
1562 3248
1564 3281
2000 3280
2630 3954
802 2618
804 1541
1568 3276
2520 3831
2001 2350
811 3290
812 2582
2002 3286
810 3289
815 1429
2521 634
1570 3264
2320 3838
2795 4197
1572 3640
1573 3256
823 3297
2523 3835
2752 4160
2694 4110
2007 3827
2008 2627
1578 3282
1579 3272
1581 3300
2323 3963
836 2615
2011 3657
838 3759
2014 3655
2013 3658
2525 3960
2016 3837
2695 4104
2633 4042
1586 3840
1587 1243
1589 3654
843 1568
2528 4041
2634 4043
845 2636
850 3273
849 1648
1590 3649
2529 3969
854 532
1592 2705
856 3279
2530 3964
858 2610
857 2660
2637 3686
862 1569
861 2189
860 1359
865 1625
1595 3650
1596 3656
2640 4038
2639 4046
873 2651
2328 3839
2026 3666
2329 3833
1600 3313
2531 3973
879 2687
1602 2643
2027 403
883 2624
1606 2668
1607 3661
2029 3309
886 1679
2331 3852
2798 4196
2533 3967
2642 4050
2030 3662
1610 3316
898 187
1613 2678
1614 3317
1616 3295
904 3315
907 2639
909 1554
913 1603
2034 3849
1619 3675
2702 4112
925 3318
2039 3320
2339 3845
928 3326
931 2696
2041 3847
1626 3354
1625 3858
935 2700
1630 3671
1632 1500
1634 3359
945 2712
954 1761
961 2749
2349 3855
965 2728
2051 3682
973 2736
2758 943
2056 3346
978 1727
985 3368
2539 3681
989 4213
2540 3690
2354 1966
2355 3691
1004 2435
1018 944
2543 1506
2076 2142
2078 4044
1045 2521
1046 3615
2 5
117
28 2348
36 1380
54 1719
56 2084
1740 1833
127 600
144 188
2140 2865
1772 2672
165 752
1776 2863
1204 2394
2158 2697
210 1995
2570 2981
224 1371
1227 2413
1229 1979
232 1976
235 357
245 2407
2821 2528
269 396
1243 2765
1812 2744
1248 2209
312 2133
1829 501
326 89
1279 2735
2580 3004
2727 1269
349 1581
348 2120
2196 2760
2585 3040
2209 2914
2728 3096
1848 2704
1311 909
2211 2913
398 18
1326 126
414 346
2217 2769
425 1987
2221 2776
2459 2911
2231 2778
2230 2774
451 1211
454 1471
462 2628
2595 3020
2466 2923
2464 235
2247 1946
500 1656
1381 2584
2251 2777
2252 2786
2478 2176
2482 2795
2484 2918
589 1559
592 3100
662 1443
1948 2462
2838 2453
725 1353
1976 2016
735 1669
1528 2248
1534 2255
1537 2111
772 1700
1545 2256
1547 2257
2792 3106
791 1702
802 1163
808 1309
811 1165
818 815
823 1169
1582 1172
2011 1907
840 17
2013 1909
2525 2808
849 1162
853 730
854 10
879 1170
890 3045
911 1365
920 2542
2645 3080
957 1253
2349 2768
970 1015
2536 3068
2352 2375
2059 1572
2539 2754
2356 2946
2366 483
1681 1285
2076 187
1033 734
2081 1438
2378 1476
1692 1413
2552 139
1056 352
1057 326
1061 458
2 6
78
1733 1654
64 50
2397 2189
144 66
165 767
1776 2374
1211 2025
222 1644
232 1682
1233 1169
309 225
326 2500
327 1250
329 1269
1280 2095
2193 680
1285 673
345 848
2585 2566
1848 2270
405 1785
406 1311
408 595
410 1925
2591 2513
436 1312
1875 2371
1357 1744
462 1553
469 1293
1371 1465
500 1432
2482 2333
2484 2313
573 1159
595 128
603 221
1932 473
1472 1975
2838 1761
725 1226
1976 1198
1522 889
1528 1927
1534 1466
1538 1467
769 754
1989 333
771 714
1545 1470
2314 1143
1547 1479
791 1480
1997 1643
2517 2232
798 215
800 153
2000 1086
802 1096
1568 1716
2520 1462
811 159
2002 1650
2320 2031
823 1106
1581 1111
2011 1662
2013 1670
847 107
2325 2020
853 820
2642 40
893 1051
896 122
2056 265
1020 739
2070 1827
2378 470
2 7
67
1733 1029
64 63
1771 1726
157 334
165 272
1776 1925
1202 53
1227 1751
232 1051
245 1463
2432 1866
1274 2078
1829 1224
1280 1555
345 821
2585 2156
366 248
2728 2254
1848 1958
406 541
410 946
416 469
462 1386
500 1283
1893 1433
2482 2007
2484 1987
1416 1908
1493 967
1507 1519
725 433
1976 1108
1528 1647
1529 1432
1534 1294
2511 880
1542 676
772 716
1545 1297
1548 1521
786 91
1997 1410
798 220
2000 951
802 126
1568 1020
811 129
2002 954
810 128
2320 1412
2011 959
847 80
2021 599
861 1473
2023 1713
893 40
896 941
905 84
2756 2228
918 1239
956 1344
999 2014
1006 861
2370 176
2074 189
1700 2183
1061 570
2 8
84
1713 869
16 276
1093 2345
1104 471
2766 2920
78 1158
90 2127
1153 144
1747 1182
2767 176
2135 1240
1181 2302
1777 2610
182 1203
2418 2792
2570 2797
224 1397
1228 2393
1229 1971
1798 2534
1234 777
254 453
1806 896
269 1694
312 2102
1275 42
1279 2315
2580 2774
2587 2768
1309 1712
2211 2672
406 1354
407 418
2456 2501
1877 1596
454 464
481 1260
1892 2258
2678 468
500 1167
499 1114
2251 2506
2679 1770
2481 2497
2484 2675
551 299
565 2166
1431 1455
592 717
613 463
2274 2365
1939 2338
659 575
1959 1936
693 1070
1528 1896
1982 2706
1534 1215
771 137
774 2223
798 980
805 1361
1568 2176
2021 698
861 503
2027 2125
1616 2061
957 389
2049 2595
2051 2122
2053 829
2056 802
1649 790
988 1893
994 1982
2356 2643
1009 406
1676 1679
2074 726
1681 1963
1052 1706
1053 669
2383 1969
1061 391
3 4
387
1 1
16 1820
1131 2804
1134 1881
35 61
1943 1666
1945 1847
53 1917
55 2979
1950 3387
64 1839
1166 2810
1172 1846
1170 2248
1173 1901
76 1879
1953 2828
1183 1932
107 398
1204 511
1205 2886
1206 2856
1207 2852
3258 4172
1208 2881
1971 2873
2507 3411
1228 2891
1979 1721
2790 3744
3208 4124
156 498
3287 4176
1251 2861
1257 2876
2518 2056
1987 3456
2522 3750
1994 2897
1273 3405
2523 3469
2793 3880
2524 3426
2526 3468
2527 3728
2796 3875
2529 3476
1288 610
2532 2933
2533 3732
2997 3882
1295 3029
2535 3491
2536 3498
2010 3486
1297 3028
3000 3998
2013 3736
3133 4070
2014 2988
2018 3435
2539 761
2800 3770
1302 2925
3002 3903
1303 3060
251 1008
1308 2939
2033 2985
2032 3876
1311 3443
1314 3052
2804 3769
1316 3009
1324 2992
2041 3007
1330 2957
273 716
1331 571
1332 2229
1334 2305
3216 4076
1338 727
3011 3919
281 737
284 961
2050 3496
1345 900
2549 3013
1359 2963
2063 3495
2556 3036
307 2157
2557 3497
1368 667
2825 3899
326 2978
337 832
1387 745
1401 2270
1402 2247
2089 3033
1407 948
1411 3085
1415 997
2834 3776
2577 3054
3035 4008
2591 3527
2119 3071
1442 3072
1446 3074
1445 3073
428 987
1450 3075
2593 3433
2594 3539
432 1206
1457 2217
3223 4131
3152 855
2599 3572
2142 3079
2143 3965
462 2315
2152 1095
3224 4087
1483 2372
2158 2313
2609 3562
2163 3450
471 2425
1500 2434
2170 3119
1503 2437
489 1245
1511 2405
1513 2472
2617 3163
2619 3160
507 2466
506 1154
3044 3582
509 2395
2183 2413
514 1118
1530 2410
2186 3134
1534 2487
2198 3184
3268 4152
2200 3180
2201 3182
2211 3193
2213 4202
575 2018
2218 3200
2220 3204
2222 3212
1579 2506
1582 2523
584 1473
2229 3157
3167 1242
1586 2457
2231 3621
589 836
592 3627
1593 3168
2878 3812
2234 3230
3059 3954
3063 4031
2244 3063
3236 4023
630 2082
631 688
646 2081
653 40
669 2575
2672 3453
672 680
674 671
1648 2950
1650 2961
1651 2318
697 2037
2677 2982
2676 3754
2272 1493
3240 4104
1686 1569
2283 3015
2914 3833
1715 3026
1714 3023
2917 3764
2915 3904
1726 3043
2297 3499
1731 2628
1737 3037
1739 2555
2303 3050
2306 3294
2924 3773
2311 3258
800 949
1758 2596
1763 1526
827 228
1765 3047
2323 3269
2324 3256
834 467
836 2576
3091 4038
842 3131
2334 972
2718 3633
1794 2349
851 2343
2722 3550
2936 3929
854 1580
2350 3273
3279 4194
1800 2609
864 1533
2353 3101
2724 3547
867 2607
2354 3094
1804 1084
1807 2619
2941 3827
2358 3102
2362 3266
2360 2538
1815 2613
872 1457
1814 1499
2363 3098
3098 3964
1816 3095
877 1073
2365 3105
3183 4182
2728 3555
2366 1556
2369 3279
1820 3099
2370 3239
3099 3963
2372 3113
1822 2559
2732 3560
886 1075
2734 3564
888 1592
3317 4184
893 1101
2375 3111
2376 3242
1826 1092
898 2563
1827 3292
1830 3217
3187 4111
2944 3839
2378 3649
2739 3834
3104 3932
1832 2578
905 2574
910 1078
2381 3120
2947 3836
914 1091
915 2579
1840 2551
2743 3575
2383 3251
1841 3130
920 3241
925 1117
928 2398
2948 3847
3320 4199
2388 2412
1846 2565
1847 2473
935 1294
939 2549
940 1134
1850 2643
1855 2571
946 1139
1854 3240
948 2570
2393 3177
950 1527
1857 2477
3109 3957
3246 4093
952 3055
1861 2483
959 2646
2750 3645
964 2655
968 2583
966 1166
969 1548
2950 3800
2401 3143
1867 3243
1870 3247
974 1174
1871 3222
1869 3148
979 1558
982 2589
981 2584
2410 2439
2411 3185
2952 3966
2412 2442
986 2573
2416 3271
3194 4103
3195 3686
2955 3805
995 2594
998 1204
993 2588
2752 3155
2420 3152
1882 2598
1001 1226
2757 3190
2756 3599
2960 3832
1010 1233
1014 1585
3198 4022
1017 2602
2432 3198
2433 3286
1898 2508
1023 1627
1027 1313
1026 1300
1901 2657
2439 3277
2760 3606
1906 2636
1032 1594
3200 4044
2761 3604
2442 3654
1031 2461
1034 2639
1040 1297
1038 1289
1044 2637
1046 1613
1043 2635
2773 3664
1051 2650
2455 3630
1054 1626
1055 1344
1907 3304
1060 1237
2463 3319
3201 3947
1069 2651
1071 1608
2466 3320
1911 2654
1913 2729
2969 3816
2968 3815
1919 3310
2468 3314
1920 1454
1101 2209
3 5
74
1116 1155
8 1144
3258 2617
2987 1333
2791 2543
1262 1616
2525 2264
1292 2685
2798 2697
2005 2551
2009 2745
2015 2513
2018 2865
1300 1446
3002 2913
251 678
2024 3013
2804 2769
273 348
278 42
3216 3091
279 2421
2808 2794
2544 2563
3011 2926
284 554
2081 1565
376 92
386 379
2835 305
2111 1678
2591 2709
2839 1572
421 2413
2593 2469
2596 1517
1468 364
2599 564
2142 2462
467 608
2166 1340
471 1628
1503 62
3157 1683
1509 1286
3346 3008
2617 2233
498 2442
507 1663
2196 2378
539 177
3050 2894
562 1219
2223 1698
1584 54
2230 1363
1594 1693
1610 769
638 2335
1711 1137
772 1245
1723 232
1731 764
2306 2267
2925 3025
809 807
830 25
1794 122
2360 2352
922 2022
973 274
993 67
3198 3050
2430 2840
3 6
53
1140 2449
76 1126
1205 1591
1231 2584
2518 1858
2992 1371
1292 490
1299 799
1316 1808
1345 1325
3015 2337
2072 1794
1422 438
2835 378
2591 2108
2593 2105
1454 697
2594 2280
2600 563
2142 2086
2163 1778
1503 158
3157 1454
3229 139
519 185
2861 1216
2640 152
2223 1477
2879 2051
3360 1259
643 2401
635 1044
664 61
669 1491
687 2238
772 1114
1739 221
2702 1391
1754 1298
1760 592
2319 280
830 764
1780 9
879 1337
901 263
1845 44
3192 1965
957 298
3195 1697
1000 62
1077 376
1078 401
2969 1442
3 7
37
132 781
2791 1595
2024 1617
2542 1434
278 176
3015 2101
2570 1024
2835 444
2109 1599
421 1751
2593 1817
432 609
2142 1801
2163 1545
2166 405
3157 702
2858 1058
2859 1100
2861 427
529 268
2196 1240
1556 147
569 861
2223 1305
3061 291
643 1636
2257 299
2270 1911
3075 975
737 121
2306 1311
818 1424
3097 985
900 54
2385 16
998 921
1020 95
3 8
75
3207 1934
2988 1723
2792 2543
2529 2285
3130 2768
2996 2792
2797 2700
3000 2774
3133 2797
244 1948
2018 2603
3002 2672
2023 2613
2803 2495
2804 2524
2805 2251
1330 2373
1331 644
2808 2496
2544 1706
2048 1983
3010 2505
283 2626
284 109
2819 2673
2567 765
348 1612
408 2121
421 2398
2128 545
2593 2339
1468 906
2158 1596
2166 592
3157 1299
485 1993
489 229
2616 867
2617 1901
1517 1264
498 333
2854 1466
2182 2563
2195 1897
529 76
539 727
544 730
555 2404
2222 1196
1579 605
2226 1128
589 885
2649 373
1610 77
670 677
1643 690
713 1966
718 1662
2277 274
1685 1620
752 2127
2302 1457
1739 1353
799 1553
822 2525
830 957
899 532
908 1104
2381 751
922 2814
937 2588
994 2226
1877 1066
2752 807
1891 2897
4 5
171
1819 1830
2847 1124
300 928
420 1828
3427 2264
2909 2392
4129 3096
542 1283
3730 1089
2919 844
2070 1495
3732 2606
571 315
2087 1988
3435 2865
3438 2693
3439 2670
595 1955
604 1243
3736 2870
609 223
2933 2030
3443 2863
624 1950
2115 2415
637 1255
646 523
2947 447
2137 1969
2957 2430
665 1264
2145 1371
2144 1921
670 1366
678 1922
2160 255
2973 395
3465 1314
2178 2815
2184 2837
2985 2099
751 1544
778 47
781 1556
789 357
3484 2734
2211 1567
793 533
2215 535
3007 2511
3998 3004
3487 2760
4076 3091
3491 2560
2233 2120
3015 3088
826 547
3762 2914
3028 2566
3029 2209
3031 2259
3903 2913
858 597
2249 1609
857 2066
861 576
3907 2917
865 1506
871 432
3502 2573
873 592
875 1594
904 614
910 657
3770 2776
3769 2769
911 42
918 467
3051 1259
922 627
2268 1635
4083 3051
937 1630
3775 2777
3777 2783
947 493
950 640
961 554
3917 2923
3919 2795
968 663
973 684
2304 1654
989 234
4013 3009
2319 1656
1008 678
2341 1521
1018 2885
1024 644
1025 609
1034 400
3927 2918
1054 701
1058 705
4087 3040
3102 708
2373 2714
1107 301
1111 317
2406 472
2409 1677
1160 1441
2425 1628
1191 221
1208 730
2448 1590
1245 1655
3161 1705
3164 2232
3166 2227
2467 1662
1281 770
3169 2231
2478 53
2479 1666
2482 722
2485 1669
3183 2244
3184 2248
2505 2015
3193 2255
2506 1676
3195 2250
2509 720
4232 1443
2513 1700
4212 2700
3213 1698
3215 2256
2524 1695
4191 3106
3618 2804
1473 744
3621 2262
2539 2954
3227 2265
3230 1702
1493 588
1496 95
3954 2939
1508 2142
3960 2808
4106 3074
2608 527
3833 2601
2618 1163
2628 764
3290 1165
2632 1166
3294 2267
3299 1911
3297 1169
3301 1172
2642 1175
3657 1907
1628 856
2671 14
2688 1171
2709 530
1763 61
4 6
100
1855 948
145 865
2821 479
2872 1507
2019 2457
3426 2205
528 9
531 826
4129 2580
571 1212
572 1080
595 1649
604 1654
3443 2374
2936 1895
629 164
637 172
670 1148
2160 242
2985 1223
760 56
789 1238
2215 1370
3009 1808
857 1776
865 464
900 1325
2260 414
918 488
4083 2512
3919 2333
973 636
3532 1742
2319 1432
2340 1447
1024 625
3927 2313
1047 76
3554 1246
4087 2562
2372 1279
2373 1741
3573 563
1111 408
3136 2129
2424 608
1181 1192
2438 337
2448 2186
3940 1162
3159 1437
3166 1444
3602 596
1281 765
3178 2600
3184 1927
2505 1145
3193 1466
3195 1457
1420 499
2509 710
1422 43
3200 1463
4232 1259
3816 1442
3213 1477
3215 1470
3230 1480
2543 2196
1507 1867
1508 306
3959 2372
2581 718
1552 84
3643 1643
1574 215
3644 1082
3276 1716
3833 2181
1581 153
3280 1086
2618 1096
3651 1650
2628 728
3290 159
1597 220
3838 2031
3294 1938
3298 1113
3297 1106
3300 1111
2642 171
3657 1662
1614 52
1615 51
3658 1670
1655 2147
3319 1393
1780 417
1781 2365
4 7
98
50 1590
4122 1119
4129 2223
539 360
550 1438
2075 1155
571 1122
3433 1817
604 1029
3443 1925
2936 1627
646 531
2957 1773
665 673
2984 2016
2985 442
2188 55
761 31
2992 1140
778 991
3007 1824
811 1486
830 1097
865 1188
871 1184
880 1894
929 1576
3919 2007
2304 1284
2319 1283
2340 687
1020 603
3927 1987
3554 1855
2364 996
2373 1434
3130 627
1181 1100
1183 572
3595 2011
3940 1075
1235 104
3160 1276
1245 674
1273 14
3169 1637
1330 941
3177 11
1332 934
2497 1897
3184 1647
1378 92
3193 1294
2509 707
2513 716
3213 1305
3215 1297
2524 712
4191 2271
3621 1657
1496 165
4032 1588
1516 1426
3636 303
3960 2017
2575 705
1552 91
1556 1892
3261 1444
3828 1737
3643 1410
2608 127
1574 220
3276 1020
2616 1028
3280 951
2618 126
3289 128
2628 727
3290 129
2632 137
3838 1412
3294 1311
3296 1034
3298 961
3301 145
3303 153
2642 155
3657 959
1611 264
1614 64
2658 124
2660 121
2662 1055
1683 497
2698 180
1753 467
1763 1130
4 8
129
2812 70
180 232
236 1576
3713 223
2861 2390
1990 2047
3405 2609
3427 2585
4128 895
2910 2409
543 1477
3880 2699
2071 1974
571 644
3435 2603
604 1547
3736 2711
612 1514
3444 2610
2936 330
3883 2792
634 603
2947 1919
2957 2373
2139 2180
2145 1397
670 1400
3456 2534
2159 954
2160 1409
691 814
2164 1259
708 319
3469 2281
737 1461
739 264
3476 2285
751 268
2992 1362
781 249
3481 2274
789 430
3483 2315
2211 237
794 228
3007 2309
3998 2774
3488 2518
3487 2284
3491 2270
3012 2642
2237 2544
838 426
3028 1891
3903 2672
858 174
2249 187
3498 2260
865 373
871 377
3502 2267
874 188
876 215
3770 2513
3769 2524
913 1966
916 693
3053 772
3774 2515
3517 1847
3917 2519
3918 2509
969 2680
991 2756
2340 147
3082 647
1024 2138
3927 2675
1047 1027
1088 1573
3120 751
1111 2352
1129 2117
3131 921
1159 1682
1207 105
2438 1517
3151 1345
1234 650
1245 229
3163 1901
1267 729
3171 1448
2479 1246
3183 1232
3184 1896
2505 2016
3193 1215
1409 2024
2509 162
3201 976
2512 137
1441 2384
2516 812
3212 1196
3215 1218
3219 1343
3621 1878
1497 439
3628 1761
3960 2499
2575 662
2600 1980
1574 980
3832 1802
3276 2176
1578 974
1597 967
4108 302
3296 1731
3302 2147
2662 1722
3663 2125
1695 360
4165 1480
3346 779
1744 705
3682 2122
2736 884
5 6
647
4 65
1161 72
8 64
1163 1096
1907 1662
1165 159
14 169
2654 2037
1169 1106
1910 1129
1168 2668
1170 176
1172 1112
2657 2379
1912 196
1914 1678
1175 171
2374 1819
2661 2252
1189 130
2378 1688
1922 162
2665 2233
1192 1079
1923 1653
1200 1099
2668 2229
1205 1059
2385 2243
3144 2672
1209 228
1210 111
62 158
1212 1068
1215 1063
2964 2378
1217 1076
69 1120
1935 1677
1936 2039
1937 1667
2393 2030
76 1057
75 168
1938 1633
3029 1737
3145 2658
1224 1122
1222 1132
85 191
1948 1686
3030 2548
1229 1651
1949 1687
2397 2048
1231 1660
1953 1694
2861 2253
1234 1133
3031 2480
1955 1649
1956 1675
1237 1105
2672 2235
1242 1109
1243 1654
1963 1664
1965 1668
2863 2374
1969 2032
2675 2055
1245 1114
1247 1102
1971 1706
2865 2472
2411 2056
2412 2038
1973 2042
2678 2244
1976 1682
1979 1078
3119 2649
1255 172
1980 2044
1985 2046
1258 1080
1261 1714
1260 1809
1262 1139
135 222
1993 1713
2968 620
1274 186
2422 1723
1995 1690
1278 1720
2424 2254
1280 1165
1282 1130
2429 1724
2430 2047
1285 250
1287 1136
1290 1704
2974 2398
1291 268
1292 251
2976 2477
2975 2554
1293 1151
2871 2396
2003 1179
2432 1186
171 234
2872 2399
1302 1140
2433 1743
2434 2072
1304 1162
1306 273
188 66
2691 2073
2438 1746
2873 2403
191 1142
190 218
2011 1747
2013 1192
2439 2397
2441 1749
2979 2494
197 279
2015 1145
3164 2693
1322 295
2016 1198
2443 1753
202 310
203 247
2017 1750
2018 1732
2021 1745
210 229
1326 262
2447 2081
2023 1207
2449 1758
3120 2651
214 264
216 298
2452 1756
2029 1751
2453 1761
3162 2694
1340 322
2696 2083
2458 2076
1343 1211
224 292
1346 313
3087 2560
2034 1739
2036 1759
228 324
2982 2557
230 326
2038 1766
2042 1763
2043 1760
1352 323
2983 2406
1353 1226
2461 2082
1356 1216
2049 1770
2050 1764
2879 2407
2880 796
252 335
255 242
2704 2270
256 239
2054 1234
1366 1169
3040 2562
2705 2094
269 341
2886 2280
3121 2613
1383 1219
2708 2101
272 349
1384 1258
1385 1187
1386 339
281 345
2887 2413
2469 2105
285 342
2066 1776
286 340
2470 2099
2709 2108
1394 1243
2472 2088
293 305
1395 1249
304 382
2474 2090
2715 2279
2070 1266
311 376
2072 1252
2475 2091
312 379
2716 2277
314 373
2077 1236
2080 1779
3147 2660
2083 1800
317 408
2720 2269
2085 1786
1408 1214
1412 1240
2889 2419
318 409
2721 2272
2994 2502
324 413
2482 2103
3043 2566
2092 1279
2093 1250
1427 1788
333 435
334 2155
2486 1807
2725 2110
2485 2113
1430 1218
2726 2276
340 447
2890 2418
2098 2115
3045 2563
347 428
2099 1223
2100 1244
2996 2422
2891 2424
349 437
2997 2503
2489 1817
2101 1253
2491 2107
357 1238
355 453
1444 404
2729 2289
362 454
2107 1815
2730 2421
1454 1268
2113 1296
2495 302
370 1261
1456 1286
2116 1799
2893 1624
2738 2283
2739 2282
2737 2292
1463 1309
2124 1824
3090 2618
2126 1802
2742 2287
2897 2297
2504 1827
398 390
1472 469
2127 1315
1476 1310
2998 2433
407 1308
2507 2114
1481 1311
1480 508
414 489
412 528
2135 1813
2136 1327
1491 1281
1495 1282
2141 1335
2142 1322
426 427
1498 1318
428 529
2145 1323
1500 1320
2146 1816
1506 464
441 516
1508 209
444 451
2152 1317
2531 2119
2530 2124
2529 2126
1514 1347
1519 1332
3051 2512
2534 2127
2538 2130
1532 1344
1534 1326
3052 2569
2160 1837
2751 2435
467 488
466 546
2163 1352
2752 2132
474 543
2164 1846
481 552
493 482
2547 1847
2546 1861
2169 1362
3053 2520
1547 1364
2548 1842
1548 2329
2909 2128
3094 2622
2549 2133
3005 2308
2550 2311
2758 2137
512 551
1561 1860
2175 1843
2177 1852
1565 557
3095 2578
1570 580
535 1370
2553 1856
2184 1859
538 1865
540 537
3054 2439
2554 561
3010 2523
545 540
546 584
2761 2146
563 563
2194 1886
567 596
568 1389
2763 2525
2914 188
570 590
2765 2148
573 601
2198 1883
2563 1875
582 573
1602 1375
1606 1880
2767 2321
3096 2580
588 1794
2918 2313
602 605
606 615
2207 634
2211 1895
1621 628
612 362
2212 1896
2213 1951
620 598
621 637
2214 1400
2574 1900
1624 1402
622 619
1628 607
623 693
2576 2163
3059 2579
632 1426
2220 1411
2775 2159
3017 2528
2221 1414
641 726
646 611
644 625
2579 1903
649 1421
1642 649
659 663
1646 1440
667 667
1653 683
2228 1437
1656 1432
670 953
678 675
1661 1918
683 681
1668 712
1669 688
3131 2628
2792 2338
1671 1447
2795 2333
688 686
2246 1453
695 687
1676 1455
2247 1934
2248 1927
1682 1451
2250 1457
2797 2340
2251 1460
704 694
706 727
1683 1454
3104 2630
2254 1464
1685 1926
2935 2448
2798 2341
713 701
2255 1466
1687 706
1686 725
1688 1476
1690 1473
2256 1470
719 732
720 710
2257 1474
2258 1475
1697 1487
735 709
2599 1944
1701 714
1698 1477
739 733
3105 2584
1702 1480
2601 2181
1704 1491
2262 1935
2603 2186
764 728
763 748
2604 2185
2266 1494
2267 1938
775 752
779 756
778 759
1714 1981
2939 2449
2270 1950
784 766
2272 1496
2611 2191
3071 2536
1718 776
792 781
2276 1503
1719 1499
795 770
2280 1495
1722 1497
1724 1504
2281 1955
2615 1961
807 689
1729 778
1730 1502
2809 2345
815 2205
817 2256
819 790
2616 2198
823 774
830 754
2945 2451
827 801
1735 792
3109 2586
2284 1967
842 797
847 1510
1740 1512
1743 1518
1742 1519
2289 1970
1749 1969
2290 1465
1751 817
866 802
2619 2208
869 808
1754 804
1757 1410
1758 782
1760 827
878 809
3111 2641
888 824
887 834
890 835
1764 643
1766 1525
901 840
903 857
908 1636
910 856
2302 1539
911 1533
1771 1528
2303 1530
912 852
916 844
915 861
1773 1541
1774 846
1777 2207
923 872
1780 1532
928 800
2624 2210
932 811
935 873
1782 1546
2305 1987
940 820
1787 1548
939 869
945 866
2308 1550
3022 2539
946 878
951 880
1788 885
952 890
954 882
955 893
2628 2351
1793 1554
1794 881
967 904
2315 1994
1797 1565
2632 2212
1802 920
2318 1991
976 911
1808 909
979 921
978 925
980 910
1810 913
1809 1569
990 924
991 918
993 1572
1001 927
1000 928
1816 1570
1002 930
1006 929
2830 2359
1010 941
1017 947
1019 939
1022 961
1023 935
1828 942
1830 950
1026 956
1031 955
1832 1577
2328 1997
1038 958
1835 1579
1042 952
2836 2219
1840 1581
1839 1587
2330 1588
2331 2000
1049 957
1051 972
1053 979
1849 1582
1850 1585
1852 968
1059 970
1854 980
1855 1590
2842 2365
1064 973
1858 1592
1860 986
1863 976
1066 981
2337 1602
1074 987
1080 983
1871 1600
1873 991
2640 2222
1081 996
2843 2223
3079 2543
1875 1595
1877 1001
1086 1004
1087 990
1088 1013
1878 1597
2344 1604
1091 993
1095 997
1887 1611
2642 2226
1102 1017
2347 2011
1891 1019
1110 1015
2364 2012
1150 1021
5 7
658
1161 116
1163 126
1907 959
1908 964
1165 129
14 136
2654 87
1166 137
1909 960
2371 1413
1171 152
1911 962
1914 965
1175 155
2960 2040
2663 1913
1186 184
2664 2044
1187 194
2377 1731
1189 188
37 981
1921 1002
2378 1426
2665 1921
2856 1916
1195 210
45 937
2380 1733
2379 1735
1923 1007
1200 1011
2382 1741
1203 211
1202 232
2384 1739
2383 1431
1206 991
3144 2298
1210 992
1930 1436
2964 2046
1217 190
68 196
3084 2194
2393 1732
76 206
75 239
2669 1922
77 205
2394 1736
1941 1442
1224 246
1944 1012
1222 1045
1945 1008
1226 1014
1948 1469
86 217
88 215
1229 224
2397 1756
1953 1471
2861 1930
3031 2137
1955 1022
1958 1450
1237 236
2672 1747
101 269
1959 1027
102 237
2862 1934
1240 242
1961 1474
2673 1750
1242 1026
2674 1931
1243 1029
1963 1452
105 1049
1965 1455
2863 1925
2405 1924
2404 1749
2407 27
2675 1936
1246 1033
1247 1032
1971 1482
2411 1769
111 252
112 319
2412 1468
113 260
2413 1751
1973 1762
3033 2245
118 279
2678 1927
2965 2054
1976 1051
1252 259
1253 432
1255 272
1980 1763
1982 1080
1257 1056
1985 1481
1258 230
2418 1757
2868 2060
2684 23
1266 1770
134 333
1993 1775
1269 280
1273 340
1274 283
140 337
1995 1062
1277 1485
2423 1942
2424 1940
1279 342
2426 1477
145 341
2972 2061
1282 289
2973 2142
3034 2198
2429 1492
152 350
1998 1068
2430 1773
1285 351
2974 2145
1288 1064
1292 354
163 1003
2975 2144
1999 1509
2001 295
2871 2066
1296 356
168 301
1299 325
1297 1067
2432 1515
1302 303
173 368
1301 297
176 367
177 1078
1303 323
2433 1516
2434 1788
1304 1075
1306 371
1307 373
2691 1790
2438 1523
2873 2070
193 372
1311 1101
2011 1098
2013 1100
2439 2067
195 384
1317 380
2979 2146
3164 2333
1319 1110
1321 389
2016 1108
2443 1528
203 336
2017 1527
2018 1496
2446 1795
2021 1086
1325 315
210 332
1326 95
2447 1529
2449 1530
2450 1783
3120 2282
1333 400
2452 1532
2029 1511
2453 1116
2454 1946
3162 2326
1335 406
2695 1798
1340 405
1343 407
2457 1785
1345 418
3087 2205
2036 1520
1347 421
228 410
2037 1519
2039 1091
2042 1525
2043 1522
1352 419
2983 2073
1353 433
2461 1792
243 179
1356 427
2049 1540
2050 1104
2879 1949
2048 1134
2464 1546
2463 1804
2051 1133
2703 1808
3088 1866
2052 1787
255 353
2704 1958
2882 2148
2465 1809
259 395
3041 2204
1374 1514
2884 1953
1375 458
3121 2254
1376 455
2059 1534
2707 1816
1379 465
1384 1153
1385 369
2887 2079
283 456
2469 1817
1389 424
1388 466
286 1122
2470 1805
2709 1819
291 476
2710 1818
1394 436
2472 1537
293 391
298 434
300 1124
302 392
1395 440
305 444
306 387
304 447
2473 1821
2068 1161
2474 1538
2069 1123
2715 1820
2070 486
311 448
1400 487
2716 1812
2077 1125
2079 1561
1404 490
2083 1166
2720 2080
2085 1547
2889 2085
1416 1085
2478 1954
3042 2155
2482 1814
2088 1575
1422 500
3043 2156
2090 1573
2092 1175
2486 1827
2725 1825
336 507
342 439
2890 2082
2098 1578
3045 2208
2099 442
2100 1136
2891 1965
349 511
2997 2150
2491 1557
356 452
2729 1830
361 526
1450 528
2107 1581
2108 1560
2109 1181
2730 2083
1454 1156
1452 530
1453 529
2113 1190
2494 1554
2733 1832
1456 1189
1457 1192
2116 1558
2736 1831
2120 1152
2118 1197
1460 534
2893 1399
2737 1834
2740 1835
387 535
388 1951
385 463
1464 536
2124 1587
3090 2210
393 498
2896 1972
398 484
1472 516
2127 1204
3126 2303
2998 1974
2129 1207
2507 1572
2747 1968
1481 541
1482 545
414 549
3000 2158
2135 1568
3149 2286
2511 1824
2137 1215
2516 483
2518 1593
2142 559
428 565
2145 1216
1500 1199
2902 1978
2146 1184
2528 1580
1506 1188
2903 1993
2149 1602
441 570
1508 304
3092 2215
2152 1191
2530 1836
2529 1837
1514 577
3051 2163
2155 1584
3003 2097
2534 1838
1532 584
1534 1214
2543 1595
3052 2213
2160 1592
2751 2098
466 596
471 561
2752 1842
2754 1598
2755 1608
492 1219
2546 1607
3053 2167
1547 601
2548 1846
1548 602
500 562
2909 2101
501 1224
3129 2261
3094 2262
2549 1847
2910 1982
3005 1981
508 1976
2758 1849
512 1229
1561 1241
2175 1850
513 586
2177 588
1565 590
2181 587
3007 2106
3009 2104
2553 1605
2184 1231
2185 1248
1576 622
3054 2168
2186 1250
2554 1611
3011 2107
1585 606
2761 1856
2193 630
2194 1620
2763 1990
3058 2218
2916 1984
1589 633
2198 1244
581 636
1597 637
582 621
2203 1616
1608 1251
2767 1989
3096 2223
2205 1243
2918 1987
2569 1621
602 635
3130 2289
2211 1627
2212 1625
2572 1624
617 1262
1622 638
2216 1261
2920 282
3015 2110
2575 1628
625 659
2576 1266
3059 2171
2577 1862
2219 1270
632 648
636 640
2221 1265
2779 1863
1638 1268
2579 1634
648 647
1640 653
1642 664
1643 667
2223 1635
658 669
1646 1279
1653 1285
1654 1284
2228 1277
1656 1283
1655 674
2231 1637
2236 1639
1661 1288
1666 1287
1669 680
684 714
3131 2266
2795 2007
2243 1645
2246 1646
695 690
701 693
3103 2267
2248 1647
1682 696
2249 1642
706 679
1683 702
3104 2226
2254 1293
1685 1650
2255 1294
1687 706
2595 1877
2256 1297
2799 2012
1693 1295
720 707
3068 2227
2257 1301
2258 1302
1695 712
1697 692
735 723
1700 716
1698 1305
739 694
742 699
743 724
748 722
2600 1876
3135 2270
1704 705
2262 1657
2603 1299
764 727
2604 1879
770 732
3070 2178
2267 1311
1709 1761
2268 1303
779 719
778 718
1713 720
2939 2014
2272 1308
2611 1884
2612 1656
2275 726
792 729
2276 1654
1719 1310
796 731
1722 1313
2281 1317
2808 2017
811 739
1728 737
1730 741
2809 2015
2811 1889
1731 740
2616 1888
1732 742
826 775
830 768
2945 2116
1735 746
836 744
835 1349
2284 1321
843 750
1740 752
1743 1323
1742 749
1746 1322
2289 1662
1749 1663
1751 755
1754 765
870 758
872 762
1758 801
878 773
888 784
886 777
891 782
2817 2018
890 780
898 779
1766 788
907 787
1769 1339
1771 794
913 793
912 786
1773 1345
1777 1681
923 797
2623 1673
1780 803
933 583
2625 1676
1782 808
1785 1682
2306 698
1787 810
939 814
2308 1352
3022 2185
946 812
3160 2294
951 818
955 816
1789 809
1793 829
1794 830
970 820
2629 1683
1796 827
2633 1899
1802 826
1803 1358
971 819
3137 2293
2318 1691
977 835
975 833
1808 837
979 836
980 839
1810 1363
1809 1361
991 841
1001 849
1000 850
2320 1693
1002 848
1818 1367
1006 851
2830 2026
2321 1700
2322 1365
1017 852
2326 1697
2328 1699
3161 2307
1038 859
1835 1371
2836 1904
1044 870
1840 1376
1839 1374
2330 1701
1849 878
1850 1382
1059 874
2842 2034
1857 872
1858 892
1861 893
1860 882
2336 1704
1863 890
1862 1381
1068 887
2337 1380
1074 886
1864 871
1078 883
1080 894
1871 1387
1873 897
1082 900
1875 902
1877 895
1086 898
1878 1391
1095 905
2347 1394
1120 1102
5 8
445
2651 712
1172 1630
19 275
2853 1961
1182 815
2664 2743
2377 2633
38 149
2665 2628
2856 2758
2380 2631
2379 2629
1923 1625
2963 2828
1199 2102
53 845
2382 2623
56 1094
58 1749
62 1611
1215 788
1216 1601
1929 1599
1930 2086
1931 1554
2389 2083
2392 2410
1217 1605
1935 1618
1937 1603
3084 378
2393 2421
73 763
2394 2415
1941 2085
2670 2613
2859 2737
1226 764
88 1823
1230 1587
1952 1548
1953 1608
96 2552
1955 1514
1958 2475
1237 761
101 740
1959 1538
1961 2092
1242 1585
1963 1580
104 1091
107 1602
2864 2610
1967 2091
2675 2738
109 1555
1246 749
1247 1532
1970 1534
1971 2088
2866 2602
2411 2617
112 2068
2412 2412
2414 2393
117 736
2679 2604
1976 1552
120 1562
1982 2062
1259 1513
125 714
1988 1487
129 702
1993 2414
1269 2209
1273 2392
140 654
1995 1497
1278 1574
2687 2717
1280 2042
1997 1569
146 633
2870 2711
1282 612
3034 2865
150 1789
2429 2408
1283 1478
151 678
2430 2373
1287 1463
1290 2029
2974 2820
1288 2200
1291 1530
160 1518
2975 2859
2001 2863
2871 2727
1299 672
2432 2380
171 716
1303 1549
2433 2377
2434 2372
1304 1556
180 1921
2435 2024
179 711
2007 2059
188 554
186 1503
2691 2367
191 617
192 599
193 1469
1312 1515
2012 2026
2013 1475
2439 2724
1315 1536
2441 2028
2694 2344
1317 1458
198 595
2015 2016
2016 1466
2443 1471
201 637
203 671
2445 2370
206 636
2446 2590
2021 2060
1327 673
2447 2025
2023 605
2450 2395
1328 667
2027 1760
1332 1472
216 577
2452 2352
2029 2058
1334 1484
2454 2598
1335 1461
3038 2811
2695 2084
1340 592
1345 585
3087 2856
2036 505
2035 2023
2981 2797
2460 1991
2042 2385
2043 2045
1357 582
2049 2004
2050 2040
2879 2720
2880 2751
251 606
2052 2361
1363 2005
255 1409
1364 549
257 1032
1366 1400
1372 1396
269 604
3123 2878
2707 2353
2061 1971
1382 519
1385 501
2887 2709
2469 2339
2066 2012
2709 2341
1394 1448
296 535
302 526
1395 573
305 1450
306 520
2070 1419
2071 1413
1400 527
2716 2583
2081 1994
3125 2906
2720 2702
1408 508
2889 2696
1414 1684
325 1417
328 442
1418 1696
2482 2576
2481 2451
326 898
1420 1683
2090 1970
336 1391
1430 435
338 473
2095 1673
344 492
2097 2137
2099 427
348 469
2995 2790
1437 885
1441 910
357 430
1445 829
360 917
362 454
361 480
1447 423
2106 1953
1450 484
2107 1373
2111 1648
1453 1374
1456 1368
374 1377
1457 475
2735 2315
2736 2329
2120 426
378 387
2122 1944
2737 2318
1462 1686
1463 467
1464 1365
391 446
3090 2850
2125 1963
2126 1990
3091 2876
1471 464
1468 900
2127 1381
401 219
1473 903
2746 2127
2506 1968
2747 2568
1481 1354
1482 1378
1485 402
1484 1642
2509 2132
2134 1960
2511 2309
2137 1371
2140 873
2520 1678
3127 2872
438 2714
1506 373
2531 2300
1514 414
1519 1370
3051 2783
2155 1967
2533 2437
2158 1658
2543 2822
1539 1332
468 875
476 282
475 2432
1543 267
491 2875
3004 2774
1556 249
2172 2104
1558 852
512 1338
1564 2098
515 235
522 797
1567 237
531 821
534 228
2760 2284
3009 2778
538 424
539 315
556 808
2913 2672
2198 1350
580 200
1595 215
582 294
2203 1950
2566 1891
1609 187
2769 2524
593 188
2918 2675
597 174
600 1327
602 324
1619 175
606 330
607 771
2208 1588
2211 1928
2212 2301
2213 1217
2573 2267
2214 1915
2216 807
2574 1934
1627 1207
1626 768
3059 2671
2776 2513
2778 2515
2221 1244
640 147
2582 1873
2579 1908
1640 273
656 285
2223 1279
2783 2258
2927 2509
663 109
1648 1421
2786 2502
2226 1165
2789 2505
1655 229
2231 1907
2233 1901
2588 2251
1661 1167
1666 1246
1669 222
1670 695
2794 2496
2796 2497
2243 1897
2244 1232
692 76
2246 1237
701 299
2248 1896
2591 2246
1682 40
1683 44
2254 1209
1685 1152
2255 1215
1687 336
1692 158
2256 1218
720 162
1701 137
1699 1196
1702 1200
744 139
1704 167
2262 1878
2609 1087
2939 2508
1717 1543
2942 1704
2808 2499
846 417
852 425
887 383
904 381
1769 1339
2303 1325
1773 1333
935 350
1787 2607
947 326
952 353
955 356
2628 1805
963 335
1794 16
2629 1932
1802 351
972 7
977 256
978 321
1809 1277
1813 1559
993 306
1816 1263
1820 338
2829 2541
1824 304
2327 1189
1832 169
2328 1894
1835 1223
1042 116
1840 1212
1839 1235
2838 2531
1849 78
2839 1163
1850 90
1852 160
1059 156
1854 1254
2842 2520
1857 259
2336 1876
1863 1183
1862 1245
1069 126
1864 2424
1076 161
1078 288
1866 92
1871 1191
1869 1241
1874 123
2843 2264
1875 31
1877 1214
1883 1264
1886 1173
2642 2245
1888 207
1891 59
1892 70
1114 110
1124 66
1137 107
6 7
767
1035 18
16 26
18 94
1036 5
25 12
26 14
28 21
33 19
1041 930
35 41
2372 1708
41 51
2469 2127
47 107
50 63
52 64
53 102
1637 1438
1048 65
61 38
66 186
1050 122
2547 2190
72 116
1054 924
1056 115
1057 206
73 46
1058 977
79 68
84 91
83 71
87 49
93 926
103 77
107 80
2027 1710
1069 994
111 992
1644 1440
1076 190
2030 1732
117 939
2029 1907
1643 1410
119 73
122 941
125 85
127 89
1080 230
1645 1435
129 234
130 188
132 87
1083 931
2233 1921
137 92
1085 949
1649 1022
142 95
1086 951
2235 1747
144 953
149 139
146 945
1088 946
152 1015
151 198
1089 995
1651 224
154 451
1650 954
1093 203
1091 101
1095 108
1653 1007
1654 1029
2238 1734
1096 126
1657 1441
2031 1412
1098 1003
1099 1011
2374 1925
1100 1013
1101 218
1661 1451
159 129
2243 1735
1662 959
1664 1452
2659 2299
2377 2037
1109 1026
2378 2046
1668 1455
1113 961
1670 960
1671 1722
1112 145
2244 1927
1672 1044
1115 1033
168 239
1676 1031
1674 1448
1677 1023
169 136
2246 1923
171 155
172 272
173 1049
2248 1748
2038 1468
1119 1054
1120 1454
1121 275
1682 1051
1122 246
1125 1030
2551 147
2381 2057
2380 1932
2042 1762
2648 2244
1687 1467
2250 1716
2598 2241
186 283
2474 2055
1688 1426
188 1037
2044 1763
1690 1062
1692 1469
195 261
1130 289
1694 1471
2046 1768
1695 1481
1132 1045
2251 1416
2047 1773
1697 1065
2048 1756
2050 1485
2052 1771
2254 1940
2253 1930
1140 303
2479 2142
2480 2137
2553 2199
2056 1769
2387 2059
1706 1482
209 304
2685 2323
2060 1738
2390 2061
2061 1774
215 220
2605 2248
2062 1775
1717 1074
1716 1020
2392 2062
226 1951
2554 2144
2066 1776
229 332
1725 1077
2394 2064
230 317
2396 2066
2556 2200
2397 2067
236 1252
237 333
2398 2145
1162 1075
1732 1496
2557 2249
2491 2068
241 345
242 353
1168 1078
1172 328
1170 349
2494 2146
247 336
251 354
250 351
1176 1508
2402 2069
254 254
2403 2070
258 356
259 334
1178 1090
2404 2071
1740 1500
2071 1786
262 343
265 357
2072 1788
1743 1516
269 370
1186 1515
2073 1790
1745 1086
2651 2282
273 371
1191 1514
274 1097
1189 379
2694 2326
278 381
1192 1100
1746 1523
1747 1098
285 363
1750 1527
287 375
1751 1511
1198 1108
1752 1517
2610 2252
2079 1796
1753 1528
1199 362
1200 387
295 390
1755 1531
1756 1532
302 1094
1759 1520
1758 1530
2406 2073
305 391
2081 1529
307 1110
1760 1522
1206 401
311 403
2082 1792
1761 1116
1763 1525
2266 1794
1210 1120
318 1486
1764 1104
1211 407
321 394
2407 1949
322 405
323 419
324 410
2268 1950
2560 2205
1769 1539
1216 427
1217 429
2499 2204
331 422
1771 1534
1221 1115
2660 2301
1223 442
1774 1121
2500 2147
1224 1118
2561 2148
2411 2077
337 432
2086 1801
2088 1799
2089 1123
1226 433
340 1122
339 412
1230 1132
2090 1538
2087 1809
2412 1956
1231 1114
1778 1545
1236 1125
1781 1549
2092 1804
1237 426
354 1117
1238 453
1239 1127
2413 2079
2269 2080
1242 1129
357 1135
2270 1958
1785 1136
360 449
1243 436
2094 1808
1786 1547
1244 2296
2675 2312
2271 1962
2095 1555
1248 1141
2100 1807
1787 1137
2099 1805
1249 440
1252 441
2613 2254
1254 1152
2104 1551
1790 1810
376 448
2103 1814
377 459
378 444
1791 1151
381 467
382 447
1255 1154
2277 1812
2661 2206
385 1143
2279 1820
2105 1817
388 1149
2503 2150
2504 2081
2563 2208
2416 1959
1258 1153
390 484
1260 1158
1795 1147
2418 2082
2617 2257
2107 1557
2108 1565
392 481
1262 1162
1797 1554
2421 2083
2663 2302
1264 490
2282 1963
2419 2085
1799 461
1266 486
414 1156
2505 2152
416 487
1801 1170
2507 2154
1800 1166
1272 480
1270 488
1274 1570
425 475
2284 1964
2110 1825
1804 1571
436 508
2286 1970
2285 1823
2566 2156
437 511
1279 1175
438 492
2424 1965
2288 1969
2112 1575
1810 1167
2290 1822
2289 1830
1812 1181
1813 1568
1815 1581
2114 1572
2115 1578
461 523
2509 2160
2116 1829
1816 1184
2511 2087
464 1188
1286 1189
1288 510
1292 502
2292 1834
469 516
1295 1183
1296 1190
1823 1172
2618 2210
1824 1587
2120 1588
2512 2163
1300 530
1301 1192
475 527
2567 2212
1307 1585
2620 2211
1311 541
2121 1583
2297 1973
2123 1580
2697 2339
484 537
1314 1202
1315 1204
485 546
491 550
489 549
1317 1191
1829 1193
1832 1584
1320 1199
2300 2096
2433 1974
2301 1586
1322 559
2517 2088
1834 1590
1323 1216
2124 1836
2569 2213
508 544
511 563
2126 1837
1836 1591
1837 1592
1329 1212
1333 1209
2570 2093
1839 1596
516 570
2434 2097
2127 1838
2435 2098
1335 555
2303 1282
2304 1978
2128 2101
2572 2215
2130 1839
529 565
2131 1594
2436 2099
2132 1842
1343 583
532 1222
1347 577
2518 2166
1842 1846
2306 1976
2133 1847
1843 989
2664 2288
2687 2327
2520 2167
1355 585
1846 567
2137 1849
2622 2262
546 596
2653 2214
2308 1981
1361 600
557 590
1364 601
1851 1233
1852 588
2521 2168
2143 1609
1856 1605
2575 2103
1860 1241
1861 1607
2623 2170
2577 2222
1867 1249
2313 1987
2688 2328
2154 1612
1874 618
2314 1993
1876 1250
1877 1243
2315 1984
1883 1244
1886 1620
604 651
2319 1994
605 635
1400 642
612 654
2322 1992
2321 1989
2624 2225
1890 1619
1405 1259
1891 1257
1407 1264
1408 632
2579 2171
2580 2223
1409 652
2158 1991
630 639
1896 1625
1412 640
1898 1629
1414 1265
2324 1999
1415 660
1416 1273
1901 1863
1417 647
1420 1261
1422 1271
2162 1634
2325 1862
647 656
1426 648
1907 1284
2327 2005
1431 663
2443 2111
1432 1283
659 672
1911 1633
664 669
1436 1276
675 681
1918 1288
1440 1279
2330 2003
1446 671
2169 1874
1447 687
2333 2007
2626 2290
686 689
687 690
688 680
1449 693
2628 2266
1451 696
1453 1646
1454 702
1925 1649
1927 1647
706 706
2630 2226
2582 2227
1464 1293
1466 1294
709 723
1468 1291
710 707
1469 701
1470 1297
1474 1301
1475 1302
714 717
1477 1305
1479 1304
2635 2270
2636 2271
1935 1657
1484 1289
1936 1643
727 679
728 727
2449 2014
1938 1311
733 694
1487 692
736 704
735 698
2343 2010
1943 1875
744 710
1491 705
2185 1879
1946 1298
747 715
748 1300
2450 2176
754 768
2451 2116
756 719
2187 1892
759 718
2638 2229
1496 1308
2190 1883
1497 1313
2191 1884
767 748
1499 1310
2534 2177
1954 1316
2585 2181
775 725
779 737
1502 741
781 729
782 801
1503 1654
2345 2015
1956 1315
785 734
1504 1309
2639 2230
1961 1658
792 746
793 740
2198 1888
2199 1894
2537 2231
794 753
1506 1341
2692 2331
1965 1659
1512 752
1515 1340
1966 1320
804 765
1518 1323
2587 2232
2454 2115
809 773
1519 749
1969 1663
815 762
816 1322
2348 2016
2349 2020
1970 1662
817 755
2207 1675
824 784
823 1324
2457 2018
1524 1329
2208 1896
1525 788
1528 794
835 780
832 760
833 777
1973 1664
1974 1354
848 821
852 786
2589 2234
1531 1339
1532 803
1537 1337
1540 861
1541 1345
862 783
1978 1668
1544 1673
1546 808
2538 2184
869 814
2353 2023
872 797
1984 1676
1985 1670
1987 1678
874 795
876 807
878 812
1550 1352
880 818
881 830
2540 2019
1554 829
1988 1685
1558 1357
891 806
893 816
2461 2119
1991 1691
1561 1350
2212 1898
899 827
910 839
909 837
913 1363
918 841
920 826
921 836
1569 1361
927 849
2657 2293
928 850
929 851
1995 1695
930 848
1573 1364
938 889
940 860
2359 2026
1574 846
2681 2318
947 852
1997 1699
951 855
954 1428
2360 2032
2218 1903
1579 1371
1578 845
958 859
1999 1043
1581 1376
1582 878
1585 1382
1587 1374
965 893
1588 1701
967 1369
2362 2029
2221 2031
1591 891
2591 2235
2004 1373
970 874
1589 885
976 890
2364 2033
2466 2123
2366 2028
983 894
986 882
2643 2272
987 886
2222 1906
1595 902
1597 1391
991 897
1598 1378
1600 1387
1602 1380
997 905
999 868
1001 895
2544 2126
1003 879
1004 898
2224 1905
1610 1395
1016 876
1615 1703
1616 1388
2011 1394
6 8
257
66 1590
1056 1118
81 1647
2025 2417
1638 2105
1063 788
111 796
1076 1605
2030 2421
126 486
1078 760
1080 1558
129 1591
1649 714
2234 2633
1652 1587
153 961
1653 1625
1655 2054
2238 2630
1657 2102
2375 2610
158 1611
1100 809
1103 1532
2243 2629
1664 1580
1667 1603
1109 1585
1669 2078
1115 749
1676 593
1674 2428
1677 1618
173 1022
2248 2623
2038 2412
1119 1513
1120 2097
1683 1551
179 742
2380 2728
2649 2799
2474 2475
1688 2197
2045 2606
1690 1497
193 793
195 805
1136 1463
2047 2373
1697 596
201 831
2050 2037
203 1469
1142 617
1704 2029
2056 2617
1706 2088
209 507
1148 1479
2390 2725
214 770
215 980
1716 2176
219 974
1720 1574
2066 2408
2394 2812
231 722
232 1525
2396 2727
234 716
2068 1779
2556 2858
2398 2820
1162 1556
2491 2809
241 656
242 1409
1169 1400
247 671
1176 2068
254 746
1740 2056
263 673
268 1530
2072 2372
1743 2377
2073 2367
1745 2060
1190 1458
1192 1475
1748 2026
285 628
1749 2028
1751 2058
1198 1466
288 1451
1200 511
299 2383
302 2052
1759 505
1760 2045
308 1627
312 569
313 562
1761 1452
1763 2385
2407 2720
322 592
2560 2856
327 1572
1770 2004
330 622
1218 435
1222 1375
1223 427
2500 2805
1224 2365
337 738
2412 2562
350 2286
1238 430
1784 1473
2269 2702
1243 1448
2271 2319
2096 2315
2099 2591
1249 573
2615 2878
1254 426
2103 2576
378 1450
2277 2583
2105 2339
1261 1392
2280 2338
2108 2341
2663 2880
409 491
2419 680
1266 1419
2505 2697
1802 1990
1806 1422
2286 2307
438 2007
1281 432
2290 2349
2289 2324
1815 1373
2291 1744
2115 1408
1816 377
464 373
1286 1368
1288 468
1291 449
2119 2300
2292 2318
1294 498
2618 2850
1299 1813
1824 1363
2513 2782
1308 1353
1311 1354
1317 1380
492 2885
2570 2698
524 547
2436 2784
532 471
1348 413
535 1121
551 1338
558 2001
2313 2675
1880 1304
1883 1350
600 1696
605 324
615 330
1890 1938
618 2310
1405 337
1431 255
1432 101
1438 1317
1441 1276
2334 2497
688 222
693 762
1451 40
1453 1237
1454 44
1925 1151
1927 1896
706 336
1464 1209
1466 1215
710 139
1470 1218
714 137
1478 1196
2181 1529
1935 1878
2449 2508
1950 83
763 1477
764 957
783 1367
2537 2132
2206 2585
834 383
842 876
1530 1325
1541 1333
873 350
879 326
1551 1301
890 353
893 356
894 281
895 305
911 257
920 351
1569 1277
925 321
1570 1263
1572 306
940 120
1577 169
1997 1894
951 1208
952 116
2219 1880
1579 1223
1585 90
1587 1235
968 160
2004 1262
970 156
1589 104
976 1183
2365 2520
2466 2670
980 1254
983 89
2643 2839
1595 31
992 123
1600 1191
2223 2264
1610 1173
7 8
412
24 2542
33 2227
36 2540
2237 2895
1405 333
947 1813
1409 1826
115 1118
1910 2659
135 218
963 1665
154 1763
150 2096
1414 2454
156 1705
967 1787
166 2192
975 2111
977 2109
982 783
1917 2741
1426 2197
172 857
1918 2759
2277 2937
985 1756
986 2105
183 828
2043 2742
1730 2761
186 554
1919 2657
189 822
1436 2086
1731 2633
1921 2628
1437 1830
2045 2754
1438 2413
191 836
193 989
194 956
1732 2421
1734 2630
202 1639
1440 2081
1007 1625
1736 2415
1441 2102
1735 2629
208 1792
2196 2864
1442 2085
210 1637
212 760
1012 2214
1014 764
1738 2460
215 1823
220 980
225 1587
226 1592
228 1814
1741 2623
230 1558
1447 2170
1020 2176
234 1548
1022 617
236 761
1744 2757
2299 2926
1450 2205
1023 1618
1746 2654
1025 2213
1026 1585
1027 1538
1453 1579
1454 2097
1926 2610
1459 2464
247 1801
1033 749
1465 2423
253 1629
1034 1731
2197 2896
1040 2071
2048 2832
2244 2911
1468 2412
1042 2077
1043 2579
1752 2393
261 805
1470 1498
2055 2621
1471 1608
1928 2604
269 740
1049 1561
268 486
1051 1552
1472 2154
1932 2728
1474 2092
1054 1513
2057 2810
1055 1722
279 216
1057 1716
1760 2091
1764 2606
1766 79
1935 2834
1062 1497
1936 2738
288 2426
2198 2865
1482 2088
1769 2617
2245 2910
290 611
1937 1483
1773 2373
1064 2200
1484 2419
1774 2618
1065 596
1485 2037
296 1028
1486 2079
2142 2806
1775 2414
1942 2730
2062 2816
305 1566
2144 2859
1776 2408
2064 2812
2065 2725
2145 2820
2066 2727
1074 1467
318 723
319 1567
2200 2858
323 1549
322 720
2067 2724
1075 1556
1077 1539
1943 2723
327 1576
1079 2049
2068 2809
1080 2062
1945 2719
1779 2615
336 671
337 654
338 1517
1946 2598
1500 2056
344 673
345 1507
1086 866
348 663
2282 2923
1783 2395
353 1409
354 1501
1089 1476
1090 1499
1785 2382
1511 2058
358 684
1786 2379
1092 1505
363 628
1515 2380
1518 2035
1788 2372
1516 2377
367 1511
1094 2052
1520 505
1790 2367
372 1469
1521 2354
1522 2045
2073 2807
1100 1475
380 1458
1525 2385
1099 2026
377 1482
2326 2935
1101 1516
1104 2040
1949 2720
387 520
1108 1466
1527 2357
1795 2590
1528 1471
388 1642
1797 2362
1529 2025
2301 2934
1531 2021
1532 2352
2147 2805
402 567
1116 1452
404 569
1118 2365
406 1461
1798 2594
1122 2012
2205 2856
418 585
420 1456
2079 2709
1540 2004
1542 2345
436 1448
1805 2591
1133 1431
2080 2702
440 573
442 427
1547 2342
444 1450
1140 1362
1550 540
1551 514
1813 2582
1814 2576
453 430
1552 2006
456 516
1962 2319
1555 423
2256 2878
1557 1993
2302 2880
462 1744
1150 1405
1817 2339
1964 2587
1819 2341
2152 2697
2154 2852
476 541
1563 2332
478 1981
1821 2343
1160 1430
2258 2853
1162 1399
1822 2349
486 1419
1565 1999
489 1394
1968 2568
492 2007
2085 680
494 458
1824 2309
1573 1970
503 1805
505 1384
1827 2331
507 1391
510 515
1970 2307
1576 1348
2210 2850
1180 852
1578 1408
1829 1987
1830 1965
2211 2851
1581 1373
1184 377
526 480
1188 373
528 484
1189 1368
1831 2329
1191 1380
1584 1967
1834 2318
1192 475
2164 2782
1585 1979
534 482
2093 2698
1204 1381
541 1354
1215 1371
1593 1393
561 1357
2166 2791
1222 471
2099 2784
1978 1958
571 1960
578 413
581 1330
2104 2778
585 405
1239 1351
1244 1350
1987 2675
1616 1950
621 294
1251 287
1619 1938
630 1445
1992 2549
1256 1327
635 324
1259 337
1627 1928
1625 2301
638 553
646 1295
1862 2298
2171 2671
653 273
655 2860
1265 1244
1634 1908
1271 1230
663 255
664 2278
1635 1279
1273 109
1280 1276
674 229
1637 1907
1287 1246
680 222
1288 1167
1645 1897
687 69
1646 1237
2008 2497
1647 1896
690 200
693 299
696 40
1293 1209
1294 1215
702 44
1649 1151
1297 1218
706 336
707 139
2176 2826
1881 2238
717 137
1306 1196
1657 1878
2014 2508
2017 2499
778 383
2181 2665
786 1080
1345 1333
1353 1301
816 356
1683 1932
826 351
833 1286
835 256
1361 1277
1369 314
1698 1189
1699 1894
860 120
1371 1223
2031 2531
1373 1262
1374 1235
1904 1880
1376 1212
869 1193
2272 2839
872 259
874 156
2123 2670
878 78
1380 263
1381 1245
1382 90
2034 2520
1703 185
883 288
885 104
888 126
890 1183
1705 1914
1387 1191
894 89
1389 1265
895 1214
897 124
902 31
